66.249.79.1 bot - "2021-05-22 01:32:04" localhost/index.php/ifi/article/download/8/1/34 200 "Mozilla/5.0 AppleWebKit/537.36 (KHTML, like Gecko; compatible; Googlebot/2.1; +http://www.google.com/bot.html) Chrome/90.0.4430.97 Safari/537.36"
66.249.79.28 bot - "2021-05-22 02:14:37" localhost/index.php/ifi/issue/view/4 200 "Googlebot/2.1 (+http://www.google.com/bot.html)"
49.44.86.196 - - "2021-05-22 03:09:38" localhost/index.php/ifi/article/download/8/1/34 200 "Mozilla/5.0 (Windows NT 10.0; Win64; x64) AppleWebKit/537.36 (KHTML, like Gecko) Chrome/90.0.4430.93 Safari/537.36"
114.124.202.21 - - "2021-05-22 06:40:00" localhost/index.php/ifi/index 200 "Mozilla/5.0 (Windows NT 6.1) AppleWebKit/537.36 (KHTML, like Gecko) Chrome/90.0.4430.212 Safari/537.36"
114.124.212.181 - - "2021-05-22 06:47:19" localhost/index.php/ifi/index 200 "Mozilla/5.0 (Windows NT 6.1) AppleWebKit/537.36 (KHTML, like Gecko) Chrome/90.0.4430.212 Safari/537.36"
114.124.212.181 - - "2021-05-22 06:50:08" localhost/index.php/ifi/article/download/8/1/34 200 "Mozilla/5.0 (Windows NT 6.1) AppleWebKit/537.36 (KHTML, like Gecko) Chrome/90.0.4430.212 Safari/537.36"
174.29.121.50 - - "2021-05-22 07:07:57" localhost/index.php/ifi/article/view/8 200 "Mozilla/5.0 (X11; CrOS x86_64 13816.64.0) AppleWebKit/537.36 (KHTML, like Gecko) Chrome/90.0.4430.100 Safari/537.36"
174.29.121.50 - - "2021-05-22 07:08:16" localhost/index.php/ifi/article/download/8/1/34 200 "Mozilla/5.0 (X11; CrOS x86_64 13816.64.0) AppleWebKit/537.36 (KHTML, like Gecko) Chrome/90.0.4430.100 Safari/537.36"
174.29.121.50 - - "2021-05-22 07:12:29" localhost/index.php/ifi/article/download/8/1/34 200 "Mozilla/5.0 (X11; CrOS x86_64 13816.64.0) AppleWebKit/537.36 (KHTML, like Gecko) Chrome/90.0.4430.100 Safari/537.36"
174.29.121.50 - - "2021-05-22 07:12:38" localhost/index.php/ifi/article/view/8 200 "Mozilla/5.0 (X11; CrOS x86_64 13816.64.0) AppleWebKit/537.36 (KHTML, like Gecko) Chrome/90.0.4430.100 Safari/537.36"
114.124.245.5 - - "2021-05-22 07:45:55" localhost/index.php/imeij/index 200 "Mozilla/5.0 (Windows NT 6.1) AppleWebKit/537.36 (KHTML, like Gecko) Chrome/90.0.4430.212 Safari/537.36"
110.136.47.142 - - "2021-05-22 09:22:10" localhost/index.php/ifi/article/view/8 200 "Mozilla/5.0 (Windows NT 10.0; Win64; x64) AppleWebKit/537.36 (KHTML, like Gecko) Chrome/90.0.4430.212 Safari/537.36"
114.124.244.149 - - "2021-05-22 09:59:51" localhost/index.php/ifi/index 200 "Mozilla/5.0 (Windows NT 6.1) AppleWebKit/537.36 (KHTML, like Gecko) Chrome/90.0.4430.212 Safari/537.36"
114.124.244.149 - - "2021-05-22 10:00:01" localhost/index.php/ifi/issue/view/4 200 "Mozilla/5.0 (Windows NT 6.1) AppleWebKit/537.36 (KHTML, like Gecko) Chrome/90.0.4430.212 Safari/537.36"
114.124.244.149 - - "2021-05-22 10:00:42" localhost/index.php/ifi/article/download/8/1/34 200 "Mozilla/5.0 (Windows NT 6.1) AppleWebKit/537.36 (KHTML, like Gecko) Chrome/90.0.4430.212 Safari/537.36"
114.124.244.149 - - "2021-05-22 10:17:07" localhost/index.php/ifi/article/download/8/1/34 200 "Mozilla/5.0 (Windows NT 6.1) AppleWebKit/537.36 (KHTML, like Gecko) Chrome/90.0.4430.212 Safari/537.36"
114.124.244.149 - - "2021-05-22 10:17:09" localhost/index.php/ifi/issue/view/4 200 "Mozilla/5.0 (Windows NT 6.1) AppleWebKit/537.36 (KHTML, like Gecko) Chrome/90.0.4430.212 Safari/537.36"
114.124.244.149 - - "2021-05-22 10:17:16" localhost/index.php/ifi/issue/view/4 200 "Mozilla/5.0 (Windows NT 6.1) AppleWebKit/537.36 (KHTML, like Gecko) Chrome/90.0.4430.212 Safari/537.36"
185.191.171.8 bot - "2021-05-22 10:21:02" localhost/index.php/ifi/issue/view/4 200 "Mozilla/5.0 (compatible; SemrushBot/7~bl; +http://www.semrush.com/bot.html)"
202.80.212.55 - - "2021-05-22 10:31:57" localhost/index.php/ifi/index 200 "Mozilla/5.0 (Windows NT 10.0; Win64; x64) AppleWebKit/537.36 (KHTML, like Gecko) Chrome/90.0.4430.212 Safari/537.36"
202.80.212.55 - - "2021-05-22 10:31:59" localhost/index.php/ifi/index 200 "Mozilla/5.0 (Windows NT 10.0; Win64; x64) AppleWebKit/537.36 (KHTML, like Gecko) Chrome/90.0.4430.212 Safari/537.36"
175.158.201.15 - - "2021-05-22 10:52:01" localhost/index.php/ifi/article/view/8 200 "Mozilla/5.0 (Windows NT 6.1; Win64; x64) AppleWebKit/537.36 (KHTML, like Gecko) Chrome/90.0.4430.93 Safari/537.36"
175.158.201.15 - - "2021-05-22 10:52:25" localhost/index.php/ifi/article/download/8/1/34 200 "Mozilla/5.0 (Windows NT 6.1; Win64; x64) AppleWebKit/537.36 (KHTML, like Gecko) Chrome/90.0.4430.93 Safari/537.36"
140.213.15.34 - - "2021-05-22 11:23:28" localhost/index.php/ifi/issue/view/4 200 "Mozilla/5.0 (Linux; Android 11; SAMSUNG SM-A507FN) AppleWebKit/537.36 (KHTML, like Gecko) SamsungBrowser/14.0 Chrome/87.0.4280.141 Mobile Safari/537.36"
114.124.244.149 - - "2021-05-22 11:23:29" localhost/index.php/ifi/index 200 "Mozilla/5.0 (Windows NT 6.1) AppleWebKit/537.36 (KHTML, like Gecko) Chrome/90.0.4430.212 Safari/537.36"
140.213.15.34 - - "2021-05-22 11:23:35" localhost/index.php/ifi/article/download/8/1/34 200 "Mozilla/5.0 (Linux; Android 11; SAMSUNG SM-A507FN) AppleWebKit/537.36 (KHTML, like Gecko) SamsungBrowser/14.0 Chrome/87.0.4280.141 Mobile Safari/537.36"
114.124.244.149 - - "2021-05-22 11:23:46" localhost/index.php/ifi/issue/view/4 200 "Mozilla/5.0 (Windows NT 6.1) AppleWebKit/537.36 (KHTML, like Gecko) Chrome/90.0.4430.212 Safari/537.36"
114.124.244.149 - - "2021-05-22 11:23:58" localhost/index.php/ifi/article/download/8/1/34 200 "Mozilla/5.0 (Windows NT 6.1) AppleWebKit/537.36 (KHTML, like Gecko) Chrome/90.0.4430.212 Safari/537.36"
114.124.244.149 - - "2021-05-22 11:24:26" localhost/index.php/ifi/issue/view/4 200 "Mozilla/5.0 (Windows NT 6.1) AppleWebKit/537.36 (KHTML, like Gecko) Chrome/90.0.4430.212 Safari/537.36"
114.124.244.149 - - "2021-05-22 11:36:18" localhost/index.php/imeij/index 200 "Mozilla/5.0 (Windows NT 6.1) AppleWebKit/537.36 (KHTML, like Gecko) Chrome/90.0.4430.212 Safari/537.36"
175.144.99.129 - - "2021-05-22 13:31:17" localhost/index.php/ifi/article/view/8 200 "Mozilla/5.0 (Linux; Android 10; MRX-W09) AppleWebKit/537.36 (KHTML, like Gecko) Chrome/77.0.3865.116 Safari/537.36 EdgA/46.03.4.5155"
175.144.99.129 - - "2021-05-22 13:32:15" localhost/index.php/ifi/issue/view/4 200 "Mozilla/5.0 (Linux; Android 10; MRX-W09) AppleWebKit/537.36 (KHTML, like Gecko) Chrome/77.0.3865.116 Safari/537.36 EdgA/46.03.4.5155"
175.144.99.129 - - "2021-05-22 13:32:40" localhost/index.php/ifi/issue/view/4 200 "WhatsApp/2.21.9.14 A"
175.144.99.129 - - "2021-05-22 13:32:52" localhost/index.php/ifi/article/download/8/1/34 200 "Mozilla/5.0 (Linux; Android 10; MRX-W09) AppleWebKit/537.36 (KHTML, like Gecko) Chrome/77.0.3865.116 Safari/537.36 EdgA/46.03.4.5155"
175.144.99.129 - - "2021-05-22 13:36:31" localhost/index.php/ifi/issue/view/4 200 "Mozilla/5.0 (Linux; Android 10; MRX-W09) AppleWebKit/537.36 (KHTML, like Gecko) Chrome/77.0.3865.116 Safari/537.36 EdgA/46.03.4.5155"
175.144.99.129 - - "2021-05-22 13:36:33" localhost/index.php/ifi/article/view/8 200 "Mozilla/5.0 (Linux; Android 10; MRX-W09) AppleWebKit/537.36 (KHTML, like Gecko) Chrome/77.0.3865.116 Safari/537.36 EdgA/46.03.4.5155"
114.124.234.53 - - "2021-05-22 13:51:43" localhost/index.php/ifi/index 200 "Mozilla/5.0 (Windows NT 6.1) AppleWebKit/537.36 (KHTML, like Gecko) Chrome/90.0.4430.212 Safari/537.36"
114.124.244.4 - - "2021-05-22 13:56:33" localhost/index.php/imeij/index 200 "Mozilla/5.0 (Windows NT 6.1) AppleWebKit/537.36 (KHTML, like Gecko) Chrome/90.0.4430.212 Safari/537.36"
66.249.79.28 bot - "2021-05-22 14:13:19" localhost/index.php/ifi/issue/view/4 200 "Googlebot/2.1 (+http://www.google.com/bot.html)"
36.83.217.137 - - "2021-05-22 19:16:18" localhost/index.php/imeij/index 200 "Mozilla/5.0 (Linux; Android 8.1.0; vivo 1724) AppleWebKit/537.36 (KHTML, like Gecko) Chrome/90.0.4430.91 Mobile Safari/537.36"
185.191.171.14 bot - "2021-05-22 19:51:39" localhost/index.php/ifi/index 200 "Mozilla/5.0 (compatible; SemrushBot/7~bl; +http://www.semrush.com/bot.html)"
125.160.138.97 - - "2021-05-22 21:18:23" localhost/index.php/imeij/index 200 "Mozilla/5.0 (Windows NT 10.0; Win64; x64) AppleWebKit/537.36 (KHTML, like Gecko) Chrome/90.0.4430.212 Safari/537.36"
125.160.138.97 - - "2021-05-22 21:18:34" localhost/index.php/ifi/index 200 "Mozilla/5.0 (Windows NT 10.0; Win64; x64) AppleWebKit/537.36 (KHTML, like Gecko) Chrome/90.0.4430.212 Safari/537.36"
125.160.138.97 - - "2021-05-22 21:22:01" localhost/index.php/ifi/index 200 "Mozilla/5.0 (Windows NT 10.0; Win64; x64) AppleWebKit/537.36 (KHTML, like Gecko) Chrome/90.0.4430.212 Safari/537.36"
125.160.138.97 - - "2021-05-22 21:23:31" localhost/index.php/ifi/index 200 "Mozilla/5.0 (Windows NT 10.0; Win64; x64) AppleWebKit/537.36 (KHTML, like Gecko) Chrome/90.0.4430.212 Safari/537.36"
125.160.138.97 - - "2021-05-22 21:30:10" localhost/index.php/ifi/index 200 "Mozilla/5.0 (Windows NT 10.0; Win64; x64) AppleWebKit/537.36 (KHTML, like Gecko) Chrome/90.0.4430.212 Safari/537.36"
125.160.138.97 - - "2021-05-22 22:06:04" localhost/index.php/ifi/issue/view/4 200 "Mozilla/5.0 (Windows NT 10.0; Win64; x64) AppleWebKit/537.36 (KHTML, like Gecko) Chrome/90.0.4430.212 Safari/537.36"
125.160.138.97 - - "2021-05-22 22:06:08" localhost/index.php/ifi/article/view/8 200 "Mozilla/5.0 (Windows NT 10.0; Win64; x64) AppleWebKit/537.36 (KHTML, like Gecko) Chrome/90.0.4430.212 Safari/537.36"
182.2.166.181 - - "2021-05-22 22:41:21" localhost/index.php/imeij/index 200 "Mozilla/5.0 (Windows NT 6.1) AppleWebKit/537.36 (KHTML, like Gecko) Chrome/90.0.4430.212 Safari/537.36"
