83.42.238.219 - - "2022-05-04 00:14:39" localhost/index.php/imeij/article/download/25/18/156 200 "Mozilla/5.0 (Windows NT 10.0; Win64; x64; rv:99.0) Gecko/20100101 Firefox/99.0"
83.42.238.219 - - "2022-05-04 00:14:39" localhost/index.php/imeij/article/download/25/18/156 200 "Mozilla/5.0 (Windows NT 10.0; Win64; x64; rv:99.0) Gecko/20100101 Firefox/99.0"
66.249.79.1 bot - "2022-05-04 00:54:39" localhost/index.php/ifi/article/download/13/4/69 200 "Googlebot/2.1 (+http://www.google.com/bot.html)"
66.249.79.28 bot - "2022-05-04 01:36:21" localhost/index.php/ifi/issue/view/4 200 "Googlebot/2.1 (+http://www.google.com/bot.html)"
66.249.79.30 bot - "2022-05-04 01:40:41" localhost/index.php/ifi/article/view/10 200 "Googlebot/2.1 (+http://www.google.com/bot.html)"
66.249.79.28 bot - "2022-05-04 01:40:57" localhost/index.php/ifi/index 200 "Googlebot/2.1 (+http://www.google.com/bot.html)"
66.249.79.28 bot - "2022-05-04 02:55:22" localhost/index.php/imeij/issue/view/11 200 "Googlebot/2.1 (+http://www.google.com/bot.html)"
52.3.217.254 bot - "2022-05-04 03:10:31" localhost/index.php/imeij/article/view/24 200 "com.plumanalytics"
54.36.148.152 bot - "2022-05-04 04:27:46" localhost/index.php/imeij/article/view/22 200 "Mozilla/5.0 (compatible; AhrefsBot/7.0; +http://ahrefs.com/robot/)"
66.249.79.1 bot - "2022-05-04 04:36:37" localhost/index.php/imeij/article/download/25/18/156 200 "Mozilla/5.0 (Linux; Android 6.0.1; Nexus 5X Build/MMB29P) AppleWebKit/537.36 (KHTML, like Gecko) Chrome/100.0.4896.127 Mobile Safari/537.36 (compatible; Googlebot/2.1; +http://www.google.com/bot.html)"
66.249.79.30 bot - "2022-05-04 04:41:35" localhost/index.php/imeij/article/download/29/17/153 200 "Mozilla/5.0 (Linux; Android 6.0.1; Nexus 5X Build/MMB29P) AppleWebKit/537.36 (KHTML, like Gecko) Chrome/100.0.4896.127 Mobile Safari/537.36 (compatible; Googlebot/2.1; +http://www.google.com/bot.html)"
66.249.79.30 bot - "2022-05-04 06:36:15" localhost/index.php/ifi/article/view/15 200 "Mozilla/5.0 (Linux; Android 6.0.1; Nexus 5X Build/MMB29P) AppleWebKit/537.36 (KHTML, like Gecko) Chrome/100.0.4896.127 Mobile Safari/537.36 (compatible; Googlebot/2.1; +http://www.google.com/bot.html)"
157.55.39.19 bot - "2022-05-04 06:47:48" localhost/index.php/imeij/article/view/24 200 "Mozilla/5.0 (compatible; bingbot/2.0; +http://www.bing.com/bingbot.htm)"
114.124.239.45 - - "2022-05-04 08:26:14" localhost/index.php/imeij/index 200 "Mozilla/5.0 (Windows NT 6.1) AppleWebKit/537.36 (KHTML, like Gecko) Chrome/100.0.4896.127 Safari/537.36"
114.124.239.45 administrative 15 "2022-05-04 08:40:53" localhost/index.php/imeij/index 200 "Mozilla/5.0 (Windows NT 6.1) AppleWebKit/537.36 (KHTML, like Gecko) Chrome/100.0.4896.127 Safari/537.36"
54.36.149.35 bot - "2022-05-04 08:54:10" localhost/index.php/imeij/article/view/24 200 "Mozilla/5.0 (compatible; AhrefsBot/7.0; +http://ahrefs.com/robot/)"
180.244.167.33 - - "2022-05-04 09:05:28" localhost/index.php/imeij/issue/view/11 200 "Mozilla/5.0 (Linux; Android 10; vivo 1804) AppleWebKit/537.36 (KHTML, like Gecko) Chrome/80.0.3987.99 Mobile Safari/537.36"
180.244.167.33 - - "2022-05-04 09:05:36" localhost/index.php/imeij/index 200 "Mozilla/5.0 (Linux; Android 10; vivo 1804) AppleWebKit/537.36 (KHTML, like Gecko) Chrome/80.0.3987.99 Mobile Safari/537.36"
180.244.167.33 - - "2022-05-04 09:06:03" localhost/index.php/imeij/issue/view/11 200 "Mozilla/5.0 (Linux; Android 10; vivo 1804) AppleWebKit/537.36 (KHTML, like Gecko) Chrome/80.0.3987.99 Mobile Safari/537.36"
180.244.167.33 - - "2022-05-04 09:06:29" localhost/index.php/imeij/index 200 "Mozilla/5.0 (Linux; Android 10; vivo 1804) AppleWebKit/537.36 (KHTML, like Gecko) Chrome/80.0.3987.99 Mobile Safari/537.36"
180.244.167.33 - - "2022-05-04 09:06:48" localhost/index.php/imeij/issue/view/9 200 "Mozilla/5.0 (Linux; Android 10; vivo 1804) AppleWebKit/537.36 (KHTML, like Gecko) Chrome/80.0.3987.99 Mobile Safari/537.36"
54.36.149.12 bot - "2022-05-04 09:22:55" localhost/index.php/ifi/issue/view/4 200 "Mozilla/5.0 (compatible; AhrefsBot/7.0; +http://ahrefs.com/robot/)"
207.46.13.119 bot - "2022-05-04 10:00:33" localhost/index.php/ifi/index 200 "Mozilla/5.0 (compatible; bingbot/2.0; +http://www.bing.com/bingbot.htm)"
114.122.167.152 - - "2022-05-04 11:14:50" localhost/index.php/ifi/article/download/8/1/34 200 "Mozilla/5.0 (Windows NT 10.0; Win64; x64) AppleWebKit/537.36 (KHTML, like Gecko) Chrome/100.0.4896.127 Safari/537.36"
66.249.79.1 bot - "2022-05-04 12:25:32" localhost/index.php/imeij/article/download/22/11/99 200 "Googlebot/2.1 (+http://www.google.com/bot.html)"
66.249.79.28 bot - "2022-05-04 13:11:05" localhost/index.php/imeij/index 200 "Googlebot/2.1 (+http://www.google.com/bot.html)"
66.249.79.1 bot - "2022-05-04 13:15:20" localhost/index.php/imeij/issue/view/6 200 "Googlebot/2.1 (+http://www.google.com/bot.html)"
66.249.79.30 bot - "2022-05-04 13:37:43" localhost/index.php/ifi/article/view/15 200 "Mozilla/5.0 (compatible; Googlebot/2.1; +http://www.google.com/bot.html)"
66.249.79.28 bot - "2022-05-04 13:40:33" localhost/index.php/imeij/issue/view/11 200 "Googlebot/2.1 (+http://www.google.com/bot.html)"
185.191.171.45 bot - "2022-05-04 13:44:33" localhost/index.php/idiea/index 200 "Mozilla/5.0 (compatible; SemrushBot/7~bl; +http://www.semrush.com/bot.html)"
114.119.130.30 bot - "2022-05-04 13:57:25" localhost/index.php/imeij/article/view/21 200 "Mozilla/5.0 (Linux; Android 7.0;) AppleWebKit/537.36 (KHTML, like Gecko) Mobile Safari/537.36 (compatible; PetalBot;+https://webmaster.petalsearch.com/site/petalbot)"
207.46.13.119 bot - "2022-05-04 15:09:44" localhost/index.php/ifi/index 200 "Mozilla/5.0 (compatible; bingbot/2.0; +http://www.bing.com/bingbot.htm)"
185.191.171.4 bot - "2022-05-04 15:17:47" localhost/index.php/imeij/article/view/25 200 "Mozilla/5.0 (compatible; SemrushBot/7~bl; +http://www.semrush.com/bot.html)"
182.0.212.120 - - "2022-05-04 16:17:15" localhost/index.php/imeij/issue/view/9 200 "Mozilla/5.0 (Linux; Android 10; vivo 1804) AppleWebKit/537.36 (KHTML, like Gecko) Chrome/80.0.3987.99 Mobile Safari/537.36"
114.124.206.12 - - "2022-05-04 16:21:45" localhost/index.php/imeij/index 200 "Mozilla/5.0 (Windows NT 6.1) AppleWebKit/537.36 (KHTML, like Gecko) Chrome/100.0.4896.127 Safari/537.36"
114.124.206.12 - - "2022-05-04 16:23:29" localhost/index.php/ifi/index 200 "Mozilla/5.0 (Windows NT 6.1) AppleWebKit/537.36 (KHTML, like Gecko) Chrome/100.0.4896.127 Safari/537.36"
114.124.206.12 - - "2022-05-04 16:25:08" localhost/index.php/idijes/index 200 "Mozilla/5.0 (Windows NT 6.1) AppleWebKit/537.36 (KHTML, like Gecko) Chrome/100.0.4896.127 Safari/537.36"
114.124.206.12 - - "2022-05-04 16:25:47" localhost/index.php/idijes/index 200 "Mozilla/5.0 (Windows NT 6.1) AppleWebKit/537.36 (KHTML, like Gecko) Chrome/100.0.4896.127 Safari/537.36"
114.124.206.12 - - "2022-05-04 16:28:04" localhost/index.php/imeij/index 200 "Mozilla/5.0 (Windows NT 6.1) AppleWebKit/537.36 (KHTML, like Gecko) Chrome/100.0.4896.127 Safari/537.36"
114.124.206.12 - - "2022-05-04 16:28:10" localhost/index.php/imeij/issue/view/9 200 "Mozilla/5.0 (Windows NT 6.1) AppleWebKit/537.36 (KHTML, like Gecko) Chrome/100.0.4896.127 Safari/537.36"
114.124.206.12 - - "2022-05-04 16:29:09" localhost/index.php/imeij/issue/view/8 200 "Mozilla/5.0 (Windows NT 6.1) AppleWebKit/537.36 (KHTML, like Gecko) Chrome/100.0.4896.127 Safari/537.36"
114.124.206.12 - - "2022-05-04 16:29:18" localhost/index.php/imeij/issue/view/6 200 "Mozilla/5.0 (Windows NT 6.1) AppleWebKit/537.36 (KHTML, like Gecko) Chrome/100.0.4896.127 Safari/537.36"
186.69.173.208 - - "2022-05-04 19:14:45" localhost/index.php/imeij/index 200 "Mozilla/5.0 (Windows NT 10.0; Win64; x64) AppleWebKit/537.36 (KHTML, like Gecko) Chrome/100.0.4896.127 Safari/537.36"
198.20.67.197 - - "2022-05-04 19:34:17" localhost/index.php/idijes/index 200 "Mozilla/5.0 (compatible; MSIE 9.0; Windows NT 6.1; WOW64; Trident/6.0)"
198.20.67.197 bot - "2022-05-04 19:34:27" localhost/index.php/imeij/index 200 "SiteLockSpider [en] (WinNT; I ;Nav)"
185.191.171.2 bot - "2022-05-04 19:53:00" localhost/index.php/ifi/index 200 "Mozilla/5.0 (compatible; SemrushBot/7~bl; +http://www.semrush.com/bot.html)"
182.2.164.178 - - "2022-05-04 19:54:20" localhost/index.php/imeij/index 200 "Mozilla/5.0 (Windows NT 6.1) AppleWebKit/537.36 (KHTML, like Gecko) Chrome/100.0.4896.127 Safari/537.36"
182.2.164.178 - - "2022-05-04 19:54:27" localhost/index.php/imeij/issue/view/9 200 "Mozilla/5.0 (Windows NT 6.1) AppleWebKit/537.36 (KHTML, like Gecko) Chrome/100.0.4896.127 Safari/537.36"
182.2.164.178 - - "2022-05-04 19:54:34" localhost/index.php/imeij/article/download/16/6/74 200 "Mozilla/5.0 (Windows NT 6.1) AppleWebKit/537.36 (KHTML, like Gecko) Chrome/100.0.4896.127 Safari/537.36"
182.2.164.178 - - "2022-05-04 19:59:38" localhost/index.php/imeij/issue/view/9 200 "Mozilla/5.0 (Windows NT 6.1) AppleWebKit/537.36 (KHTML, like Gecko) Chrome/100.0.4896.127 Safari/537.36"
182.2.164.178 - - "2022-05-04 19:59:41" localhost/index.php/imeij/article/download/16/6/74 200 "Mozilla/5.0 (Windows NT 6.1) AppleWebKit/537.36 (KHTML, like Gecko) Chrome/100.0.4896.127 Safari/537.36"
182.2.164.178 - - "2022-05-04 20:00:17" localhost/index.php/imeij/issue/view/9 200 "Mozilla/5.0 (Windows NT 6.1) AppleWebKit/537.36 (KHTML, like Gecko) Chrome/100.0.4896.127 Safari/537.36"
185.191.171.39 bot - "2022-05-04 20:37:59" localhost/index.php/imeij/article/download/16/6/74 200 "Mozilla/5.0 (compatible; SemrushBot/7~bl; +http://www.semrush.com/bot.html)"
114.119.130.30 bot - "2022-05-04 21:55:16" localhost/index.php/idiea/index 200 "Mozilla/5.0 (Linux; Android 7.0;) AppleWebKit/537.36 (KHTML, like Gecko) Mobile Safari/537.36 (compatible; PetalBot;+https://webmaster.petalsearch.com/site/petalbot)"
186.69.173.208 - - "2022-05-04 22:33:55" localhost/index.php/imeij/index 200 "Mozilla/5.0 (Windows NT 10.0; Win64; x64) AppleWebKit/537.36 (KHTML, like Gecko) Chrome/100.0.4896.127 Safari/537.36"
186.69.173.208 - - "2022-05-04 22:40:05" localhost/index.php/imeij/index 200 "Mozilla/5.0 (Windows NT 10.0; Win64; x64) AppleWebKit/537.36 (KHTML, like Gecko) Chrome/100.0.4896.127 Safari/537.36"
66.249.79.28 bot - "2022-05-04 23:34:20" localhost/index.php/imeij/index 200 "Mozilla/5.0 (Linux; Android 6.0.1; Nexus 5X Build/MMB29P) AppleWebKit/537.36 (KHTML, like Gecko) Chrome/100.0.4896.127 Mobile Safari/537.36 (compatible; Googlebot/2.1; +http://www.google.com/bot.html)"
186.69.173.208 administrative 47 "2022-05-04 23:47:19" localhost/index.php/imeij/index 200 "Mozilla/5.0 (Windows NT 10.0; Win64; x64) AppleWebKit/537.36 (KHTML, like Gecko) Chrome/100.0.4896.127 Safari/537.36"
186.69.173.208 administrative 47 "2022-05-04 23:47:39" localhost/index.php/imeij/article/view/25 200 "Mozilla/5.0 (Windows NT 10.0; Win64; x64) AppleWebKit/537.36 (KHTML, like Gecko) Chrome/100.0.4896.127 Safari/537.36"
186.69.173.208 administrative 47 "2022-05-04 23:48:09" localhost/index.php/imeij/article/download/25/18/156 200 "Mozilla/5.0 (Windows NT 10.0; Win64; x64) AppleWebKit/537.36 (KHTML, like Gecko) Chrome/100.0.4896.127 Safari/537.36"
186.69.173.208 administrative 47 "2022-05-04 23:48:09" localhost/index.php/imeij/article/download/25/18/156 200 "Mozilla/5.0 (Windows NT 10.0; Win64; x64) AppleWebKit/537.36 (KHTML, like Gecko) Chrome/100.0.4896.127 Safari/537.36"
186.69.173.208 administrative 47 "2022-05-04 23:48:11" localhost/index.php/imeij/article/view/25 200 "Mozilla/5.0 (Windows NT 10.0; Win64; x64) AppleWebKit/537.36 (KHTML, like Gecko) Chrome/100.0.4896.127 Safari/537.36"
