24.208.230.218 - - "2021-10-27 00:50:39" localhost/index.php/imeij/issue/view/9 200 "Mozilla/5.0 (Windows NT 10.0; Win64; x64) AppleWebKit/537.36 (KHTML, like Gecko) Chrome/95.0.4638.54 Safari/537.36"
66.249.79.220 bot - "2021-10-27 01:33:51" localhost/index.php/imeij/index 200 "Googlebot/2.1 (+http://www.google.com/bot.html)"
66.249.79.198 bot - "2021-10-27 02:00:31" localhost/index.php/ifi/article/download/15/5/70 200 "Googlebot/2.1 (+http://www.google.com/bot.html)"
92.53.45.179 - - "2021-10-27 02:04:10" localhost/index.php/imeij/index 200 "Mozilla/5.0 (Windows NT 10.0; Win64; x64) AppleWebKit/537.36 (KHTML, like Gecko) Chrome/94.0.4606.81 Safari/537.36"
66.249.79.200 bot - "2021-10-27 02:05:33" localhost/index.php/imeij/issue/view/8 200 "Googlebot/2.1 (+http://www.google.com/bot.html)"
80.80.37.68 - - "2021-10-27 02:20:24" localhost/index.php/imeij/article/download/23/15/107 200 "Mozilla/5.0 (Windows NT 10.0; Win64; x64) AppleWebKit/537.36 (KHTML, like Gecko) Chrome/95.0.4638.54 Safari/537.36"
66.249.79.198 bot - "2021-10-27 02:22:09" localhost/index.php/ifi/issue/view/4 200 "Googlebot/2.1 (+http://www.google.com/bot.html)"
80.80.37.68 - - "2021-10-27 02:28:41" localhost/index.php/imeij/article/download/24/14/105 200 "Mozilla/5.0 (Windows NT 10.0; Win64; x64) AppleWebKit/537.36 (KHTML, like Gecko) Chrome/95.0.4638.54 Safari/537.36"
66.249.79.202 bot - "2021-10-27 02:43:07" localhost/index.php/imeij/article/download/16/6/74 200 "Googlebot/2.1 (+http://www.google.com/bot.html)"
66.249.79.198 bot - "2021-10-27 02:43:37" localhost/index.php/imeij/issue/view/9 200 "Googlebot/2.1 (+http://www.google.com/bot.html)"
66.249.79.222 bot - "2021-10-27 02:49:24" localhost/index.php/idiea/index 200 "Googlebot/2.1 (+http://www.google.com/bot.html)"
66.249.79.220 bot - "2021-10-27 02:52:02" localhost/index.php/ifi/article/download/14/3/64 200 "Googlebot/2.1 (+http://www.google.com/bot.html)"
176.232.56.3 - - "2021-10-27 03:12:21" localhost/index.php/imeij/article/download/20/13/103 200 "Mozilla/5.0 (iPhone; CPU iPhone OS 14_8 like Mac OS X) AppleWebKit/605.1.15 (KHTML, like Gecko) Version/14.1.2 Mobile/15E148 Safari/604.1"
66.249.79.222 bot - "2021-10-27 03:19:36" localhost/index.php/imeij/article/download/19/12/102 200 "Mozilla/5.0 (Linux; Android 6.0.1; Nexus 5X Build/MMB29P) AppleWebKit/537.36 (KHTML, like Gecko) Chrome/94.0.4606.81 Mobile Safari/537.36 (compatible; Googlebot/2.1; +http://www.google.com/bot.html)"
94.121.226.110 - - "2021-10-27 03:53:29" localhost/index.php/imeij/article/download/24/14/105 200 "Mozilla/5.0 (Windows NT 10.0; WOW64) AppleWebKit/537.36 (KHTML, like Gecko) Chrome/94.0.4606.81 Safari/537.36"
94.121.226.110 - - "2021-10-27 03:54:17" localhost/index.php/imeij/article/view/24 200 "Mozilla/5.0 (Windows NT 10.0; WOW64) AppleWebKit/537.36 (KHTML, like Gecko) Chrome/94.0.4606.81 Safari/537.36"
94.121.226.110 - - "2021-10-27 03:57:08" localhost/index.php/imeij/issue/view/9 200 "Mozilla/5.0 (Windows NT 10.0; WOW64) AppleWebKit/537.36 (KHTML, like Gecko) Chrome/94.0.4606.81 Safari/537.36"
94.121.226.110 - - "2021-10-27 03:57:17" localhost/index.php/imeij/article/view/24 200 "Mozilla/5.0 (Windows NT 10.0; WOW64) AppleWebKit/537.36 (KHTML, like Gecko) Chrome/94.0.4606.81 Safari/537.36"
94.121.226.110 - - "2021-10-27 03:58:58" localhost/index.php/imeij/issue/view/9 200 "Mozilla/5.0 (Windows NT 10.0; WOW64) AppleWebKit/537.36 (KHTML, like Gecko) Chrome/94.0.4606.81 Safari/537.36"
94.121.226.110 - - "2021-10-27 03:59:01" localhost/index.php/imeij/article/view/24 200 "Mozilla/5.0 (Windows NT 10.0; WOW64) AppleWebKit/537.36 (KHTML, like Gecko) Chrome/94.0.4606.81 Safari/537.36"
185.191.171.9 bot - "2021-10-27 05:14:54" localhost/index.php/ifi/index 200 "Mozilla/5.0 (compatible; SemrushBot/7~bl; +http://www.semrush.com/bot.html)"
188.58.72.124 - - "2021-10-27 05:21:33" localhost/index.php/imeij/article/view/24 200 "Mozilla/5.0 (iPhone; CPU iPhone OS 14_8 like Mac OS X) AppleWebKit/605.1.15 (KHTML, like Gecko) Version/14.1.2 Mobile/15E148 Safari/604.1"
188.58.72.124 - - "2021-10-27 05:22:19" localhost/index.php/imeij/article/view/24 200 "Mozilla/5.0 (iPhone; CPU iPhone OS 14_8 like Mac OS X) AppleWebKit/605.1.15 (KHTML, like Gecko) Version/14.1.2 Mobile/15E148 Safari/604.1"
49.179.161.48 - - "2021-10-27 05:34:19" localhost/index.php/imeij/article/view/24 200 "Mozilla/5.0 (Macintosh; Intel Mac OS X 10_15_7) AppleWebKit/537.36 (KHTML, like Gecko) Chrome/94.0.4606.71 Safari/537.36"
49.179.161.48 - - "2021-10-27 05:37:57" localhost/index.php/imeij/article/download/24/14/105 200 "Mozilla/5.0 (Macintosh; Intel Mac OS X 10_15_7) AppleWebKit/537.36 (KHTML, like Gecko) Chrome/94.0.4606.71 Safari/537.36"
180.253.185.213 - - "2021-10-27 07:21:45" localhost/index.php/ifi/article/download/15/5/70 200 "Mozilla/5.0 (Linux; Android 11; RMX3195) AppleWebKit/537.36 (KHTML, like Gecko) Chrome/94.0.4606.85 Mobile Safari/537.36"
114.119.133.134 bot - "2021-10-27 08:03:52" localhost/index.php/idiea/index 200 "Mozilla/5.0 (Linux; Android 7.0;) AppleWebKit/537.36 (KHTML, like Gecko) Mobile Safari/537.36 (compatible; PetalBot;+https://webmaster.petalsearch.com/site/petalbot)"
114.119.133.142 bot - "2021-10-27 08:21:19" localhost/index.php/ifi/issue/view/4 200 "Mozilla/5.0 (Linux; Android 7.0;) AppleWebKit/537.36 (KHTML, like Gecko) Mobile Safari/537.36 (compatible; PetalBot;+https://webmaster.petalsearch.com/site/petalbot)"
103.19.180.1 - - "2021-10-27 08:26:12" localhost/index.php/imeij/article/download/20/13/103 200 "Mozilla/5.0 (Windows NT 10.0; Win64; x64) AppleWebKit/537.36 (KHTML, like Gecko) Chrome/95.0.4638.54 Safari/537.36"
114.119.133.152 bot - "2021-10-27 08:37:44" localhost/index.php/ifi/article/view/10 200 "Mozilla/5.0 (Linux; Android 7.0;) AppleWebKit/537.36 (KHTML, like Gecko) Mobile Safari/537.36 (compatible; PetalBot;+https://webmaster.petalsearch.com/site/petalbot)"
36.72.212.47 - - "2021-10-27 09:26:04" localhost/index.php/ifi/article/download/10/2/61 200 "Mozilla/5.0 (Windows NT 6.1) AppleWebKit/537.36 (KHTML, like Gecko) Chrome/94.0.4606.81 Safari/537.36"
180.245.32.74 - - "2021-10-27 09:32:59" localhost/index.php/ifi/index 200 "Mozilla/5.0 (Windows NT 10.0; Win64; x64) AppleWebKit/537.36 (KHTML, like Gecko) Chrome/95.0.4638.54 Safari/537.36"
211.0.129.50 - - "2021-10-27 09:33:25" localhost/index.php/ifi/article/download/14/3/64 200 "Mozilla/5.0 (Windows NT 10.0; WOW64; Trident/7.0; Touch; rv:11.0) like Gecko"
114.124.237.25 - - "2021-10-27 12:12:42" localhost/index.php/imeij/index 200 "Mozilla/5.0 (Windows NT 6.1) AppleWebKit/537.36 (KHTML, like Gecko) Chrome/95.0.4638.54 Safari/537.36"
185.191.171.43 bot - "2021-10-27 13:54:14" localhost/index.php/imeij/article/view/24 200 "Mozilla/5.0 (compatible; SemrushBot/7~bl; +http://www.semrush.com/bot.html)"
66.249.79.222 bot - "2021-10-27 14:18:42" localhost/index.php/imeij/article/view/21 200 "Googlebot/2.1 (+http://www.google.com/bot.html)"
66.249.79.220 bot - "2021-10-27 14:20:13" localhost/index.php/ifi/issue/view/4 200 "Googlebot/2.1 (+http://www.google.com/bot.html)"
66.249.79.192 bot - "2021-10-27 14:23:53" localhost/index.php/imeij/issue/view/9 200 "Googlebot/2.1 (+http://www.google.com/bot.html)"
66.249.79.220 bot - "2021-10-27 14:31:01" localhost/index.php/idijes/index 200 "Googlebot/2.1 (+http://www.google.com/bot.html)"
114.119.133.14 bot - "2021-10-27 15:05:40" localhost/index.php/ifi/article/download/8/1/34 200 "Mozilla/5.0 (Linux; Android 7.0;) AppleWebKit/537.36 (KHTML, like Gecko) Mobile Safari/537.36 (compatible; PetalBot;+https://webmaster.petalsearch.com/site/petalbot)"
66.249.79.192 bot - "2021-10-27 15:09:28" localhost/index.php/imeij/article/view/22 200 "Googlebot/2.1 (+http://www.google.com/bot.html)"
66.249.79.220 bot - "2021-10-27 16:00:56" localhost/index.php/ifi/article/view/13 200 "Googlebot/2.1 (+http://www.google.com/bot.html)"
185.191.171.36 bot - "2021-10-27 17:46:57" localhost/index.php/imeij/article/download/16/6/74 200 "Mozilla/5.0 (compatible; SemrushBot/7~bl; +http://www.semrush.com/bot.html)"
207.46.13.87 bot - "2021-10-27 18:12:57" localhost/index.php/ifi/issue/view/4 200 "Mozilla/5.0 (compatible; bingbot/2.0; +http://www.bing.com/bingbot.htm)"
198.20.67.197 - - "2021-10-27 19:18:16" localhost/index.php/ifi/index 200 "Mozilla/5.0 (compatible; MSIE 9.0; Windows NT 6.1; WOW64; Trident/6.0)"
40.77.167.92 bot - "2021-10-27 19:53:09" localhost/index.php/imeij/article/view/24 200 "Mozilla/5.0 (compatible; bingbot/2.0; +http://www.bing.com/bingbot.htm)"
207.46.13.4 bot - "2021-10-27 19:53:17" localhost/index.php/imeij/article/view/19 200 "Mozilla/5.0 (compatible; bingbot/2.0; +http://www.bing.com/bingbot.htm)"
207.46.13.4 bot - "2021-10-27 19:53:17" localhost/index.php/imeij/article/view/20 200 "Mozilla/5.0 (compatible; bingbot/2.0; +http://www.bing.com/bingbot.htm)"
157.55.39.79 bot - "2021-10-27 19:53:21" localhost/index.php/imeij/article/view/23 200 "Mozilla/5.0 (compatible; bingbot/2.0; +http://www.bing.com/bingbot.htm)"
180.245.32.74 - - "2021-10-27 20:57:27" localhost/index.php/ifi/index 200 "Mozilla/5.0 (Windows NT 10.0; Win64; x64) AppleWebKit/537.36 (KHTML, like Gecko) Chrome/95.0.4638.54 Safari/537.36"
180.245.32.74 - - "2021-10-27 21:00:56" localhost/index.php/imeij/index 200 "Mozilla/5.0 (Windows NT 6.2; Win64; x64; rv:93.0) Gecko/20100101 Firefox/93.0"
185.191.171.3 bot - "2021-10-27 21:11:42" localhost/index.php/ifi/article/view/10 200 "Mozilla/5.0 (compatible; SemrushBot/7~bl; +http://www.semrush.com/bot.html)"
180.245.32.74 - - "2021-10-27 21:16:06" localhost/index.php/ifi/index 200 "Mozilla/5.0 (Windows NT 6.2; Win64; x64; rv:93.0) Gecko/20100101 Firefox/93.0"
180.245.32.74 - - "2021-10-27 21:19:35" localhost/index.php/ifi/index 200 "Mozilla/5.0 (Windows NT 6.2; Win64; x64; rv:93.0) Gecko/20100101 Firefox/93.0"
180.245.32.74 - - "2021-10-27 21:23:39" localhost/index.php/ifi/issue/view/4 200 "Mozilla/5.0 (Windows NT 6.2; Win64; x64; rv:93.0) Gecko/20100101 Firefox/93.0"
180.245.32.74 - - "2021-10-27 21:23:47" localhost/index.php/ifi/issue/view/4 200 "Mozilla/5.0 (Windows NT 6.2; Win64; x64; rv:93.0) Gecko/20100101 Firefox/93.0"
180.245.32.74 - - "2021-10-27 21:24:38" localhost/index.php/ifi/index 200 "Mozilla/5.0 (Windows NT 6.2; Win64; x64; rv:93.0) Gecko/20100101 Firefox/93.0"
180.245.32.74 - - "2021-10-27 21:26:31" localhost/index.php/ifi/index 200 "Mozilla/5.0 (Windows NT 6.2; Win64; x64; rv:93.0) Gecko/20100101 Firefox/93.0"
180.245.32.74 - - "2021-10-27 21:37:19" localhost/index.php/ifi/index 200 "Mozilla/5.0 (Windows NT 6.2; Win64; x64; rv:93.0) Gecko/20100101 Firefox/93.0"
180.245.32.74 - - "2021-10-27 21:37:33" localhost/index.php/imeij/index 200 "Mozilla/5.0 (Windows NT 6.2; Win64; x64; rv:93.0) Gecko/20100101 Firefox/93.0"
185.191.171.33 bot - "2021-10-27 21:55:55" localhost/index.php/imeij/article/view/19 200 "Mozilla/5.0 (compatible; SemrushBot/7~bl; +http://www.semrush.com/bot.html)"
180.245.32.74 - - "2021-10-27 22:30:38" localhost/index.php/imeij/index 200 "Mozilla/5.0 (Windows NT 6.2; Win64; x64; rv:93.0) Gecko/20100101 Firefox/93.0"
180.245.32.74 - - "2021-10-27 22:36:46" localhost/index.php/imeij/index 200 "Mozilla/5.0 (Windows NT 6.2; Win64; x64; rv:93.0) Gecko/20100101 Firefox/93.0"
180.245.32.74 - - "2021-10-27 22:37:06" localhost/index.php/ifi/index 200 "Mozilla/5.0 (Windows NT 6.2; Win64; x64; rv:93.0) Gecko/20100101 Firefox/93.0"
114.119.133.134 bot - "2021-10-27 22:49:58" localhost/index.php/idijes/index 200 "Mozilla/5.0 (Linux; Android 7.0;) AppleWebKit/537.36 (KHTML, like Gecko) Mobile Safari/537.36 (compatible; PetalBot;+https://webmaster.petalsearch.com/site/petalbot)"
157.55.39.84 bot - "2021-10-27 23:16:31" localhost/index.php/idijes/index 200 "Mozilla/5.0 (compatible; bingbot/2.0; +http://www.bing.com/bingbot.htm)"
35.165.39.38 - - "2021-10-27 23:52:01" localhost/index.php/imeij/article/view/23 200 "Mozilla/5.0 Firefox/26.0"
66.249.79.222 bot - "2021-10-27 23:57:38" localhost/index.php/ifi/article/download/8/1/34 200 "Mozilla/5.0 (compatible; Googlebot/2.1; +http://www.google.com/bot.html)"
