114.124.142.136 - - "2021-02-12 09:47:45" localhost/index.php/ifi/index 200 "Mozilla/5.0 (Windows NT 6.1) AppleWebKit/537.36 (KHTML, like Gecko) Chrome/88.0.4324.150 Safari/537.36"
114.124.142.136 administrative 3 "2021-02-12 09:48:33" localhost/index.php/ifi/index 200 "Mozilla/5.0 (Windows NT 6.1) AppleWebKit/537.36 (KHTML, like Gecko) Chrome/88.0.4324.150 Safari/537.36"
114.124.142.136 - - "2021-02-12 10:16:20" localhost/index.php/imeij/index 200 "Mozilla/5.0 (Windows NT 6.1) AppleWebKit/537.36 (KHTML, like Gecko) Chrome/88.0.4324.150 Safari/537.36"
114.124.142.136 - - "2021-02-12 10:22:33" localhost/index.php/imeij/index 200 "Mozilla/5.0 (Windows NT 6.1) AppleWebKit/537.36 (KHTML, like Gecko) Chrome/88.0.4324.150 Safari/537.36"
114.124.142.136 - - "2021-02-12 10:22:45" localhost/index.php/ifi/index 200 "Mozilla/5.0 (Windows NT 6.1) AppleWebKit/537.36 (KHTML, like Gecko) Chrome/88.0.4324.150 Safari/537.36"
114.124.142.136 administrative 7 "2021-02-12 10:23:07" localhost/index.php/ifi/index 200 "Mozilla/5.0 (Windows NT 6.1) AppleWebKit/537.36 (KHTML, like Gecko) Chrome/88.0.4324.150 Safari/537.36"
114.124.142.136 administrative 8 "2021-02-12 10:27:45" localhost/index.php/ifi/index 200 "Mozilla/5.0 (Windows NT 6.1) AppleWebKit/537.36 (KHTML, like Gecko) Chrome/88.0.4324.150 Safari/537.36 Edg/88.0.705.63"
114.124.142.136 administrative 11 "2021-02-12 10:33:59" localhost/index.php/ifi/index 200 "Mozilla/5.0 (Windows NT 6.1) AppleWebKit/537.36 (KHTML, like Gecko) Chrome/88.0.4324.150 Safari/537.36"
114.124.171.137 - - "2021-02-12 10:34:47" localhost/index.php/ifi/index 200 "Mozilla/5.0 (Windows NT 6.1) AppleWebKit/537.36 (KHTML, like Gecko) Chrome/88.0.4324.150 Safari/537.36 Edg/88.0.705.63"
114.124.171.137 administrative 8 "2021-02-12 10:35:20" localhost/index.php/ifi/index 200 "Mozilla/5.0 (Windows NT 6.1) AppleWebKit/537.36 (KHTML, like Gecko) Chrome/88.0.4324.150 Safari/537.36 Edg/88.0.705.63"
182.0.210.56 administrative 7 "2021-02-12 10:49:56" localhost/index.php/ifi/index 200 "Mozilla/5.0 (Windows NT 6.1) AppleWebKit/537.36 (KHTML, like Gecko) Chrome/88.0.4324.150 Safari/537.36"
182.0.204.180 administrative 21 "2021-02-12 10:51:33" localhost/index.php/ifi/index 200 "Mozilla/5.0 (Windows NT 6.1) AppleWebKit/537.36 (KHTML, like Gecko) Chrome/88.0.4324.150 Safari/537.36 Edg/88.0.705.63"
182.0.204.180 - - "2021-02-12 10:56:39" localhost/index.php/ifi/index 200 "Mozilla/5.0 (Windows NT 6.1) AppleWebKit/537.36 (KHTML, like Gecko) Chrome/88.0.4324.150 Safari/537.36 Edg/88.0.705.63"
182.0.204.180 - - "2021-02-12 10:56:41" localhost/index.php/ifi/index 200 "Mozilla/5.0 (Windows NT 6.1) AppleWebKit/537.36 (KHTML, like Gecko) Chrome/88.0.4324.150 Safari/537.36 Edg/88.0.705.63"
182.0.242.60 - - "2021-02-12 13:49:58" localhost/index.php/ifi/index 200 "Mozilla/5.0 (Windows NT 6.1) AppleWebKit/537.36 (KHTML, like Gecko) Chrome/88.0.4324.150 Safari/537.36 Edg/88.0.705.63"
182.0.208.52 - - "2021-02-12 16:19:00" localhost/index.php/ifi/index 200 "Mozilla/5.0 (Windows NT 6.1) AppleWebKit/537.36 (KHTML, like Gecko) Chrome/88.0.4324.150 Safari/537.36 Edg/88.0.705.63"
182.0.239.184 - - "2021-02-12 16:19:38" localhost/index.php/imeij/index 200 "Mozilla/5.0 (Windows NT 6.1) AppleWebKit/537.36 (KHTML, like Gecko) Chrome/88.0.4324.150 Safari/537.36 Edg/88.0.705.63"
182.0.243.176 - - "2021-02-12 16:44:23" localhost/index.php/ifi/index 200 "Mozilla/5.0 (iPhone; CPU iPhone OS 12_4 like Mac OS X) AppleWebKit/605.1.15 (KHTML, like Gecko) CriOS/87.0.4280.77 Mobile/15E148 Safari/604.1"
125.161.129.58 - - "2021-02-12 20:09:49" localhost/index.php/imeij/index 200 "Mozilla/5.0 (Windows NT 10.0; Win64; x64) AppleWebKit/537.36 (KHTML, like Gecko) Chrome/88.0.4324.150 Safari/537.36"
125.161.129.58 - - "2021-02-12 20:13:16" localhost/index.php/imeij/index 200 "Mozilla/5.0 (Windows NT 10.0; Win64; x64; rv:85.0) Gecko/20100101 Firefox/85.0"
125.161.129.58 - - "2021-02-12 21:12:33" localhost/index.php/ifi/index 200 "Mozilla/5.0 (Windows NT 10.0; Win64; x64) AppleWebKit/537.36 (KHTML, like Gecko) Chrome/88.0.4324.150 Safari/537.36"
125.161.129.58 - - "2021-02-12 21:12:42" localhost/index.php/imeij/index 200 "Mozilla/5.0 (Windows NT 10.0; Win64; x64) AppleWebKit/537.36 (KHTML, like Gecko) Chrome/88.0.4324.150 Safari/537.36"
125.161.129.58 - - "2021-02-12 21:13:28" localhost/index.php/ifi/index 200 "Mozilla/5.0 (Windows NT 10.0; Win64; x64) AppleWebKit/537.36 (KHTML, like Gecko) Chrome/88.0.4324.150 Safari/537.36"
125.161.129.58 - - "2021-02-12 21:14:58" localhost/index.php/imeij/index 200 "Mozilla/5.0 (Windows NT 10.0; Win64; x64) AppleWebKit/537.36 (KHTML, like Gecko) Chrome/88.0.4324.150 Safari/537.36"
125.161.129.58 administrative 7 "2021-02-12 21:24:43" localhost/index.php/imeij/index 200 "Mozilla/5.0 (Windows NT 10.0; Win64; x64) AppleWebKit/537.36 (KHTML, like Gecko) Chrome/88.0.4324.150 Safari/537.36"
182.0.242.168 - - "2021-02-12 21:42:55" localhost/index.php/ifi/index 200 "Mozilla/5.0 (Windows NT 6.1) AppleWebKit/537.36 (KHTML, like Gecko) Chrome/88.0.4324.150 Safari/537.36"
223.255.229.26 - - "2021-02-12 21:46:41" localhost/index.php/ifi/index 200 "Mozilla/5.0 (Windows NT 10.0; Win64; x64; rv:85.0) Gecko/20100101 Firefox/85.0"
223.255.229.26 administrative 3 "2021-02-12 21:53:35" localhost/index.php/ifi/index 200 "Mozilla/5.0 (Windows NT 10.0; Win64; x64; rv:85.0) Gecko/20100101 Firefox/85.0"
182.0.242.168 - 2 "2021-02-12 21:58:01" localhost/index.php/ifi/index 200 "Mozilla/5.0 (Windows NT 6.1) AppleWebKit/537.36 (KHTML, like Gecko) Chrome/88.0.4324.150 Safari/537.36"
125.161.129.58 - - "2021-02-12 22:02:59" localhost/index.php/ifi/index 200 "Mozilla/5.0 (Windows NT 10.0; Win64; x64) AppleWebKit/537.36 (KHTML, like Gecko) Chrome/88.0.4324.150 Safari/537.36"
182.0.242.168 - - "2021-02-12 22:15:15" localhost/index.php/imeij/index 200 "Mozilla/5.0 (Windows NT 6.1) AppleWebKit/537.36 (KHTML, like Gecko) Chrome/88.0.4324.150 Safari/537.36"
182.0.242.168 - - "2021-02-12 22:27:35" localhost/index.php/ifi/index 200 "Mozilla/5.0 (Windows NT 6.1) AppleWebKit/537.36 (KHTML, like Gecko) Chrome/88.0.4324.150 Safari/537.36"
182.0.242.168 - - "2021-02-12 22:54:46" localhost/index.php/ifi/index 200 "Mozilla/5.0 (Windows NT 6.1) AppleWebKit/537.36 (KHTML, like Gecko) Chrome/88.0.4324.150 Safari/537.36 Edg/88.0.705.63"
182.0.242.168 - - "2021-02-12 22:57:22" localhost/index.php/idijes/index 200 "Mozilla/5.0 (Windows NT 6.1) AppleWebKit/537.36 (KHTML, like Gecko) Chrome/88.0.4324.150 Safari/537.36 Edg/88.0.705.63"
182.0.242.168 - - "2021-02-12 22:57:33" localhost/index.php/idiea/index 200 "Mozilla/5.0 (Windows NT 6.1) AppleWebKit/537.36 (KHTML, like Gecko) Chrome/88.0.4324.150 Safari/537.36 Edg/88.0.705.63"
182.0.242.168 - - "2021-02-12 22:59:11" localhost/index.php/imeij/index 200 "Mozilla/5.0 (Windows NT 6.1) AppleWebKit/537.36 (KHTML, like Gecko) Chrome/88.0.4324.150 Safari/537.36 Edg/88.0.705.63"
182.0.210.164 - - "2021-02-12 23:24:26" localhost/index.php/ifi/index 200 "Mozilla/5.0 (Windows NT 6.1) AppleWebKit/537.36 (KHTML, like Gecko) Chrome/88.0.4324.150 Safari/537.36"
182.0.210.164 - - "2021-02-12 23:24:48" localhost/index.php/imeij/index 200 "Mozilla/5.0 (Windows NT 6.1) AppleWebKit/537.36 (KHTML, like Gecko) Chrome/88.0.4324.150 Safari/537.36"
182.0.210.164 - - "2021-02-12 23:25:58" localhost/index.php/ifi/index 200 "Mozilla/5.0 (Windows NT 6.1) AppleWebKit/537.36 (KHTML, like Gecko) Chrome/88.0.4324.150 Safari/537.36"
182.0.210.164 - - "2021-02-12 23:39:29" localhost/index.php/ifi/index 200 "Mozilla/5.0 (Windows NT 6.1) AppleWebKit/537.36 (KHTML, like Gecko) Chrome/88.0.4324.150 Safari/537.36"
182.0.210.164 - - "2021-02-12 23:52:26" localhost/index.php/imeij/index 200 "Mozilla/5.0 (Windows NT 6.1) AppleWebKit/537.36 (KHTML, like Gecko) Chrome/88.0.4324.150 Safari/537.36"
182.0.210.164 - - "2021-02-12 23:55:13" localhost/index.php/ifi/index 200 "Mozilla/5.0 (Windows NT 6.1) AppleWebKit/537.36 (KHTML, like Gecko) Chrome/88.0.4324.150 Safari/537.36"
