185.191.171.3 bot - "2021-06-07 12:16:43" localhost/index.php/imeij/index 200 "Mozilla/5.0 (compatible; SemrushBot/7~bl; +http://www.semrush.com/bot.html)"
182.1.50.174 - - "2021-06-07 14:41:29" localhost/index.php/ifi/article/view/8 200 "Mozilla/5.0 (Windows NT 10.0; Win64; x64; rv:88.0) Gecko/20100101 Firefox/88.0"
178.85.211.149 - - "2021-06-07 15:00:53" localhost/index.php/ifi/article/view/8 200 "Mozilla/5.0 (Windows NT 10.0; Win64; x64) AppleWebKit/537.36 (KHTML, like Gecko) Chrome/91.0.4472.77 Safari/537.36 Edg/91.0.864.41"
185.191.171.2 bot - "2021-06-07 15:12:18" localhost/index.php/imeij/index 200 "Mozilla/5.0 (compatible; SemrushBot/7~bl; +http://www.semrush.com/bot.html)"
185.191.171.1 bot - "2021-06-07 16:18:52" localhost/index.php/ifi/issue/view/4 200 "Mozilla/5.0 (compatible; SemrushBot/7~bl; +http://www.semrush.com/bot.html)"
185.191.171.12 bot - "2021-06-07 17:04:16" localhost/index.php/idiea/index 200 "Mozilla/5.0 (compatible; SemrushBot/7~bl; +http://www.semrush.com/bot.html)"
184.154.139.23 - - "2021-06-07 19:20:11" localhost/index.php/ifi/index 200 "Mozilla/5.0 (compatible; MSIE 9.0; Windows NT 6.1; WOW64; Trident/6.0)"
184.154.139.23 - - "2021-06-07 19:20:15" localhost/index.php/ifi/issue/view/4 200 "Mozilla/5.0 (compatible; MSIE 9.0; Windows NT 6.1; WOW64; Trident/6.0)"
66.249.79.28 bot - "2021-06-07 23:43:33" localhost/index.php/ifi/index 200 "Mozilla/5.0 (compatible; Googlebot/2.1; +http://www.google.com/bot.html)"
