89.108.109.179 - - "2021-08-17 00:25:56" localhost/index.php/ifi/article/download/8/1/34 200 "Mozilla/5.0 (Windows NT 10.0; Win64; x64) AppleWebKit/537.36 (KHTML, like Gecko) Chrome/68.0.3440.106 Safari/537.36"
202.89.67.31 - - "2021-08-17 00:59:59" localhost/index.php/ifi/article/download/8/1/34 200 "Mozilla/5.0 (Windows NT 10.0) AppleWebKit/537.36 (KHTML, like Gecko) Chrome/90.0.4430.85 Safari/537.36"
114.119.149.145 bot - "2021-08-17 01:48:43" localhost/index.php/ifi/index 200 "Mozilla/5.0 (Linux; Android 7.0;) AppleWebKit/537.36 (KHTML, like Gecko) Mobile Safari/537.36 (compatible; PetalBot;+https://webmaster.petalsearch.com/site/petalbot)"
66.249.79.73 bot - "2021-08-17 03:18:10" localhost/index.php/ifi/issue/view/4 200 "Googlebot/2.1 (+http://www.google.com/bot.html)"
114.119.134.1 bot - "2021-08-17 03:32:20" localhost/index.php/ifi/issue/view/4 200 "Mozilla/5.0 (Linux; Android 7.0;) AppleWebKit/537.36 (KHTML, like Gecko) Mobile Safari/537.36 (compatible; PetalBot;+https://webmaster.petalsearch.com/site/petalbot)"
66.249.79.79 bot - "2021-08-17 08:32:14" localhost/index.php/ifi/index 200 "Mozilla/5.0 (compatible; Googlebot/2.1; +http://www.google.com/bot.html)"
114.119.134.116 bot - "2021-08-17 08:45:25" localhost/index.php/idiea/index 200 "Mozilla/5.0 (Linux; Android 7.0;) AppleWebKit/537.36 (KHTML, like Gecko) Mobile Safari/537.36 (compatible; PetalBot;+https://webmaster.petalsearch.com/site/petalbot)"
66.249.79.79 bot - "2021-08-17 09:05:52" localhost/index.php/ifi/article/view/8 200 "Mozilla/5.0 (compatible; Googlebot/2.1; +http://www.google.com/bot.html)"
112.198.72.96 - - "2021-08-17 09:27:20" localhost/index.php/ifi/article/view/8 200 "Mozilla/5.0 (Windows NT 10.0; Win64; x64) AppleWebKit/537.36 (KHTML, like Gecko) Chrome/92.0.4515.131 Safari/537.36"
114.119.128.35 bot - "2021-08-17 11:24:45" localhost/index.php/idiea/index 200 "Mozilla/5.0 (Linux; Android 7.0;) AppleWebKit/537.36 (KHTML, like Gecko) Mobile Safari/537.36 (compatible; PetalBot;+https://webmaster.petalsearch.com/site/petalbot)"
114.119.134.121 bot - "2021-08-17 12:44:52" localhost/index.php/idiea/index 200 "Mozilla/5.0 (Linux; Android 7.0;) AppleWebKit/537.36 (KHTML, like Gecko) Mobile Safari/537.36 (compatible; PetalBot;+https://webmaster.petalsearch.com/site/petalbot)"
66.249.79.73 bot - "2021-08-17 14:01:58" localhost/index.php/ifi/issue/view/4 200 "Googlebot/2.1 (+http://www.google.com/bot.html)"
85.255.237.193 - - "2021-08-17 16:36:27" localhost/index.php/ifi/article/download/8/1/34 200 "Mozilla/5.0 (Macintosh; Intel Mac OS X 10_15_7) AppleWebKit/537.36 (KHTML, like Gecko) Chrome/92.0.4515.131 Safari/537.36"
185.191.171.23 bot - "2021-08-17 17:05:13" localhost/index.php/ifi/article/view/8 200 "Mozilla/5.0 (compatible; SemrushBot/7~bl; +http://www.semrush.com/bot.html)"
88.202.185.147 - - "2021-08-17 17:26:54" localhost/index.php/ifi/article/download/8/1/34 200 "Mozilla/5.0 (Windows NT 6.1; Win64; x64) AppleWebKit/537.36 (KHTML, like Gecko) Chrome/92.0.4515.131 Safari/537.36"
184.154.139.23 - - "2021-08-17 19:23:30" localhost/index.php/ifi/index 200 "Mozilla/5.0 (compatible; MSIE 9.0; Windows NT 6.1; WOW64; Trident/6.0)"
184.154.139.23 - - "2021-08-17 19:23:38" localhost/index.php/ifi/issue/view/4 200 "Mozilla/5.0 (compatible; MSIE 9.0; Windows NT 6.1; WOW64; Trident/6.0)"
135.181.83.2 - - "2021-08-17 19:59:36" localhost/index.php/imeij/index 200 "Mozilla/5.0 (Windows NT 10.0; Win64; x64) AppleWebKit/537.36 (KHTML, like Gecko) Chrome/84.0.4147.105 Safari/537.36"
49.49.246.51 - - "2021-08-17 20:30:36" localhost/index.php/ifi/article/download/8/1/34 200 "Mozilla/5.0 (Windows NT 10.0; Win64; x64) AppleWebKit/537.36 (KHTML, like Gecko) Chrome/92.0.4515.131 Safari/537.36"
180.244.162.30 - - "2021-08-17 21:03:28" localhost/index.php/ifi/issue/view/4 200 "Mozilla/5.0 (iPhone; CPU iPhone OS 13_6_1 like Mac OS X) AppleWebKit/605.1.15 (KHTML, like Gecko) Version/13.1.2 Mobile/15E148 Safari/604.1"
85.255.237.193 - - "2021-08-17 21:40:01" localhost/index.php/ifi/article/download/8/1/34 200 "Mozilla/5.0 (Macintosh; Intel Mac OS X 10_15_7) AppleWebKit/537.36 (KHTML, like Gecko) Chrome/92.0.4515.131 Safari/537.36"
