195.175.203.2 - - "2021-12-13 00:14:58" localhost/index.php/imeij/article/view/22 200 "Mozilla/5.0 (Windows NT 10.0; Win64; x64) AppleWebKit/537.36 (KHTML, like Gecko) Chrome/96.0.4664.93 Safari/537.36"
157.55.39.167 bot - "2021-12-13 00:46:51" localhost/index.php/ifi/article/view/8 200 "Mozilla/5.0 (compatible; bingbot/2.0; +http://www.bing.com/bingbot.htm)"
146.59.249.146 - - "2021-12-13 02:08:10" localhost/index.php/ifi/article/view/13 200 "Mozilla/5.0 (Macintosh; Intel Mac OS X 10_12_6) AppleWebKit/537.36 (KHTML, like Gecko) Chrome/64.0.3282.140 Safari/537.36"
146.59.249.146 - - "2021-12-13 02:08:13" localhost/index.php/ifi/article/view/13 200 "Mozilla/5.0 (Macintosh; Intel Mac OS X 10_12_6) AppleWebKit/537.36 (KHTML, like Gecko) Chrome/64.0.3282.140 Safari/537.36"
146.59.249.146 - - "2021-12-13 02:08:15" localhost/index.php/ifi/article/view/14 200 "Mozilla/5.0 (Macintosh; Intel Mac OS X 10_12_6) AppleWebKit/537.36 (KHTML, like Gecko) Chrome/64.0.3282.140 Safari/537.36"
146.59.249.146 - - "2021-12-13 02:08:17" localhost/index.php/ifi/article/view/14 200 "Mozilla/5.0 (Macintosh; Intel Mac OS X 10_12_6) AppleWebKit/537.36 (KHTML, like Gecko) Chrome/64.0.3282.140 Safari/537.36"
146.59.249.146 - - "2021-12-13 02:08:19" localhost/index.php/ifi/article/view/15 200 "Mozilla/5.0 (Macintosh; Intel Mac OS X 10_12_6) AppleWebKit/537.36 (KHTML, like Gecko) Chrome/64.0.3282.140 Safari/537.36"
146.59.249.146 - - "2021-12-13 02:08:19" localhost/index.php/ifi/article/view/8 200 "Mozilla/5.0 (Macintosh; Intel Mac OS X 10_12_6) AppleWebKit/537.36 (KHTML, like Gecko) Chrome/64.0.3282.140 Safari/537.36"
146.59.249.146 - - "2021-12-13 02:08:21" localhost/index.php/ifi/article/view/15 200 "Mozilla/5.0 (Macintosh; Intel Mac OS X 10_12_6) AppleWebKit/537.36 (KHTML, like Gecko) Chrome/64.0.3282.140 Safari/537.36"
146.59.249.146 - - "2021-12-13 02:08:21" localhost/index.php/ifi/article/view/8 200 "Mozilla/5.0 (Macintosh; Intel Mac OS X 10_12_6) AppleWebKit/537.36 (KHTML, like Gecko) Chrome/64.0.3282.140 Safari/537.36"
46.250.13.38 - - "2021-12-13 02:09:47" localhost/index.php/imeij/article/view/22 200 "Mozilla/5.0 (Windows NT 10.0; Win64; x64; rv:92.0) Gecko/20100101 Firefox/92.0"
46.250.13.38 - - "2021-12-13 02:16:46" localhost/index.php/imeij/article/view/22 200 "Mozilla/5.0 (Windows NT 10.0; Win64; x64; rv:92.0) Gecko/20100101 Firefox/92.0"
223.205.249.199 - - "2021-12-13 02:35:36" localhost/index.php/imeij/article/download/21/10/98 200 "Mozilla/5.0 (Windows NT 6.3; Win64; x64) AppleWebKit/537.36 (KHTML, like Gecko) Chrome/96.0.4664.55 Safari/537.36"
114.119.133.134 bot - "2021-12-13 04:52:22" localhost/index.php/ifi/index 200 "Mozilla/5.0 (Linux; Android 7.0;) AppleWebKit/537.36 (KHTML, like Gecko) Mobile Safari/537.36 (compatible; PetalBot;+https://webmaster.petalsearch.com/site/petalbot)"
157.55.39.172 bot - "2021-12-13 05:09:18" localhost/index.php/ifi/article/view/15 200 "Mozilla/5.0 (compatible; bingbot/2.0; +http://www.bing.com/bingbot.htm)"
157.55.39.167 bot - "2021-12-13 05:36:27" localhost/index.php/ifi/article/view/8 200 "Mozilla/5.0 (compatible; bingbot/2.0; +http://www.bing.com/bingbot.htm)"
114.119.133.138 bot - "2021-12-13 05:50:54" localhost/index.php/imeij/index 200 "Mozilla/5.0 (Linux; Android 7.0;) AppleWebKit/537.36 (KHTML, like Gecko) Mobile Safari/537.36 (compatible; PetalBot;+https://webmaster.petalsearch.com/site/petalbot)"
95.163.255.99 bot - "2021-12-13 05:51:31" localhost/index.php/ifi/article/download/8/1/34 200 "Mozilla/5.0 (compatible; Linux x86_64; Mail.RU_Bot/2.0; +http://go.mail.ru/help/robots)"
185.191.171.45 bot - "2021-12-13 06:03:31" localhost/index.php/imeij/article/download/19/12/102 200 "Mozilla/5.0 (compatible; SemrushBot/7~bl; +http://www.semrush.com/bot.html)"
114.119.133.134 bot - "2021-12-13 06:24:53" localhost/index.php/imeij/article/download/16/6/74 200 "Mozilla/5.0 (Linux; Android 7.0;) AppleWebKit/537.36 (KHTML, like Gecko) Mobile Safari/537.36 (compatible; PetalBot;+https://webmaster.petalsearch.com/site/petalbot)"
114.119.133.142 bot - "2021-12-13 06:42:00" localhost/index.php/imeij/article/view/24 200 "Mozilla/5.0 (Linux; Android 7.0;) AppleWebKit/537.36 (KHTML, like Gecko) Mobile Safari/537.36 (compatible; PetalBot;+https://webmaster.petalsearch.com/site/petalbot)"
114.119.133.142 bot - "2021-12-13 07:08:08" localhost/index.php/imeij/article/view/16 200 "Mozilla/5.0 (Linux; Android 7.0;) AppleWebKit/537.36 (KHTML, like Gecko) Mobile Safari/537.36 (compatible; PetalBot;+https://webmaster.petalsearch.com/site/petalbot)"
118.100.205.171 - - "2021-12-13 07:28:22" localhost/index.php/ifi/article/download/8/1/34 200 "Mozilla/5.0 (Macintosh; Intel Mac OS X 10_15_7) AppleWebKit/605.1.15 (KHTML, like Gecko) Version/15.1 Safari/605.1.15"
114.119.133.134 bot - "2021-12-13 07:34:34" localhost/index.php/imeij/article/view/19 200 "Mozilla/5.0 (Linux; Android 7.0;) AppleWebKit/537.36 (KHTML, like Gecko) Mobile Safari/537.36 (compatible; PetalBot;+https://webmaster.petalsearch.com/site/petalbot)"
118.100.205.171 - - "2021-12-13 07:43:29" localhost/index.php/ifi/article/download/8/1/34 200 "Mozilla/5.0 (Macintosh; Intel Mac OS X 10_15_7) AppleWebKit/605.1.15 (KHTML, like Gecko) Version/15.1 Safari/605.1.15"
185.191.171.33 bot - "2021-12-13 09:37:22" localhost/index.php/imeij/article/download/20/13/103 200 "Mozilla/5.0 (compatible; SemrushBot/7~bl; +http://www.semrush.com/bot.html)"
114.119.133.142 bot - "2021-12-13 10:06:08" localhost/index.php/imeij/article/download/24/14/105 200 "Mozilla/5.0 (Linux; Android 7.0;) AppleWebKit/537.36 (KHTML, like Gecko) Mobile Safari/537.36 (compatible; PetalBot;+https://webmaster.petalsearch.com/site/petalbot)"
114.119.133.126 bot - "2021-12-13 10:27:54" localhost/index.php/idiea/index 200 "Mozilla/5.0 (Linux; Android 7.0;) AppleWebKit/537.36 (KHTML, like Gecko) Mobile Safari/537.36 (compatible; PetalBot;+https://webmaster.petalsearch.com/site/petalbot)"
140.213.186.134 - - "2021-12-13 10:43:09" localhost/index.php/imeij/article/view/22 200 "Mozilla/5.0 (Windows NT 6.1) AppleWebKit/537.36 (KHTML, like Gecko) Chrome/96.0.4664.93 Safari/537.36"
140.213.186.134 - - "2021-12-13 10:43:35" localhost/index.php/imeij/article/download/22/11/99 200 "Mozilla/5.0 (Windows NT 6.1) AppleWebKit/537.36 (KHTML, like Gecko) Chrome/96.0.4664.93 Safari/537.36"
140.213.186.134 - - "2021-12-13 10:43:39" localhost/index.php/imeij/article/download/22/11/99 200 "Mozilla/5.0 (Windows NT 6.1) AppleWebKit/537.36 (KHTML, like Gecko) Chrome/96.0.4664.93 Safari/537.36"
125.59.49.113 - - "2021-12-13 11:00:25" localhost/index.php/ifi/article/download/14/3/64 200 "Mozilla/5.0 (Windows NT 10.0; Win64; x64) AppleWebKit/537.36 (KHTML, like Gecko) Chrome/96.0.4664.93 Safari/537.36"
114.119.133.134 bot - "2021-12-13 11:21:51" localhost/index.php/ifi/article/view/8 200 "Mozilla/5.0 (Linux; Android 7.0;) AppleWebKit/537.36 (KHTML, like Gecko) Mobile Safari/537.36 (compatible; PetalBot;+https://webmaster.petalsearch.com/site/petalbot)"
114.119.133.126 bot - "2021-12-13 11:54:43" localhost/index.php/imeij/article/download/21/10/98 200 "Mozilla/5.0 (Linux; Android 7.0;) AppleWebKit/537.36 (KHTML, like Gecko) Mobile Safari/537.36 (compatible; PetalBot;+https://webmaster.petalsearch.com/site/petalbot)"
114.119.133.130 bot - "2021-12-13 12:16:16" localhost/index.php/imeij/article/view/22 200 "Mozilla/5.0 (Linux; Android 7.0;) AppleWebKit/537.36 (KHTML, like Gecko) Mobile Safari/537.36 (compatible; PetalBot;+https://webmaster.petalsearch.com/site/petalbot)"
114.119.133.142 bot - "2021-12-13 12:49:11" localhost/index.php/ifi/article/download/8/1/34 200 "Mozilla/5.0 (Linux; Android 7.0;) AppleWebKit/537.36 (KHTML, like Gecko) Mobile Safari/537.36 (compatible; PetalBot;+https://webmaster.petalsearch.com/site/petalbot)"
185.191.171.7 bot - "2021-12-13 13:59:44" localhost/index.php/imeij/article/download/23/15/107 200 "Mozilla/5.0 (compatible; SemrushBot/7~bl; +http://www.semrush.com/bot.html)"
114.119.133.130 bot - "2021-12-13 15:21:59" localhost/index.php/imeij/article/view/16 200 "Mozilla/5.0 (Linux; Android 7.0;) AppleWebKit/537.36 (KHTML, like Gecko) Mobile Safari/537.36 (compatible; PetalBot;+https://webmaster.petalsearch.com/site/petalbot)"
157.55.39.172 bot - "2021-12-13 15:28:35" localhost/index.php/ifi/article/view/13 200 "Mozilla/5.0 (compatible; bingbot/2.0; +http://www.bing.com/bingbot.htm)"
114.119.133.126 bot - "2021-12-13 16:01:37" localhost/index.php/imeij/issue/view/8 200 "Mozilla/5.0 (Linux; Android 7.0;) AppleWebKit/537.36 (KHTML, like Gecko) Mobile Safari/537.36 (compatible; PetalBot;+https://webmaster.petalsearch.com/site/petalbot)"
114.119.133.146 bot - "2021-12-13 16:26:20" localhost/index.php/imeij/issue/view/9 200 "Mozilla/5.0 (Linux; Android 7.0;) AppleWebKit/537.36 (KHTML, like Gecko) Mobile Safari/537.36 (compatible; PetalBot;+https://webmaster.petalsearch.com/site/petalbot)"
114.119.133.138 bot - "2021-12-13 17:03:12" localhost/index.php/imeij/article/view/19 200 "Mozilla/5.0 (Linux; Android 7.0;) AppleWebKit/537.36 (KHTML, like Gecko) Mobile Safari/537.36 (compatible; PetalBot;+https://webmaster.petalsearch.com/site/petalbot)"
114.119.133.126 bot - "2021-12-13 17:15:08" localhost/index.php/imeij/issue/view/6 200 "Mozilla/5.0 (Linux; Android 7.0;) AppleWebKit/537.36 (KHTML, like Gecko) Mobile Safari/537.36 (compatible; PetalBot;+https://webmaster.petalsearch.com/site/petalbot)"
114.119.133.126 bot - "2021-12-13 18:14:49" localhost/index.php/ifi/article/view/10 200 "Mozilla/5.0 (Linux; Android 7.0;) AppleWebKit/537.36 (KHTML, like Gecko) Mobile Safari/537.36 (compatible; PetalBot;+https://webmaster.petalsearch.com/site/petalbot)"
114.119.133.134 bot - "2021-12-13 18:49:35" localhost/index.php/idiea/index 200 "Mozilla/5.0 (Linux; Android 7.0;) AppleWebKit/537.36 (KHTML, like Gecko) Mobile Safari/537.36 (compatible; PetalBot;+https://webmaster.petalsearch.com/site/petalbot)"
114.119.133.130 bot - "2021-12-13 19:01:05" localhost/index.php/ifi/index 200 "Mozilla/5.0 (Linux; Android 7.0;) AppleWebKit/537.36 (KHTML, like Gecko) Mobile Safari/537.36 (compatible; PetalBot;+https://webmaster.petalsearch.com/site/petalbot)"
207.46.13.96 bot - "2021-12-13 19:43:39" localhost/index.php/ifi/index 200 "Mozilla/5.0 (compatible; bingbot/2.0; +http://www.bing.com/bingbot.htm)"
10.11.2.105 - - "2021-12-13 19:45:10" localhost/index.php/imeij/article/view/24 200 "Mozilla/5.0 (Windows NT 10.0; Win64; x64; rv:91.0) Gecko/20100101 Firefox/91.0"
114.119.133.146 bot - "2021-12-13 19:56:48" localhost/index.php/ifi/issue/view/4 200 "Mozilla/5.0 (Linux; Android 7.0;) AppleWebKit/537.36 (KHTML, like Gecko) Mobile Safari/537.36 (compatible; PetalBot;+https://webmaster.petalsearch.com/site/petalbot)"
184.154.139.16 - - "2021-12-13 20:18:36" localhost/index.php/ifi/issue/view/4 200 "Mozilla/5.0 (compatible; MSIE 9.0; Windows NT 6.1; WOW64; Trident/6.0)"
184.154.139.16 - - "2021-12-13 20:18:58" localhost/index.php/imeij/issue/view/9 200 "Mozilla/5.0 (compatible; MSIE 9.0; Windows NT 6.1; WOW64; Trident/6.0)"
184.154.139.16 - - "2021-12-13 20:19:03" localhost/index.php/ifi/index 200 "Mozilla/5.0 (compatible; MSIE 9.0; Windows NT 6.1; WOW64; Trident/6.0)"
184.154.139.16 bot - "2021-12-13 20:19:42" localhost/index.php/idiea/index 200 "SiteLockSpider [en] (WinNT; I ;Nav)"
184.154.139.16 bot - "2021-12-13 20:19:47" localhost/index.php/idijes/index 200 "SiteLockSpider [en] (WinNT; I ;Nav)"
184.154.139.16 bot - "2021-12-13 20:20:09" localhost/index.php/imeij/issue/view/8 200 "SiteLockSpider [en] (WinNT; I ;Nav)"
184.154.139.16 - - "2021-12-13 20:20:13" localhost/index.php/ifi/article/view/15 200 "Mozilla/5.0 (compatible; MSIE 9.0; Windows NT 6.1; WOW64; Trident/6.0)"
184.154.139.16 - - "2021-12-13 20:20:34" localhost/index.php/ifi/article/download/13/4/69 200 "Mozilla/5.0 (compatible; MSIE 9.0; Windows NT 6.1; WOW64; Trident/6.0)"
184.154.139.16 bot - "2021-12-13 20:20:40" localhost/index.php/ifi/article/view/8 200 "SiteLockSpider [en] (WinNT; I ;Nav)"
184.154.139.16 bot - "2021-12-13 20:20:44" localhost/index.php/ifi/article/view/13 200 "SiteLockSpider [en] (WinNT; I ;Nav)"
184.154.139.16 bot - "2021-12-13 20:21:06" localhost/index.php/ifi/article/view/10 200 "SiteLockSpider [en] (WinNT; I ;Nav)"
184.154.139.16 - - "2021-12-13 20:22:01" localhost/index.php/imeij/article/download/21/10/98 200 "Mozilla/5.0 (compatible; MSIE 9.0; Windows NT 6.1; WOW64; Trident/6.0)"
184.154.139.16 bot - "2021-12-13 20:22:14" localhost/index.php/idijes/index 200 "SiteLockSpider [en] (WinNT; I ;Nav)"
184.154.139.16 - - "2021-12-13 20:22:21" localhost/index.php/ifi/article/download/14/3/64 200 "Mozilla/5.0 (compatible; MSIE 9.0; Windows NT 6.1; WOW64; Trident/6.0)"
184.154.139.16 - - "2021-12-13 20:23:19" localhost/index.php/imeij/article/view/16 200 "Mozilla/5.0 (compatible; MSIE 9.0; Windows NT 6.1; WOW64; Trident/6.0)"
184.154.139.16 bot - "2021-12-13 20:23:49" localhost/index.php/imeij/article/view/20 200 "SiteLockSpider [en] (WinNT; I ;Nav)"
184.154.139.16 bot - "2021-12-13 20:23:54" localhost/index.php/imeij/article/view/21 200 "SiteLockSpider [en] (WinNT; I ;Nav)"
66.249.71.160 bot - "2021-12-13 20:40:51" localhost/index.php/ifi/article/download/8/1/34 200 "Mozilla/5.0 (Linux; Android 6.0.1; Nexus 5X Build/MMB29P) AppleWebKit/537.36 (KHTML, like Gecko) Chrome/96.0.4664.93 Mobile Safari/537.36 (compatible; Googlebot/2.1; +http://www.google.com/bot.html)"
114.119.133.126 bot - "2021-12-13 21:11:51" localhost/index.php/ifi/issue/view/4 200 "Mozilla/5.0 (Linux; Android 7.0;) AppleWebKit/537.36 (KHTML, like Gecko) Mobile Safari/537.36 (compatible; PetalBot;+https://webmaster.petalsearch.com/site/petalbot)"
114.119.133.14 bot - "2021-12-13 22:14:01" localhost/index.php/imeij/issue/view/9 200 "Mozilla/5.0 (Linux; Android 7.0;) AppleWebKit/537.36 (KHTML, like Gecko) Mobile Safari/537.36 (compatible; PetalBot;+https://webmaster.petalsearch.com/site/petalbot)"
