66.249.66.138 bot - "2022-06-10 00:30:29" localhost/index.php/imeij/article/download/23/15/107 200 "Googlebot/2.1 (+http://www.google.com/bot.html)"
66.249.66.1 bot - "2022-06-10 01:22:53" localhost/index.php/imeij/issue/view/11 200 "Mozilla/5.0 (Linux; Android 6.0.1; Nexus 5X Build/MMB29P) AppleWebKit/537.36 (KHTML, like Gecko) Chrome/102.0.5005.61 Mobile Safari/537.36 (compatible; Googlebot/2.1; +http://www.google.com/bot.html)"
66.249.66.138 bot - "2022-06-10 01:36:33" localhost/index.php/imeij/article/download/29/17/153 200 "Googlebot/2.1 (+http://www.google.com/bot.html)"
66.249.66.1 bot - "2022-06-10 01:38:46" localhost/index.php/imeij/article/view/35 200 "Googlebot/2.1 (+http://www.google.com/bot.html)"
66.249.66.30 bot - "2022-06-10 01:55:26" localhost/index.php/imeij/article/download/25/18/156 200 "Googlebot/2.1 (+http://www.google.com/bot.html)"
66.249.66.44 bot - "2022-06-10 01:55:56" localhost/index.php/imeij/issue/view/11 200 "Googlebot/2.1 (+http://www.google.com/bot.html)"
66.249.66.136 bot - "2022-06-10 02:37:22" localhost/index.php/imeij/article/view/36 200 "Googlebot/2.1 (+http://www.google.com/bot.html)"
181.66.206.112 - - "2022-06-10 04:48:04" localhost/index.php/imeij/article/view/25 200 "Mozilla/5.0 (Windows NT 10.0; Win64; x64) AppleWebKit/537.36 (KHTML, like Gecko) Chrome/102.0.5005.63 Safari/537.36"
185.191.171.9 bot - "2022-06-10 04:51:39" localhost/index.php/imeij/index 200 "Mozilla/5.0 (compatible; SemrushBot/7~bl; +http://www.semrush.com/bot.html)"
181.66.206.112 - - "2022-06-10 05:04:56" localhost/index.php/imeij/article/view/25 200 "Mozilla/5.0 (Windows NT 10.0; Win64; x64) AppleWebKit/537.36 (KHTML, like Gecko) Chrome/102.0.5005.63 Safari/537.36"
181.66.206.112 - - "2022-06-10 05:06:09" localhost/index.php/imeij/article/view/25 200 "Mozilla/5.0 (Windows NT 10.0; Win64; x64) AppleWebKit/537.36 (KHTML, like Gecko) Chrome/102.0.5005.63 Safari/537.36"
40.77.167.33 bot - "2022-06-10 06:16:26" localhost/index.php/imeij/article/view/24 200 "Mozilla/5.0 (compatible; bingbot/2.0; +http://www.bing.com/bingbot.htm)"
207.46.13.194 bot - "2022-06-10 06:23:29" localhost/index.php/idiea/index 200 "Mozilla/5.0 (compatible; bingbot/2.0; +http://www.bing.com/bingbot.htm)"
40.77.167.33 bot - "2022-06-10 06:24:08" localhost/index.php/imeij/index 200 "Mozilla/5.0 (compatible; bingbot/2.0; +http://www.bing.com/bingbot.htm)"
114.119.130.31 bot - "2022-06-10 06:36:24" localhost/index.php/imeij/issue/view/11 200 "Mozilla/5.0 (Linux; Android 7.0;) AppleWebKit/537.36 (KHTML, like Gecko) Mobile Safari/537.36 (compatible; PetalBot;+https://webmaster.petalsearch.com/site/petalbot)"
185.191.171.7 bot - "2022-06-10 06:55:44" localhost/index.php/imeij/article/view/36 200 "Mozilla/5.0 (compatible; SemrushBot/7~bl; +http://www.semrush.com/bot.html)"
114.119.130.33 bot - "2022-06-10 07:28:50" localhost/index.php/imeij/article/view/22 200 "Mozilla/5.0 (Linux; Android 7.0;) AppleWebKit/537.36 (KHTML, like Gecko) Mobile Safari/537.36 (compatible; PetalBot;+https://webmaster.petalsearch.com/site/petalbot)"
114.119.130.31 bot - "2022-06-10 08:10:02" localhost/index.php/ifi/index 200 "Mozilla/5.0 (Linux; Android 7.0;) AppleWebKit/537.36 (KHTML, like Gecko) Mobile Safari/537.36 (compatible; PetalBot;+https://webmaster.petalsearch.com/site/petalbot)"
185.191.171.44 bot - "2022-06-10 08:19:16" localhost/index.php/ifi/article/view/14 200 "Mozilla/5.0 (compatible; SemrushBot/7~bl; +http://www.semrush.com/bot.html)"
185.191.171.7 bot - "2022-06-10 08:52:07" localhost/index.php/ifi/index 200 "Mozilla/5.0 (compatible; SemrushBot/7~bl; +http://www.semrush.com/bot.html)"
66.249.66.88 bot - "2022-06-10 10:14:49" localhost/index.php/imeij/article/download/22/11/99 200 "Mozilla/5.0 (compatible; Googlebot/2.1; +http://www.google.com/bot.html)"
66.249.66.88 bot - "2022-06-10 12:15:13" localhost/index.php/imeij/issue/view/11 200 "Mozilla/5.0 (Linux; Android 6.0.1; Nexus 5X Build/MMB29P) AppleWebKit/537.36 (KHTML, like Gecko) Chrome/102.0.5005.61 Mobile Safari/537.36 (compatible; Googlebot/2.1; +http://www.google.com/bot.html)"
66.249.66.87 bot - "2022-06-10 12:24:32" localhost/index.php/imeij/issue/view/11 200 "Mozilla/5.0 (Linux; Android 6.0.1; Nexus 5X Build/MMB29P) AppleWebKit/537.36 (KHTML, like Gecko) Chrome/102.0.5005.61 Mobile Safari/537.36 (compatible; Googlebot/2.1; +http://www.google.com/bot.html)"
54.36.148.220 bot - "2022-06-10 12:33:34" localhost/index.php/imeij/issue/view/6 200 "Mozilla/5.0 (compatible; AhrefsBot/7.0; +http://ahrefs.com/robot/)"
66.249.66.87 bot - "2022-06-10 12:36:32" localhost/index.php/imeij/article/download/36/21/189 200 "Googlebot/2.1 (+http://www.google.com/bot.html)"
66.249.66.88 bot - "2022-06-10 12:38:46" localhost/index.php/ifi/index 200 "Googlebot/2.1 (+http://www.google.com/bot.html)"
40.77.167.63 bot - "2022-06-10 12:50:48" localhost/index.php/imeij/article/download/23/15/107 200 "Mozilla/5.0 (compatible; bingbot/2.0; +http://www.bing.com/bingbot.htm)"
66.249.66.87 bot - "2022-06-10 12:53:24" localhost/index.php/ifi/issue/view/4 200 "Googlebot/2.1 (+http://www.google.com/bot.html)"
114.119.130.31 bot - "2022-06-10 13:03:11" localhost/index.php/imeij/issue/view/9 200 "Mozilla/5.0 (Linux; Android 7.0;) AppleWebKit/537.36 (KHTML, like Gecko) Mobile Safari/537.36 (compatible; PetalBot;+https://webmaster.petalsearch.com/site/petalbot)"
114.119.130.31 bot - "2022-06-10 13:14:01" localhost/index.php/idijes/index 200 "Mozilla/5.0 (Linux; Android 7.0;) AppleWebKit/537.36 (KHTML, like Gecko) Mobile Safari/537.36 (compatible; PetalBot;+https://webmaster.petalsearch.com/site/petalbot)"
66.249.66.88 bot - "2022-06-10 13:43:30" localhost/index.php/imeij/issue/view/11 200 "Googlebot/2.1 (+http://www.google.com/bot.html)"
66.249.66.87 bot - "2022-06-10 14:07:40" localhost/index.php/ifi/article/download/14/3/64 200 "Mozilla/5.0 (Linux; Android 6.0.1; Nexus 5X Build/MMB29P) AppleWebKit/537.36 (KHTML, like Gecko) Chrome/102.0.5005.61 Mobile Safari/537.36 (compatible; Googlebot/2.1; +http://www.google.com/bot.html)"
114.119.130.32 bot - "2022-06-10 14:17:49" localhost/index.php/ifi/article/download/14/3/64 200 "Mozilla/5.0 (Linux; Android 7.0;) AppleWebKit/537.36 (KHTML, like Gecko) Mobile Safari/537.36 (compatible; PetalBot;+https://webmaster.petalsearch.com/site/petalbot)"
207.241.225.158 - - "2022-06-10 14:53:01" localhost/index.php/imeij/article/view/25 200 "Mozilla/5.0 (Windows NT 10.0; Win64; x64) AppleWebKit/605.1.15 (KHTML, like Gecko) Chrome/89.0.4389.82 Safari/605.1.15"
207.241.232.187 - - "2022-06-10 14:53:09" localhost/index.php/imeij/article/view/25 200 "Mozilla/5.0 (Windows NT 10.0; Win64; x64) AppleWebKit/605.1.15 (KHTML, like Gecko) Chrome/89.0.4389.82 Safari/605.1.15"
207.241.232.35 - - "2022-06-10 14:53:17" localhost/index.php/imeij/article/download/25/18/156 200 "Mozilla/5.0 (Windows NT 10.0; Win64; x64) AppleWebKit/605.1.15 (KHTML, like Gecko) Chrome/89.0.4389.82 Safari/605.1.15"
66.249.66.87 bot - "2022-06-10 14:53:23" localhost/index.php/ifi/article/download/8/1/34 200 "Mozilla/5.0 (Linux; Android 6.0.1; Nexus 5X Build/MMB29P) AppleWebKit/537.36 (KHTML, like Gecko) Chrome/102.0.5005.61 Mobile Safari/537.36 (compatible; Googlebot/2.1; +http://www.google.com/bot.html)"
114.119.130.31 bot - "2022-06-10 15:24:56" localhost/index.php/ifi/article/view/13 200 "Mozilla/5.0 (Linux; Android 7.0;) AppleWebKit/537.36 (KHTML, like Gecko) Mobile Safari/537.36 (compatible; PetalBot;+https://webmaster.petalsearch.com/site/petalbot)"
114.119.150.68 bot - "2022-06-10 15:33:58" localhost/index.php/ifi/article/view/14 200 "Mozilla/5.0 (Linux; Android 7.0;) AppleWebKit/537.36 (KHTML, like Gecko) Mobile Safari/537.36 (compatible; PetalBot;+https://webmaster.petalsearch.com/site/petalbot)"
114.119.150.68 bot - "2022-06-10 15:43:22" localhost/index.php/imeij/index 200 "Mozilla/5.0 (Linux; Android 7.0;) AppleWebKit/537.36 (KHTML, like Gecko) Mobile Safari/537.36 (compatible; PetalBot;+https://webmaster.petalsearch.com/site/petalbot)"
114.119.130.30 bot - "2022-06-10 16:28:28" localhost/index.php/imeij/article/download/19/12/127 200 "Mozilla/5.0 (Linux; Android 7.0;) AppleWebKit/537.36 (KHTML, like Gecko) Mobile Safari/537.36 (compatible; PetalBot;+https://webmaster.petalsearch.com/site/petalbot)"
202.147.198.54 - - "2022-06-10 16:50:16" localhost/index.php/imeij/index 200 "Mozilla/5.0 (Windows NT 10.0; Win64; x64) AppleWebKit/537.36 (KHTML, like Gecko) Chrome/102.0.5005.115 Safari/537.36"
66.249.66.87 bot - "2022-06-10 17:55:30" localhost/index.php/imeij/index 200 "Mozilla/5.0 (compatible; Googlebot/2.1; +http://www.google.com/bot.html)"
185.191.171.34 bot - "2022-06-10 19:08:22" localhost/index.php/imeij/article/view/25 200 "Mozilla/5.0 (compatible; SemrushBot/7~bl; +http://www.semrush.com/bot.html)"
185.191.171.10 bot - "2022-06-10 19:27:28" localhost/index.php/imeij/article/view/36 200 "Mozilla/5.0 (compatible; SemrushBot/7~bl; +http://www.semrush.com/bot.html)"
114.119.130.33 bot - "2022-06-10 20:11:27" localhost/index.php/imeij/article/view/29 200 "Mozilla/5.0 (Linux; Android 7.0;) AppleWebKit/537.36 (KHTML, like Gecko) Mobile Safari/537.36 (compatible; PetalBot;+https://webmaster.petalsearch.com/site/petalbot)"
114.124.180.139 - - "2022-06-10 20:36:40" localhost/index.php/imeij/index 200 "Mozilla/5.0 (Windows NT 6.1) AppleWebKit/537.36 (KHTML, like Gecko) Chrome/102.0.5005.63 Safari/537.36"
114.119.150.68 bot - "2022-06-10 20:37:17" localhost/index.php/imeij/article/view/20 200 "Mozilla/5.0 (Linux; Android 7.0;) AppleWebKit/537.36 (KHTML, like Gecko) Mobile Safari/537.36 (compatible; PetalBot;+https://webmaster.petalsearch.com/site/petalbot)"
185.191.171.1 bot - "2022-06-10 20:51:01" localhost/index.php/imeij/article/view/22 200 "Mozilla/5.0 (compatible; SemrushBot/7~bl; +http://www.semrush.com/bot.html)"
114.124.173.42 - - "2022-06-10 20:55:59" localhost/index.php/imeij/index 200 "Mozilla/5.0 (Windows NT 6.1) AppleWebKit/537.36 (KHTML, like Gecko) Chrome/102.0.5005.63 Safari/537.36"
114.124.173.42 - - "2022-06-10 21:00:46" localhost/index.php/imeij/index 200 "Mozilla/5.0 (Windows NT 6.1) AppleWebKit/537.36 (KHTML, like Gecko) Chrome/102.0.5005.63 Safari/537.36"
114.124.173.42 - - "2022-06-10 21:08:48" localhost/index.php/imeij/index 200 "Mozilla/5.0 (Windows NT 6.1) AppleWebKit/537.36 (KHTML, like Gecko) Chrome/102.0.5005.63 Safari/537.36"
114.124.173.42 - - "2022-06-10 21:25:26" localhost/index.php/imeij/issue/view/11 200 "Mozilla/5.0 (Windows NT 6.1) AppleWebKit/537.36 (KHTML, like Gecko) Chrome/102.0.5005.63 Safari/537.36"
114.124.173.42 - - "2022-06-10 21:25:33" localhost/index.php/imeij/article/download/25/18/156 200 "Mozilla/5.0 (Windows NT 6.1) AppleWebKit/537.36 (KHTML, like Gecko) Chrome/102.0.5005.63 Safari/537.36"
114.124.173.42 - - "2022-06-10 21:27:23" localhost/index.php/imeij/issue/view/11 200 "Mozilla/5.0 (Windows NT 6.1) AppleWebKit/537.36 (KHTML, like Gecko) Chrome/102.0.5005.63 Safari/537.36"
114.124.173.42 - - "2022-06-10 21:27:29" localhost/index.php/imeij/article/download/31/19/174 200 "Mozilla/5.0 (Windows NT 6.1) AppleWebKit/537.36 (KHTML, like Gecko) Chrome/102.0.5005.63 Safari/537.36"
114.124.173.42 - - "2022-06-10 21:28:59" localhost/index.php/imeij/issue/view/11 200 "Mozilla/5.0 (Windows NT 6.1) AppleWebKit/537.36 (KHTML, like Gecko) Chrome/102.0.5005.63 Safari/537.36"
114.124.173.42 - - "2022-06-10 21:29:13" localhost/index.php/imeij/issue/view/8 200 "Mozilla/5.0 (Windows NT 6.1) AppleWebKit/537.36 (KHTML, like Gecko) Chrome/102.0.5005.63 Safari/537.36"
114.124.173.42 - - "2022-06-10 21:29:30" localhost/index.php/imeij/issue/view/11 200 "Mozilla/5.0 (Windows NT 6.1) AppleWebKit/537.36 (KHTML, like Gecko) Chrome/102.0.5005.63 Safari/537.36"
114.124.173.42 - - "2022-06-10 21:29:52" localhost/index.php/imeij/article/download/36/21/189 200 "Mozilla/5.0 (Windows NT 6.1) AppleWebKit/537.36 (KHTML, like Gecko) Chrome/102.0.5005.63 Safari/537.36"
114.124.173.42 - - "2022-06-10 21:30:39" localhost/index.php/imeij/issue/view/11 200 "Mozilla/5.0 (Windows NT 6.1) AppleWebKit/537.36 (KHTML, like Gecko) Chrome/102.0.5005.63 Safari/537.36"
114.124.173.42 - - "2022-06-10 21:30:59" localhost/index.php/imeij/article/download/29/17/153 200 "Mozilla/5.0 (Windows NT 6.1) AppleWebKit/537.36 (KHTML, like Gecko) Chrome/102.0.5005.63 Safari/537.36"
114.124.143.183 - - "2022-06-10 21:50:38" localhost/index.php/imeij/issue/view/11 200 "Mozilla/5.0 (Windows NT 6.1) AppleWebKit/537.36 (KHTML, like Gecko) Chrome/102.0.5005.63 Safari/537.36"
114.124.143.183 - - "2022-06-10 21:50:43" localhost/index.php/imeij/article/download/35/20/190 200 "Mozilla/5.0 (Windows NT 6.1) AppleWebKit/537.36 (KHTML, like Gecko) Chrome/102.0.5005.63 Safari/537.36"
114.124.143.183 - - "2022-06-10 21:51:05" localhost/index.php/imeij/issue/view/11 200 "Mozilla/5.0 (Windows NT 6.1) AppleWebKit/537.36 (KHTML, like Gecko) Chrome/102.0.5005.63 Safari/537.36"
114.124.143.183 - - "2022-06-10 21:51:10" localhost/index.php/imeij/issue/view/9 200 "Mozilla/5.0 (Windows NT 6.1) AppleWebKit/537.36 (KHTML, like Gecko) Chrome/102.0.5005.63 Safari/537.36"
114.124.143.183 - - "2022-06-10 21:51:19" localhost/index.php/imeij/article/download/16/6/74 200 "Mozilla/5.0 (Windows NT 6.1) AppleWebKit/537.36 (KHTML, like Gecko) Chrome/102.0.5005.63 Safari/537.36"
114.124.143.183 - - "2022-06-10 21:52:06" localhost/index.php/imeij/issue/view/9 200 "Mozilla/5.0 (Windows NT 6.1) AppleWebKit/537.36 (KHTML, like Gecko) Chrome/102.0.5005.63 Safari/537.36"
114.124.143.183 - - "2022-06-10 21:52:26" localhost/index.php/imeij/article/download/20/13/128 200 "Mozilla/5.0 (Windows NT 6.1) AppleWebKit/537.36 (KHTML, like Gecko) Chrome/102.0.5005.63 Safari/537.36"
114.124.143.183 - - "2022-06-10 21:52:55" localhost/index.php/imeij/issue/view/9 200 "Mozilla/5.0 (Windows NT 6.1) AppleWebKit/537.36 (KHTML, like Gecko) Chrome/102.0.5005.63 Safari/537.36"
114.124.143.183 - - "2022-06-10 21:53:06" localhost/index.php/imeij/article/download/24/14/105 200 "Mozilla/5.0 (Windows NT 6.1) AppleWebKit/537.36 (KHTML, like Gecko) Chrome/102.0.5005.63 Safari/537.36"
114.124.143.183 - - "2022-06-10 21:53:45" localhost/index.php/imeij/issue/view/9 200 "Mozilla/5.0 (Windows NT 6.1) AppleWebKit/537.36 (KHTML, like Gecko) Chrome/102.0.5005.63 Safari/537.36"
114.124.143.183 - - "2022-06-10 21:53:50" localhost/index.php/imeij/article/download/19/12/127 200 "Mozilla/5.0 (Windows NT 6.1) AppleWebKit/537.36 (KHTML, like Gecko) Chrome/102.0.5005.63 Safari/537.36"
114.119.130.32 bot - "2022-06-10 22:07:00" localhost/index.php/imeij/issue/view/11 200 "Mozilla/5.0 (Linux; Android 7.0;) AppleWebKit/537.36 (KHTML, like Gecko) Mobile Safari/537.36 (compatible; PetalBot;+https://webmaster.petalsearch.com/site/petalbot)"
114.124.143.183 - - "2022-06-10 22:09:48" localhost/index.php/imeij/issue/view/9 200 "Mozilla/5.0 (Windows NT 6.1) AppleWebKit/537.36 (KHTML, like Gecko) Chrome/102.0.5005.63 Safari/537.36"
114.124.143.183 - - "2022-06-10 22:09:54" localhost/index.php/imeij/article/download/23/15/107 200 "Mozilla/5.0 (Windows NT 6.1) AppleWebKit/537.36 (KHTML, like Gecko) Chrome/102.0.5005.63 Safari/537.36"
114.124.143.183 - - "2022-06-10 22:20:52" localhost/index.php/imeij/issue/view/9 200 "Mozilla/5.0 (Windows NT 6.1) AppleWebKit/537.36 (KHTML, like Gecko) Chrome/102.0.5005.63 Safari/537.36"
114.124.143.183 - - "2022-06-10 22:20:58" localhost/index.php/imeij/index 200 "Mozilla/5.0 (Windows NT 6.1) AppleWebKit/537.36 (KHTML, like Gecko) Chrome/102.0.5005.63 Safari/537.36"
44.200.82.15 - - "2022-06-10 22:21:34" localhost/index.php/imeij/article/download/31/19/174 200 "Mozilla/5.0 (Macintosh; Intel Mac OS X 10_10_1) AppleWebKit/537.36 (KHTML, like Gecko) Chrome/44.0.2403.125 Safari/537.36"
114.119.130.31 bot - "2022-06-10 22:23:50" localhost/index.php/ifi/article/view/8 200 "Mozilla/5.0 (Linux; Android 7.0;) AppleWebKit/537.36 (KHTML, like Gecko) Mobile Safari/537.36 (compatible; PetalBot;+https://webmaster.petalsearch.com/site/petalbot)"
114.124.143.183 - - "2022-06-10 22:27:08" localhost/index.php/imeij/index 200 "Mozilla/5.0 (Windows NT 6.1) AppleWebKit/537.36 (KHTML, like Gecko) Chrome/102.0.5005.63 Safari/537.36"
114.119.150.68 bot - "2022-06-10 22:40:52" localhost/index.php/ifi/article/view/15 200 "Mozilla/5.0 (Linux; Android 7.0;) AppleWebKit/537.36 (KHTML, like Gecko) Mobile Safari/537.36 (compatible; PetalBot;+https://webmaster.petalsearch.com/site/petalbot)"
114.124.143.183 - - "2022-06-10 22:58:22" localhost/index.php/imeij/index 200 "Mozilla/5.0 (Windows NT 6.1) AppleWebKit/537.36 (KHTML, like Gecko) Chrome/102.0.5005.63 Safari/537.36"
114.119.130.31 bot - "2022-06-10 22:58:52" localhost/index.php/ifi/article/view/15 200 "Mozilla/5.0 (Linux; Android 7.0;) AppleWebKit/537.36 (KHTML, like Gecko) Mobile Safari/537.36 (compatible; PetalBot;+https://webmaster.petalsearch.com/site/petalbot)"
54.36.149.106 bot - "2022-06-10 23:30:01" localhost/index.php/imeij/article/view/29 200 "Mozilla/5.0 (compatible; AhrefsBot/7.0; +http://ahrefs.com/robot/)"
