185.191.171.16 bot - "2021-10-28 00:19:23" localhost/index.php/imeij/article/view/23 200 "Mozilla/5.0 (compatible; SemrushBot/7~bl; +http://www.semrush.com/bot.html)"
207.46.13.87 bot - "2021-10-28 00:38:45" localhost/index.php/ifi/index 200 "Mozilla/5.0 (compatible; bingbot/2.0; +http://www.bing.com/bingbot.htm)"
66.249.79.192 bot - "2021-10-28 01:17:50" localhost/index.php/imeij/article/view/12 200 "Googlebot/2.1 (+http://www.google.com/bot.html)"
66.249.79.220 bot - "2021-10-28 01:47:06" localhost/index.php/imeij/article/download/22/11/99 200 "Googlebot/2.1 (+http://www.google.com/bot.html)"
66.249.79.220 bot - "2021-10-28 02:42:07" localhost/index.php/ifi/issue/view/4 200 "Googlebot/2.1 (+http://www.google.com/bot.html)"
114.119.133.134 bot - "2021-10-28 02:45:31" localhost/index.php/idiea/index 200 "Mozilla/5.0 (Linux; Android 7.0;) AppleWebKit/537.36 (KHTML, like Gecko) Mobile Safari/537.36 (compatible; PetalBot;+https://webmaster.petalsearch.com/site/petalbot)"
66.249.79.220 bot - "2021-10-28 03:45:07" localhost/index.php/imeij/issue/view/9 200 "Googlebot/2.1 (+http://www.google.com/bot.html)"
66.249.79.220 bot - "2021-10-28 03:47:39" localhost/index.php/imeij/article/download/21/10/98 200 "Googlebot/2.1 (+http://www.google.com/bot.html)"
157.55.39.108 bot - "2021-10-28 04:33:51" localhost/index.php/idijes/index 200 "Mozilla/5.0 (compatible; bingbot/2.0; +http://www.bing.com/bingbot.htm)"
144.76.238.8 bot - "2021-10-28 06:28:04" localhost/index.php/ifi/article/download/10/2/61 200 "prophy-bot/1.6"
114.119.133.152 bot - "2021-10-28 06:37:08" localhost/index.php/imeij/index 200 "Mozilla/5.0 (Linux; Android 7.0;) AppleWebKit/537.36 (KHTML, like Gecko) Mobile Safari/537.36 (compatible; PetalBot;+https://webmaster.petalsearch.com/site/petalbot)"
185.191.171.38 bot - "2021-10-28 08:40:44" localhost/index.php/imeij/issue/view/6 200 "Mozilla/5.0 (compatible; SemrushBot/7~bl; +http://www.semrush.com/bot.html)"
207.46.13.87 bot - "2021-10-28 09:11:43" localhost/index.php/ifi/index 200 "Mozilla/5.0 (compatible; bingbot/2.0; +http://www.bing.com/bingbot.htm)"
182.0.132.190 - - "2021-10-28 10:14:31" localhost/index.php/imeij/index 200 "Mozilla/5.0 (Windows NT 6.1) AppleWebKit/537.36 (KHTML, like Gecko) Chrome/95.0.4638.54 Safari/537.36"
157.55.39.108 bot - "2021-10-28 12:53:09" localhost/index.php/idijes/index 200 "Mozilla/5.0 (compatible; bingbot/2.0; +http://www.bing.com/bingbot.htm)"
185.191.171.5 bot - "2021-10-28 13:31:42" localhost/index.php/imeij/issue/view/9 200 "Mozilla/5.0 (compatible; SemrushBot/7~bl; +http://www.semrush.com/bot.html)"
66.249.79.192 bot - "2021-10-28 13:35:52" localhost/index.php/ifi/article/download/8/1/34 200 "Mozilla/5.0 (compatible; Googlebot/2.1; +http://www.google.com/bot.html)"
66.249.79.220 bot - "2021-10-28 13:39:34" localhost/index.php/ifi/issue/view/4 200 "Googlebot/2.1 (+http://www.google.com/bot.html)"
185.191.171.17 bot - "2021-10-28 14:28:32" localhost/index.php/imeij/article/download/19/12/102 200 "Mozilla/5.0 (compatible; SemrushBot/7~bl; +http://www.semrush.com/bot.html)"
66.249.79.220 bot - "2021-10-28 14:34:56" localhost/index.php/imeij/issue/view/9 200 "Googlebot/2.1 (+http://www.google.com/bot.html)"
66.249.79.192 bot - "2021-10-28 15:13:30" localhost/index.php/imeij/article/download/12/9/86 200 "Googlebot/2.1 (+http://www.google.com/bot.html)"
207.46.13.87 bot - "2021-10-28 17:33:44" localhost/index.php/ifi/index 200 "Mozilla/5.0 (compatible; bingbot/2.0; +http://www.bing.com/bingbot.htm)"
40.77.167.66 bot - "2021-10-28 17:52:03" localhost/index.php/imeij/index 200 "Mozilla/5.0 (compatible; bingbot/2.0; +http://www.bing.com/bingbot.htm)"
207.46.13.164 bot - "2021-10-28 17:58:42" localhost/index.php/idiea/index 200 "Mozilla/5.0 (compatible; bingbot/2.0; +http://www.bing.com/bingbot.htm)"
207.46.13.7 bot - "2021-10-28 18:05:48" localhost/index.php/imeij/issue/view/6 200 "Mozilla/5.0 (compatible; bingbot/2.0; +http://www.bing.com/bingbot.htm)"
120.127.185.149 - - "2021-10-28 18:17:52" localhost/index.php/imeij/article/view/16 200 "Mozilla/5.0 (Macintosh; Intel Mac OS X 10_15_7) AppleWebKit/537.36 (KHTML, like Gecko) Chrome/95.0.4638.54 Safari/537.36"
77.165.78.31 - - "2021-10-28 18:48:06" localhost/index.php/ifi/article/view/8 200 "Mozilla/5.0 (Windows NT 10.0; Win64; x64) AppleWebKit/537.36 (KHTML, like Gecko) Chrome/94.0.4606.81 Safari/537.36"
207.46.13.56 bot - "2021-10-28 19:09:07" localhost/index.php/imeij/index 200 "Mozilla/5.0 (compatible; bingbot/2.0; +http://www.bing.com/bingbot.htm)"
198.20.67.197 - - "2021-10-28 19:22:34" localhost/index.php/idijes/index 200 "Mozilla/5.0 (compatible; MSIE 9.0; Windows NT 6.1; WOW64; Trident/6.0)"
198.20.67.197 - - "2021-10-28 19:22:38" localhost/index.php/ifi/issue/view/4 200 "Mozilla/5.0 (compatible; MSIE 9.0; Windows NT 6.1; WOW64; Trident/6.0)"
36.90.160.27 - - "2021-10-28 20:33:59" localhost/index.php/imeij/article/view/24 200 "Mozilla/5.0 (Linux; Android 7.1.1; CPH1727) AppleWebKit/537.36 (KHTML, like Gecko) Chrome/95.0.4638.50 Mobile Safari/537.36"
114.119.133.142 bot - "2021-10-28 21:04:55" localhost/index.php/imeij/article/view/16 200 "Mozilla/5.0 (Linux; Android 7.0;) AppleWebKit/537.36 (KHTML, like Gecko) Mobile Safari/537.36 (compatible; PetalBot;+https://webmaster.petalsearch.com/site/petalbot)"
157.55.39.108 bot - "2021-10-28 21:15:26" localhost/index.php/idijes/index 200 "Mozilla/5.0 (compatible; bingbot/2.0; +http://www.bing.com/bingbot.htm)"
36.72.213.211 - - "2021-10-28 21:40:55" localhost/index.php/ifi/article/view/14 200 "Mozilla/5.0 (Windows NT 10.0; Win64; x64; rv:93.0) Gecko/20100101 Firefox/93.0"
180.245.32.74 - - "2021-10-28 21:41:56" localhost/index.php/imeij/index 200 "Mozilla/5.0 (Windows NT 6.2; Win64; x64; rv:93.0) Gecko/20100101 Firefox/93.0"
180.245.32.74 - - "2021-10-28 21:46:30" localhost/index.php/imeij/index 200 "Mozilla/5.0 (Windows NT 6.2; Win64; x64; rv:93.0) Gecko/20100101 Firefox/93.0"
180.245.32.74 - - "2021-10-28 21:47:01" localhost/index.php/imeij/index 200 "Mozilla/5.0 (Windows NT 6.2; Win64; x64; rv:93.0) Gecko/20100101 Firefox/93.0"
180.245.32.74 - - "2021-10-28 21:48:01" localhost/index.php/ifi/index 200 "Mozilla/5.0 (Windows NT 6.2; Win64; x64; rv:93.0) Gecko/20100101 Firefox/93.0"
180.245.32.74 - - "2021-10-28 21:51:27" localhost/index.php/imeij/index 200 "Mozilla/5.0 (Windows NT 6.2; Win64; x64; rv:93.0) Gecko/20100101 Firefox/93.0"
180.245.32.74 - - "2021-10-28 21:51:39" localhost/index.php/imeij/index 200 "Mozilla/5.0 (Windows NT 6.2; Win64; x64; rv:93.0) Gecko/20100101 Firefox/93.0"
180.245.32.74 - - "2021-10-28 21:52:22" localhost/index.php/imeij/index 200 "Mozilla/5.0 (Windows NT 6.2; Win64; x64; rv:93.0) Gecko/20100101 Firefox/93.0"
180.245.32.74 - - "2021-10-28 22:29:28" localhost/index.php/imeij/index 200 "Mozilla/5.0 (Windows NT 6.2; Win64; x64; rv:93.0) Gecko/20100101 Firefox/93.0"
180.245.32.74 - - "2021-10-28 22:29:30" localhost/index.php/ifi/index 200 "Mozilla/5.0 (Windows NT 6.2; Win64; x64; rv:93.0) Gecko/20100101 Firefox/93.0"
180.245.32.74 - - "2021-10-28 22:32:02" localhost/index.php/imeij/index 200 "Mozilla/5.0 (Windows NT 6.2; Win64; x64; rv:93.0) Gecko/20100101 Firefox/93.0"
180.245.32.74 - - "2021-10-28 22:38:29" localhost/index.php/idijes/index 200 "Mozilla/5.0 (Windows NT 6.2; Win64; x64; rv:93.0) Gecko/20100101 Firefox/93.0"
114.119.133.138 bot - "2021-10-28 22:45:01" localhost/index.php/ifi/issue/download/4/5 200 "Mozilla/5.0 (Linux; Android 7.0;) AppleWebKit/537.36 (KHTML, like Gecko) Mobile Safari/537.36 (compatible; PetalBot;+https://webmaster.petalsearch.com/site/petalbot)"
180.245.32.74 - - "2021-10-28 23:07:55" localhost/index.php/idijes/index 200 "Mozilla/5.0 (Windows NT 6.2; Win64; x64; rv:93.0) Gecko/20100101 Firefox/93.0"
185.191.171.23 bot - "2021-10-28 23:10:07" localhost/index.php/imeij/article/download/23/15/107 200 "Mozilla/5.0 (compatible; SemrushBot/7~bl; +http://www.semrush.com/bot.html)"
180.245.32.74 - - "2021-10-28 23:10:36" localhost/index.php/ifi/article/view/8 200 "Mozilla/5.0 (Windows NT 6.2; Win64; x64; rv:93.0) Gecko/20100101 Firefox/93.0"
180.245.32.74 - - "2021-10-28 23:21:51" localhost/index.php/ifi/article/download/8/1/34 200 "Mozilla/5.0 (Windows NT 6.2; Win64; x64; rv:93.0) Gecko/20100101 Firefox/93.0"
180.245.32.74 - - "2021-10-28 23:21:52" localhost/index.php/ifi/article/download/8/1/34 200 "Mozilla/5.0 (Windows NT 6.2; Win64; x64; rv:93.0) Gecko/20100101 Firefox/93.0"
180.245.32.74 - - "2021-10-28 23:22:02" localhost/index.php/ifi/article/view/8 200 "Mozilla/5.0 (Windows NT 6.2; Win64; x64; rv:93.0) Gecko/20100101 Firefox/93.0"
180.245.32.74 - - "2021-10-28 23:22:59" localhost/index.php/ifi/article/view/8 200 "Mozilla/5.0 (Windows NT 6.2; Win64; x64; rv:93.0) Gecko/20100101 Firefox/93.0"
180.245.32.74 - - "2021-10-28 23:25:46" localhost/index.php/ifi/article/download/13/4/69 200 "Mozilla/5.0 (Windows NT 6.2; Win64; x64; rv:93.0) Gecko/20100101 Firefox/93.0"
180.245.32.74 - - "2021-10-28 23:25:47" localhost/index.php/ifi/article/download/13/4/69 200 "Mozilla/5.0 (Windows NT 6.2; Win64; x64; rv:93.0) Gecko/20100101 Firefox/93.0"
180.245.32.74 - - "2021-10-28 23:25:55" localhost/index.php/ifi/issue/view/4 200 "Mozilla/5.0 (Windows NT 6.2; Win64; x64; rv:93.0) Gecko/20100101 Firefox/93.0"
180.245.32.74 - - "2021-10-28 23:28:34" localhost/index.php/ifi/article/view/8 200 "Mozilla/5.0 (Windows NT 6.2; Win64; x64; rv:93.0) Gecko/20100101 Firefox/93.0"
180.245.32.74 - - "2021-10-28 23:30:05" localhost/index.php/ifi/article/view/13 200 "Mozilla/5.0 (Windows NT 6.2; Win64; x64; rv:93.0) Gecko/20100101 Firefox/93.0"
180.245.32.74 - - "2021-10-28 23:32:08" localhost/index.php/ifi/article/view/15 200 "Mozilla/5.0 (Windows NT 6.2; Win64; x64; rv:93.0) Gecko/20100101 Firefox/93.0"
180.245.32.74 - - "2021-10-28 23:32:10" localhost/index.php/ifi/article/download/15/5/70 200 "Mozilla/5.0 (Windows NT 6.2; Win64; x64; rv:93.0) Gecko/20100101 Firefox/93.0"
180.245.32.74 - - "2021-10-28 23:32:12" localhost/index.php/ifi/article/download/15/5/70 200 "Mozilla/5.0 (Windows NT 6.2; Win64; x64; rv:93.0) Gecko/20100101 Firefox/93.0"
180.245.32.74 - - "2021-10-28 23:32:16" localhost/index.php/ifi/issue/view/4 200 "Mozilla/5.0 (Windows NT 6.2; Win64; x64; rv:93.0) Gecko/20100101 Firefox/93.0"
3.238.29.207 - - "2021-10-28 23:33:39" localhost/index.php/ifi/article/view/8 200 "Mozilla/5.0 (Macintosh; Intel Mac OS X 10_10_1) AppleWebKit/537.36 (KHTML, like Gecko) Chrome/44.0.2403.125 Safari/537.36"
180.245.32.74 - - "2021-10-28 23:34:43" localhost/index.php/ifi/article/view/10 200 "Mozilla/5.0 (Windows NT 6.2; Win64; x64; rv:93.0) Gecko/20100101 Firefox/93.0"
180.245.32.74 - - "2021-10-28 23:34:44" localhost/index.php/ifi/article/download/10/2/61 200 "Mozilla/5.0 (Windows NT 6.2; Win64; x64; rv:93.0) Gecko/20100101 Firefox/93.0"
180.245.32.74 - - "2021-10-28 23:34:45" localhost/index.php/ifi/article/download/10/2/61 200 "Mozilla/5.0 (Windows NT 6.2; Win64; x64; rv:93.0) Gecko/20100101 Firefox/93.0"
180.245.32.74 - - "2021-10-28 23:34:50" localhost/index.php/ifi/issue/view/4 200 "Mozilla/5.0 (Windows NT 6.2; Win64; x64; rv:93.0) Gecko/20100101 Firefox/93.0"
180.245.32.74 - - "2021-10-28 23:35:43" localhost/index.php/ifi/article/view/10 200 "Mozilla/5.0 (Windows NT 6.2; Win64; x64; rv:93.0) Gecko/20100101 Firefox/93.0"
180.245.32.74 - - "2021-10-28 23:36:47" localhost/index.php/ifi/article/view/14 200 "Mozilla/5.0 (Windows NT 6.2; Win64; x64; rv:93.0) Gecko/20100101 Firefox/93.0"
180.245.32.74 - - "2021-10-28 23:36:51" localhost/index.php/ifi/article/download/14/3/64 200 "Mozilla/5.0 (Windows NT 6.2; Win64; x64; rv:93.0) Gecko/20100101 Firefox/93.0"
180.245.32.74 - - "2021-10-28 23:36:52" localhost/index.php/ifi/article/download/14/3/64 200 "Mozilla/5.0 (Windows NT 6.2; Win64; x64; rv:93.0) Gecko/20100101 Firefox/93.0"
180.245.32.74 - - "2021-10-28 23:39:36" localhost/index.php/ifi/issue/view/4 200 "Mozilla/5.0 (Windows NT 6.2; Win64; x64; rv:93.0) Gecko/20100101 Firefox/93.0"
185.191.171.23 bot - "2021-10-28 23:57:29" localhost/index.php/imeij/article/view/12 200 "Mozilla/5.0 (compatible; SemrushBot/7~bl; +http://www.semrush.com/bot.html)"
