66.249.79.222 bot - "2022-01-17 00:19:28" localhost/index.php/ifi/index 200 "Mozilla/5.0 (Linux; Android 6.0.1; Nexus 5X Build/MMB29P) AppleWebKit/537.36 (KHTML, like Gecko) Chrome/97.0.4692.71 Mobile Safari/537.36 (compatible; Googlebot/2.1; +http://www.google.com/bot.html)"
157.55.39.55 bot - "2022-01-17 02:53:52" localhost/index.php/imeij/index 200 "Mozilla/5.0 (compatible; bingbot/2.0; +http://www.bing.com/bingbot.htm)"
157.55.39.229 bot - "2022-01-17 02:59:54" localhost/index.php/ifi/index 200 "Mozilla/5.0 (compatible; bingbot/2.0; +http://www.bing.com/bingbot.htm)"
207.46.13.105 bot - "2022-01-17 03:06:34" localhost/index.php/imeij/article/view/22 200 "Mozilla/5.0 (compatible; bingbot/2.0; +http://www.bing.com/bingbot.htm)"
114.119.133.134 bot - "2022-01-17 04:26:15" localhost/index.php/ifi/issue/view/4 200 "Mozilla/5.0 (Linux; Android 7.0;) AppleWebKit/537.36 (KHTML, like Gecko) Mobile Safari/537.36 (compatible; PetalBot;+https://webmaster.petalsearch.com/site/petalbot)"
114.119.133.126 bot - "2022-01-17 05:07:25" localhost/index.php/ifi/index 200 "Mozilla/5.0 (Linux; Android 7.0;) AppleWebKit/537.36 (KHTML, like Gecko) Mobile Safari/537.36 (compatible; PetalBot;+https://webmaster.petalsearch.com/site/petalbot)"
114.119.133.146 bot - "2022-01-17 05:19:04" localhost/index.php/imeij/article/view/12 200 "Mozilla/5.0 (Linux; Android 7.0;) AppleWebKit/537.36 (KHTML, like Gecko) Mobile Safari/537.36 (compatible; PetalBot;+https://webmaster.petalsearch.com/site/petalbot)"
114.119.133.134 bot - "2022-01-17 05:51:49" localhost/index.php/ifi/issue/view/4 200 "Mozilla/5.0 (Linux; Android 7.0;) AppleWebKit/537.36 (KHTML, like Gecko) Mobile Safari/537.36 (compatible; PetalBot;+https://webmaster.petalsearch.com/site/petalbot)"
66.249.79.192 bot - "2022-01-17 05:51:58" localhost/index.php/ifi/article/download/8/1/34 200 "Mozilla/5.0 (Linux; Android 6.0.1; Nexus 5X Build/MMB29P) AppleWebKit/537.36 (KHTML, like Gecko) Chrome/97.0.4692.71 Mobile Safari/537.36 (compatible; Googlebot/2.1; +http://www.google.com/bot.html)"
157.55.39.80 bot - "2022-01-17 06:07:43" localhost/index.php/imeij/index 200 "Mozilla/5.0 (compatible; bingbot/2.0; +http://www.bing.com/bingbot.htm)"
114.119.133.146 bot - "2022-01-17 07:42:37" localhost/index.php/imeij/article/view/23 200 "Mozilla/5.0 (Linux; Android 7.0;) AppleWebKit/537.36 (KHTML, like Gecko) Mobile Safari/537.36 (compatible; PetalBot;+https://webmaster.petalsearch.com/site/petalbot)"
114.119.133.14 bot - "2022-01-17 07:52:16" localhost/index.php/idijes/index 200 "Mozilla/5.0 (Linux; Android 7.0;) AppleWebKit/537.36 (KHTML, like Gecko) Mobile Safari/537.36 (compatible; PetalBot;+https://webmaster.petalsearch.com/site/petalbot)"
114.119.133.130 bot - "2022-01-17 08:41:03" localhost/index.php/imeij/issue/view/9 200 "Mozilla/5.0 (Linux; Android 7.0;) AppleWebKit/537.36 (KHTML, like Gecko) Mobile Safari/537.36 (compatible; PetalBot;+https://webmaster.petalsearch.com/site/petalbot)"
66.249.79.220 bot - "2022-01-17 08:56:41" localhost/index.php/imeij/index 200 "Mozilla/5.0 (Linux; Android 6.0.1; Nexus 5X Build/MMB29P) AppleWebKit/537.36 (KHTML, like Gecko) Chrome/97.0.4692.71 Mobile Safari/537.36 (compatible; Googlebot/2.1; +http://www.google.com/bot.html)"
114.119.133.138 bot - "2022-01-17 12:24:37" localhost/index.php/imeij/index 200 "Mozilla/5.0 (Linux; Android 7.0;) AppleWebKit/537.36 (KHTML, like Gecko) Mobile Safari/537.36 (compatible; PetalBot;+https://webmaster.petalsearch.com/site/petalbot)"
185.191.171.23 bot - "2022-01-17 13:47:26" localhost/index.php/ifi/article/view/13 200 "Mozilla/5.0 (compatible; SemrushBot/7~bl; +http://www.semrush.com/bot.html)"
114.119.133.14 bot - "2022-01-17 14:40:12" localhost/index.php/idiea/index 200 "Mozilla/5.0 (Linux; Android 7.0;) AppleWebKit/537.36 (KHTML, like Gecko) Mobile Safari/537.36 (compatible; PetalBot;+https://webmaster.petalsearch.com/site/petalbot)"
66.249.79.192 bot - "2022-01-17 15:34:06" localhost/index.php/ifi/article/download/8/1/34 200 "Mozilla/5.0 (Linux; Android 6.0.1; Nexus 5X Build/MMB29P) AppleWebKit/537.36 (KHTML, like Gecko) Chrome/97.0.4692.71 Mobile Safari/537.36 (compatible; Googlebot/2.1; +http://www.google.com/bot.html)"
157.55.39.55 bot - "2022-01-17 15:41:25" localhost/index.php/imeij/issue/view/8 200 "Mozilla/5.0 (compatible; bingbot/2.0; +http://www.bing.com/bingbot.htm)"
114.119.133.14 bot - "2022-01-17 17:08:21" localhost/index.php/idijes/index 200 "Mozilla/5.0 (Linux; Android 7.0;) AppleWebKit/537.36 (KHTML, like Gecko) Mobile Safari/537.36 (compatible; PetalBot;+https://webmaster.petalsearch.com/site/petalbot)"
114.119.133.14 bot - "2022-01-17 18:09:49" localhost/index.php/idijes/index 200 "Mozilla/5.0 (Linux; Android 7.0;) AppleWebKit/537.36 (KHTML, like Gecko) Mobile Safari/537.36 (compatible; PetalBot;+https://webmaster.petalsearch.com/site/petalbot)"
114.119.133.152 bot - "2022-01-17 18:53:20" localhost/index.php/ifi/issue/download/4/5 200 "Mozilla/5.0 (Linux; Android 7.0;) AppleWebKit/537.36 (KHTML, like Gecko) Mobile Safari/537.36 (compatible; PetalBot;+https://webmaster.petalsearch.com/site/petalbot)"
114.119.133.138 bot - "2022-01-17 19:12:47" localhost/index.php/idiea/index 200 "Mozilla/5.0 (Linux; Android 7.0;) AppleWebKit/537.36 (KHTML, like Gecko) Mobile Safari/537.36 (compatible; PetalBot;+https://webmaster.petalsearch.com/site/petalbot)"
114.119.133.152 bot - "2022-01-17 19:18:58" localhost/index.php/imeij/article/view/12 200 "Mozilla/5.0 (Linux; Android 7.0;) AppleWebKit/537.36 (KHTML, like Gecko) Mobile Safari/537.36 (compatible; PetalBot;+https://webmaster.petalsearch.com/site/petalbot)"
114.119.133.14 bot - "2022-01-17 19:36:36" localhost/index.php/ifi/article/view/15 200 "Mozilla/5.0 (Linux; Android 7.0;) AppleWebKit/537.36 (KHTML, like Gecko) Mobile Safari/537.36 (compatible; PetalBot;+https://webmaster.petalsearch.com/site/petalbot)"
198.20.67.197 bot - "2022-01-17 20:17:42" localhost/index.php/idijes/index 200 "SiteLockSpider [en] (WinNT; I ;Nav)"
198.20.67.197 bot - "2022-01-17 20:17:55" localhost/index.php/imeij/index 200 "SiteLockSpider [en] (WinNT; I ;Nav)"
198.20.67.197 - - "2022-01-17 20:18:00" localhost/index.php/imeij/issue/view/9 200 "Mozilla/5.0 (compatible; MSIE 9.0; Windows NT 6.1; WOW64; Trident/6.0)"
198.20.67.197 - - "2022-01-17 20:18:06" localhost/index.php/imeij/article/view/19 200 "Mozilla/5.0 (compatible; MSIE 9.0; Windows NT 6.1; WOW64; Trident/6.0)"
198.20.67.197 - - "2022-01-17 20:18:18" localhost/index.php/ifi/issue/view/4 200 "Mozilla/5.0 (compatible; MSIE 9.0; Windows NT 6.1; WOW64; Trident/6.0)"
198.20.67.197 - - "2022-01-17 20:18:22" localhost/index.php/imeij/index 200 "Mozilla/5.0 (compatible; MSIE 9.0; Windows NT 6.1; WOW64; Trident/6.0)"
198.20.67.197 - - "2022-01-17 20:18:28" localhost/index.php/idijes/index 200 "Mozilla/5.0 (compatible; MSIE 9.0; Windows NT 6.1; WOW64; Trident/6.0)"
198.20.67.197 bot - "2022-01-17 20:18:37" localhost/index.php/imeij/index 200 "SiteLockSpider [en] (WinNT; I ;Nav)"
198.20.67.197 bot - "2022-01-17 20:18:53" localhost/index.php/imeij/article/view/20 200 "SiteLockSpider [en] (WinNT; I ;Nav)"
198.20.67.197 - - "2022-01-17 20:19:00" localhost/index.php/ifi/article/view/13 200 "Mozilla/5.0 (compatible; MSIE 9.0; Windows NT 6.1; WOW64; Trident/6.0)"
198.20.67.197 bot - "2022-01-17 20:19:07" localhost/index.php/ifi/article/view/14 200 "SiteLockSpider [en] (WinNT; I ;Nav)"
198.20.67.197 bot - "2022-01-17 20:19:11" localhost/index.php/ifi/article/view/10 200 "SiteLockSpider [en] (WinNT; I ;Nav)"
198.20.67.197 bot - "2022-01-17 20:19:22" localhost/index.php/imeij/article/view/24 200 "SiteLockSpider [en] (WinNT; I ;Nav)"
198.20.67.197 - - "2022-01-17 20:19:28" localhost/index.php/ifi/index 200 "Mozilla/5.0 (compatible; MSIE 9.0; Windows NT 6.1; WOW64; Trident/6.0)"
198.20.67.197 bot - "2022-01-17 20:19:37" localhost/index.php/ifi/index 200 "SiteLockSpider [en] (WinNT; I ;Nav)"
198.20.67.197 - - "2022-01-17 20:19:50" localhost/index.php/ifi/article/download/10/2/61 200 "Mozilla/5.0 (compatible; MSIE 9.0; Windows NT 6.1; WOW64; Trident/6.0)"
198.20.67.197 bot - "2022-01-17 20:20:11" localhost/index.php/idijes/index 200 "SiteLockSpider [en] (WinNT; I ;Nav)"
198.20.67.197 bot - "2022-01-17 20:20:19" localhost/index.php/imeij/article/view/16 200 "SiteLockSpider [en] (WinNT; I ;Nav)"
198.20.67.197 bot - "2022-01-17 20:20:46" localhost/index.php/imeij/article/view/23 200 "SiteLockSpider [en] (WinNT; I ;Nav)"
198.20.67.197 bot - "2022-01-17 20:21:01" localhost/index.php/ifi/index 200 "SiteLockSpider [en] (WinNT; I ;Nav)"
198.20.67.197 bot - "2022-01-17 20:21:10" localhost/index.php/ifi/article/view/15 200 "SiteLockSpider [en] (WinNT; I ;Nav)"
114.119.133.130 bot - "2022-01-17 20:27:19" localhost/index.php/ifi/article/view/15 200 "Mozilla/5.0 (Linux; Android 7.0;) AppleWebKit/537.36 (KHTML, like Gecko) Mobile Safari/537.36 (compatible; PetalBot;+https://webmaster.petalsearch.com/site/petalbot)"
114.119.133.142 bot - "2022-01-17 20:33:42" localhost/index.php/imeij/issue/view/9 200 "Mozilla/5.0 (Linux; Android 7.0;) AppleWebKit/537.36 (KHTML, like Gecko) Mobile Safari/537.36 (compatible; PetalBot;+https://webmaster.petalsearch.com/site/petalbot)"
66.249.79.220 bot - "2022-01-17 21:22:01" localhost/index.php/imeij/index 200 "Mozilla/5.0 (Linux; Android 6.0.1; Nexus 5X Build/MMB29P) AppleWebKit/537.36 (KHTML, like Gecko) Chrome/97.0.4692.71 Mobile Safari/537.36 (compatible; Googlebot/2.1; +http://www.google.com/bot.html)"
180.241.240.213 - - "2022-01-17 23:00:46" localhost/index.php/ifi/article/view/15 200 "Mozilla/5.0 (Windows NT 10.0; WOW64) AppleWebKit/537.36 (KHTML, like Gecko) Chrome/97.0.4692.71 Safari/537.36"
180.241.241.22 - - "2022-01-17 23:02:30" localhost/index.php/ifi/article/view/15 200 "Mozilla/5.0 (Windows NT 10.0; WOW64) AppleWebKit/537.36 (KHTML, like Gecko) Chrome/97.0.4692.71 Safari/537.36"
180.241.242.194 - - "2022-01-17 23:06:53" localhost/index.php/ifi/article/view/15 200 "Mozilla/5.0 (Windows NT 10.0; Win64; x64) AppleWebKit/537.36 (KHTML, like Gecko) Chrome/97.0.4692.71 Safari/537.36 Edg/97.0.1072.62"
