107.178.237.19 bot - "2022-06-17 00:00:08" localhost/index.php/ifi/article/download/8/1/34 200 "python-requests/2.28.0"
103.131.71.82 bot - "2022-06-17 02:41:34" localhost/index.php/imeij/article/view/16 200 "Mozilla/5.0 (compatible; coccocbot-web/1.0; +http://help.coccoc.com/searchengine)"
66.249.66.140 bot - "2022-06-17 02:52:10" localhost/index.php/ifi/article/view/8 200 "Googlebot/2.1 (+http://www.google.com/bot.html)"
118.191.130.226 - - "2022-06-17 03:09:52" localhost/index.php/imeij/index 200 "Mozilla/5.0 (X11; U; Linux; en-US) AppleWebKit/527+ (KHTML, like Gecko, Safari/419.3) Arora/0.6"
66.249.66.140 bot - "2022-06-17 05:32:16" localhost/index.php/imeij/article/view/24 200 "Mozilla/5.0 (Linux; Android 6.0.1; Nexus 5X Build/MMB29P) AppleWebKit/537.36 (KHTML, like Gecko) Chrome/102.0.5005.115 Mobile Safari/537.36 (compatible; Googlebot/2.1; +http://www.google.com/bot.html)"
35.203.245.156 bot - "2022-06-17 05:34:40" localhost/index.php/ifi/article/download/15/5/70 200 "python-requests/2.28.0"
114.119.130.3 bot - "2022-06-17 06:15:06" localhost/index.php/imeij/article/download/25/18/156 200 "Mozilla/5.0 (Linux; Android 7.0;) AppleWebKit/537.36 (KHTML, like Gecko) Mobile Safari/537.36 (compatible; PetalBot;+https://webmaster.petalsearch.com/site/petalbot)"
114.119.130.3 bot - "2022-06-17 06:21:20" localhost/index.php/imeij/article/view/35 200 "Mozilla/5.0 (Linux; Android 7.0;) AppleWebKit/537.36 (KHTML, like Gecko) Mobile Safari/537.36 (compatible; PetalBot;+https://webmaster.petalsearch.com/site/petalbot)"
107.178.231.243 bot - "2022-06-17 06:47:49" localhost/index.php/ifi/article/download/10/2/61 200 "python-requests/2.28.0"
185.191.171.42 bot - "2022-06-17 07:25:00" localhost/index.php/ifi/index 200 "Mozilla/5.0 (compatible; SemrushBot/7~bl; +http://www.semrush.com/bot.html)"
114.119.130.3 bot - "2022-06-17 07:53:45" localhost/index.php/ifi/index 200 "Mozilla/5.0 (Linux; Android 7.0;) AppleWebKit/537.36 (KHTML, like Gecko) Mobile Safari/537.36 (compatible; PetalBot;+https://webmaster.petalsearch.com/site/petalbot)"
114.119.130.31 bot - "2022-06-17 08:10:49" localhost/index.php/imeij/index 200 "Mozilla/5.0 (Linux; Android 7.0;) AppleWebKit/537.36 (KHTML, like Gecko) Mobile Safari/537.36 (compatible; PetalBot;+https://webmaster.petalsearch.com/site/petalbot)"
114.119.130.3 bot - "2022-06-17 08:16:27" localhost/index.php/ifi/article/download/13/4/69 200 "Mozilla/5.0 (Linux; Android 7.0;) AppleWebKit/537.36 (KHTML, like Gecko) Mobile Safari/537.36 (compatible; PetalBot;+https://webmaster.petalsearch.com/site/petalbot)"
114.119.130.3 bot - "2022-06-17 08:27:58" localhost/index.php/imeij/index 200 "Mozilla/5.0 (Linux; Android 7.0;) AppleWebKit/537.36 (KHTML, like Gecko) Mobile Safari/537.36 (compatible; PetalBot;+https://webmaster.petalsearch.com/site/petalbot)"
114.119.130.31 bot - "2022-06-17 08:33:33" localhost/index.php/ifi/article/download/8/1/34 200 "Mozilla/5.0 (Linux; Android 7.0;) AppleWebKit/537.36 (KHTML, like Gecko) Mobile Safari/537.36 (compatible; PetalBot;+https://webmaster.petalsearch.com/site/petalbot)"
107.178.231.237 bot - "2022-06-17 10:20:22" localhost/index.php/ifi/article/download/13/4/69 200 "python-requests/2.28.0"
185.191.171.39 bot - "2022-06-17 10:44:42" localhost/index.php/ifi/article/view/14 200 "Mozilla/5.0 (compatible; SemrushBot/7~bl; +http://www.semrush.com/bot.html)"
65.21.206.43 - - "2022-06-17 11:51:40" localhost/index.php/idiea/index 200 "Mozilla/5.0 (Windows NT 10.0; Win64; x64) AppleWebKit/537.36 (KHTML, like Gecko) Chrome/91.0.4472.114 Safari/537.36 Edg/91.0.864.54"
66.249.66.87 bot - "2022-06-17 13:10:25" localhost/index.php/imeij/issue/view/11 200 "Googlebot/2.1 (+http://www.google.com/bot.html)"
114.119.130.31 bot - "2022-06-17 13:27:57" localhost/index.php/imeij/article/view/24 200 "Mozilla/5.0 (Linux; Android 7.0;) AppleWebKit/537.36 (KHTML, like Gecko) Mobile Safari/537.36 (compatible; PetalBot;+https://webmaster.petalsearch.com/site/petalbot)"
202.147.198.54 - - "2022-06-17 13:54:25" localhost/index.php/imeij/index 200 "Mozilla/5.0 (Windows NT 6.1) AppleWebKit/537.36 (KHTML, like Gecko) Chrome/102.0.0.0 Safari/537.36"
202.147.198.54 - - "2022-06-17 13:54:35" localhost/index.php/imeij/issue/view/6 200 "Mozilla/5.0 (Windows NT 6.1) AppleWebKit/537.36 (KHTML, like Gecko) Chrome/102.0.0.0 Safari/537.36"
181.214.68.56 - - "2022-06-17 16:16:36" localhost/index.php/ifi/article/download/10/2/61 200 "Mozilla/5.0 (Macintosh; Intel Mac OS X 10_13_6) AppleWebKit/537.36 (KHTML, like Gecko) Chrome/100.0.4896.127 Safari/537.36"
94.1.179.210 - - "2022-06-17 16:59:01" localhost/index.php/ifi/article/download/8/1/34 200 "Mozilla/5.0 (Windows NT 10.0; Win64; x64) AppleWebKit/537.36 (KHTML, like Gecko) Chrome/102.0.0.0 Safari/537.36"
185.191.171.45 bot - "2022-06-17 19:08:31" localhost/index.php/imeij/article/download/31/19/174 200 "Mozilla/5.0 (compatible; SemrushBot/7~bl; +http://www.semrush.com/bot.html)"
184.154.36.170 - - "2022-06-17 19:22:14" localhost/index.php/ifi/index 200 "Mozilla/5.0 (compatible; MSIE 9.0; Windows NT 6.1; WOW64; Trident/6.0)"
184.154.36.170 - - "2022-06-17 19:22:22" localhost/index.php/imeij/issue/view/11 200 "Mozilla/5.0 (compatible; MSIE 9.0; Windows NT 6.1; WOW64; Trident/6.0)"
114.119.130.3 bot - "2022-06-17 19:52:05" localhost/index.php/imeij/article/view/22 200 "Mozilla/5.0 (Linux; Android 7.0;) AppleWebKit/537.36 (KHTML, like Gecko) Mobile Safari/537.36 (compatible; PetalBot;+https://webmaster.petalsearch.com/site/petalbot)"
114.119.130.3 bot - "2022-06-17 20:21:09" localhost/index.php/imeij/article/view/24 200 "Mozilla/5.0 (Linux; Android 7.0;) AppleWebKit/537.36 (KHTML, like Gecko) Mobile Safari/537.36 (compatible; PetalBot;+https://webmaster.petalsearch.com/site/petalbot)"
207.46.13.129 bot - "2022-06-17 20:46:37" localhost/index.php/imeij/article/download/20/13/128 200 "Mozilla/5.0 (compatible; bingbot/2.0; +http://www.bing.com/bingbot.htm)"
182.2.167.95 - - "2022-06-17 20:55:13" localhost/index.php/imeij/index 200 "Mozilla/5.0 (Windows NT 6.1) AppleWebKit/537.36 (KHTML, like Gecko) Chrome/102.0.0.0 Safari/537.36"
46.101.80.192 - - "2022-06-17 21:06:51" localhost/index.php/imeij/index 200 "Mozilla/5.0 (Windows NT 6.0) AppleWebKit/537.36 (KHTML, like Gecko) Chrome/34.0.1847.116 Safari/537.36"
46.101.80.192 - - "2022-06-17 21:06:57" localhost/index.php/imeij/issue/view/11 200 "Mozilla/5.0 (Windows NT 6.0) AppleWebKit/537.36 (KHTML, like Gecko) Chrome/34.0.1847.116 Safari/537.36"
35.203.252.144 bot - "2022-06-17 21:23:44" localhost/index.php/ifi/article/download/14/3/64 200 "python-requests/2.28.0"
114.119.130.3 bot - "2022-06-17 22:41:10" localhost/index.php/imeij/article/view/20 200 "Mozilla/5.0 (Linux; Android 7.0;) AppleWebKit/537.36 (KHTML, like Gecko) Mobile Safari/537.36 (compatible; PetalBot;+https://webmaster.petalsearch.com/site/petalbot)"
66.249.71.190 bot - "2022-06-17 23:59:09" localhost/index.php/imeij/article/download/19/12/127 200 "Googlebot/2.1 (+http://www.google.com/bot.html)"
