185.191.171.15 bot - "2022-04-22 01:25:51" localhost/index.php/imeij/article/view/20 200 "Mozilla/5.0 (compatible; SemrushBot/7~bl; +http://www.semrush.com/bot.html)"
66.249.79.28 bot - "2022-04-22 01:28:08" localhost/index.php/imeij/issue/view/9 200 "Googlebot/2.1 (+http://www.google.com/bot.html)"
66.249.79.28 bot - "2022-04-22 01:32:27" localhost/index.php/imeij/issue/view/9 200 "Googlebot/2.1 (+http://www.google.com/bot.html)"
185.191.171.2 bot - "2022-04-22 02:33:54" localhost/index.php/idijes/index 200 "Mozilla/5.0 (compatible; SemrushBot/7~bl; +http://www.semrush.com/bot.html)"
54.36.148.0 bot - "2022-04-22 03:33:29" localhost/index.php/idijes/index 200 "Mozilla/5.0 (compatible; AhrefsBot/7.0; +http://ahrefs.com/robot/)"
114.119.130.30 bot - "2022-04-22 03:36:29" localhost/index.php/imeij/article/view/16 200 "Mozilla/5.0 (Linux; Android 7.0;) AppleWebKit/537.36 (KHTML, like Gecko) Mobile Safari/537.36 (compatible; PetalBot;+https://webmaster.petalsearch.com/site/petalbot)"
114.119.150.68 bot - "2022-04-22 03:54:29" localhost/index.php/ifi/article/download/8/1/34 200 "Mozilla/5.0 (Linux; Android 7.0;) AppleWebKit/537.36 (KHTML, like Gecko) Mobile Safari/537.36 (compatible; PetalBot;+https://webmaster.petalsearch.com/site/petalbot)"
207.241.232.187 - - "2022-04-22 09:12:54" localhost/index.php/imeij/article/view/23 200 "Mozilla/5.0 (Windows NT 10.0; Win64; x64) AppleWebKit/605.1.15 (KHTML, like Gecko) Chrome/89.0.4389.82 Safari/605.1.15"
207.241.225.95 - - "2022-04-22 09:12:58" localhost/index.php/imeij/article/view/23 200 "Mozilla/5.0 (Windows NT 10.0; Win64; x64) AppleWebKit/605.1.15 (KHTML, like Gecko) Chrome/89.0.4389.82 Safari/605.1.15"
207.241.225.139 - - "2022-04-22 09:13:07" localhost/index.php/imeij/article/download/23/15/107 200 "Mozilla/5.0 (Windows NT 10.0; Win64; x64) AppleWebKit/605.1.15 (KHTML, like Gecko) Chrome/89.0.4389.82 Safari/605.1.15"
66.249.68.10 bot - "2022-04-22 12:27:42" localhost/index.php/imeij/issue/view/9 200 "Googlebot/2.1 (+http://www.google.com/bot.html)"
185.191.171.12 bot - "2022-04-22 12:28:37" localhost/index.php/ifi/article/download/10/2/61 200 "Mozilla/5.0 (compatible; SemrushBot/7~bl; +http://www.semrush.com/bot.html)"
185.191.171.36 bot - "2022-04-22 12:49:49" localhost/index.php/imeij/article/view/22 200 "Mozilla/5.0 (compatible; SemrushBot/7~bl; +http://www.semrush.com/bot.html)"
185.191.171.18 bot - "2022-04-22 13:21:30" localhost/index.php/imeij/article/view/21 200 "Mozilla/5.0 (compatible; SemrushBot/7~bl; +http://www.semrush.com/bot.html)"
66.249.68.7 bot - "2022-04-22 14:54:01" localhost/index.php/imeij/article/view/22 200 "Mozilla/5.0 (compatible; Googlebot/2.1; +http://www.google.com/bot.html)"
54.36.148.230 bot - "2022-04-22 16:59:49" localhost/index.php/idijes/index 200 "Mozilla/5.0 (compatible; AhrefsBot/7.0; +http://ahrefs.com/robot/)"
185.191.171.25 bot - "2022-04-22 17:39:01" localhost/index.php/imeij/article/view/24 200 "Mozilla/5.0 (compatible; SemrushBot/7~bl; +http://www.semrush.com/bot.html)"
157.55.39.45 bot - "2022-04-22 20:18:36" localhost/index.php/ifi/index 200 "Mozilla/5.0 (compatible; bingbot/2.0; +http://www.bing.com/bingbot.htm)"
66.249.68.10 bot - "2022-04-22 20:26:03" localhost/index.php/ifi/article/download/8/1/34 200 "Mozilla/5.0 (Linux; Android 6.0.1; Nexus 5X Build/MMB29P) AppleWebKit/537.36 (KHTML, like Gecko) Chrome/100.0.4896.127 Mobile Safari/537.36 (compatible; Googlebot/2.1; +http://www.google.com/bot.html)"
54.36.148.151 bot - "2022-04-22 20:28:36" localhost/index.php/imeij/article/view/12 200 "Mozilla/5.0 (compatible; AhrefsBot/7.0; +http://ahrefs.com/robot/)"
54.36.148.28 bot - "2022-04-22 21:08:36" localhost/index.php/imeij/index 200 "Mozilla/5.0 (compatible; AhrefsBot/7.0; +http://ahrefs.com/robot/)"
54.36.148.192 bot - "2022-04-22 21:28:58" localhost/index.php/ifi/index 200 "Mozilla/5.0 (compatible; AhrefsBot/7.0; +http://ahrefs.com/robot/)"
114.119.150.68 bot - "2022-04-22 22:11:18" localhost/index.php/ifi/article/view/13 200 "Mozilla/5.0 (Linux; Android 7.0;) AppleWebKit/537.36 (KHTML, like Gecko) Mobile Safari/537.36 (compatible; PetalBot;+https://webmaster.petalsearch.com/site/petalbot)"
114.119.130.30 bot - "2022-04-22 22:23:40" localhost/index.php/ifi/article/view/8 200 "Mozilla/5.0 (Linux; Android 7.0;) AppleWebKit/537.36 (KHTML, like Gecko) Mobile Safari/537.36 (compatible; PetalBot;+https://webmaster.petalsearch.com/site/petalbot)"
157.55.39.19 bot - "2022-04-22 22:25:47" localhost/index.php/ifi/article/view/10 200 "Mozilla/5.0 (compatible; bingbot/2.0; +http://www.bing.com/bingbot.htm)"
114.119.150.68 bot - "2022-04-22 22:35:03" localhost/index.php/ifi/article/download/15/5/70 200 "Mozilla/5.0 (Linux; Android 7.0;) AppleWebKit/537.36 (KHTML, like Gecko) Mobile Safari/537.36 (compatible; PetalBot;+https://webmaster.petalsearch.com/site/petalbot)"
66.249.68.7 bot - "2022-04-22 22:36:42" localhost/index.php/ifi/article/download/8/1/34 200 "Mozilla/5.0 (compatible; Googlebot/2.1; +http://www.google.com/bot.html)"
114.119.130.30 bot - "2022-04-22 22:46:29" localhost/index.php/imeij/index 200 "Mozilla/5.0 (Linux; Android 7.0;) AppleWebKit/537.36 (KHTML, like Gecko) Mobile Safari/537.36 (compatible; PetalBot;+https://webmaster.petalsearch.com/site/petalbot)"
66.249.68.10 bot - "2022-04-22 23:10:17" localhost/index.php/ifi/article/download/8/1/34 200 "Mozilla/5.0 (compatible; Googlebot/2.1; +http://www.google.com/bot.html)"
157.55.39.27 bot - "2022-04-22 23:23:51" localhost/index.php/imeij/issue/view/9 200 "Mozilla/5.0 (compatible; bingbot/2.0; +http://www.bing.com/bingbot.htm)"
157.55.39.27 bot - "2022-04-22 23:34:52" localhost/index.php/ifi/article/view/15 200 "Mozilla/5.0 (compatible; bingbot/2.0; +http://www.bing.com/bingbot.htm)"
