40.77.167.51 bot - "2021-06-14 01:50:31" localhost/index.php/ifi/index 200 "Mozilla/5.0 (compatible; bingbot/2.0; +http://www.bing.com/bingbot.htm)"
202.80.212.55 - - "2021-06-14 18:58:46" localhost/index.php/ifi/index 200 "Mozilla/5.0 (iPhone; CPU iPhone OS 14_4_2 like Mac OS X) AppleWebKit/605.1.15 (KHTML, like Gecko) Version/14.0.3 Mobile/15E148 Safari/604.1"
66.220.149.20 bot - "2021-06-14 18:59:21" localhost/index.php/ifi/index 200 "facebookexternalhit/1.1 (+http://www.facebook.com/externalhit_uatext.php)"
202.80.212.55 - - "2021-06-14 18:59:22" localhost/index.php/ifi/index 200 "Mozilla/5.0 (iPhone; CPU iPhone OS 14_4_2 like Mac OS X) AppleWebKit/605.1.15 (KHTML, like Gecko) Mobile/15E148 Instagram 191.0.0.25.122 (iPhone9,1; iOS 14_4_2; en_GB; en-GB; scale=2.00; 750x1334; 296543649) NW/3"
66.220.149.56 bot - "2021-06-14 18:59:22" localhost/index.php/ifi/index 200 "facebookexternalhit/1.1 (+http://www.facebook.com/externalhit_uatext.php)"
173.252.83.117 bot - "2021-06-14 18:59:29" localhost/index.php/ifi/index 200 "facebookexternalhit/1.1 (+http://www.facebook.com/externalhit_uatext.php)"
36.82.19.65 - - "2021-06-14 18:59:58" localhost/index.php/ifi/index 200 "Mozilla/5.0 (iPhone; CPU iPhone OS 14_4_2 like Mac OS X) AppleWebKit/605.1.15 (KHTML, like Gecko) Mobile/15E148 Instagram 191.0.0.25.122 (iPhone11,8; iOS 14_4_2; id_ID; id-ID; scale=2.00; 828x1792; 296543649) NW/3"
31.13.127.17 - - "2021-06-14 19:01:26" localhost/index.php/ifi/index 200 "Mozilla/5.0 (iPhone; CPU iPhone OS 14_3 like Mac OS X) AppleWebKit/605.1.15 (KHTML, like Gecko) Version/14.0.2 Mobile/15E148 Safari/604.1"
36.82.19.65 - - "2021-06-14 19:02:59" localhost/index.php/ifi/index 200 "Mozilla/5.0 (iPhone; CPU iPhone OS 14_4_2 like Mac OS X) AppleWebKit/605.1.15 (KHTML, like Gecko) Mobile/15E148 Instagram 191.0.0.25.122 (iPhone11,8; iOS 14_4_2; id_ID; id-ID; scale=2.00; 828x1792; 296543649) NW/3"
184.154.36.170 - - "2021-06-14 19:17:23" localhost/index.php/idiea/index 200 "Mozilla/5.0 (compatible; MSIE 9.0; Windows NT 6.1; WOW64; Trident/6.0)"
184.154.36.170 bot - "2021-06-14 19:17:36" localhost/index.php/imeij/index 200 "SiteLockSpider [en] (WinNT; I ;Nav)"
185.191.171.9 bot - "2021-06-14 21:32:51" localhost/index.php/ifi/index 200 "Mozilla/5.0 (compatible; SemrushBot/7~bl; +http://www.semrush.com/bot.html)"
202.80.212.55 - - "2021-06-14 22:32:13" localhost/index.php/ifi/index 200 "Mozilla/5.0 (iPhone; CPU iPhone OS 14_4_2 like Mac OS X) AppleWebKit/605.1.15 (KHTML, like Gecko) Version/14.0.3 Mobile/15E148 Safari/604.1"
