185.191.171.22 bot - "2022-03-04 01:32:05" localhost/index.php/ifi/article/view/10 200 "Mozilla/5.0 (compatible; SemrushBot/7~bl; +http://www.semrush.com/bot.html)"
114.122.6.70 - - "2022-03-04 01:51:19" localhost/index.php/imeij/article/download/21/10/98 200 "Mozilla/5.0 (Windows NT 10.0; Win64; x64) AppleWebKit/537.36 (KHTML, like Gecko) Chrome/98.0.4758.102 Safari/537.36"
66.249.79.30 bot - "2022-03-04 02:32:32" localhost/index.php/ifi/issue/view/4 200 "Googlebot/2.1 (+http://www.google.com/bot.html)"
185.191.171.34 bot - "2022-03-04 02:49:51" localhost/index.php/imeij/article/view/16 200 "Mozilla/5.0 (compatible; SemrushBot/7~bl; +http://www.semrush.com/bot.html)"
66.249.79.28 bot - "2022-03-04 02:54:01" localhost/index.php/ifi/issue/view/4 200 "Googlebot/2.1 (+http://www.google.com/bot.html)"
66.249.79.30 bot - "2022-03-04 03:10:19" localhost/index.php/ifi/index 200 "Googlebot/2.1 (+http://www.google.com/bot.html)"
66.249.79.28 bot - "2022-03-04 03:22:44" localhost/index.php/imeij/issue/view/9 200 "Googlebot/2.1 (+http://www.google.com/bot.html)"
66.249.79.30 bot - "2022-03-04 03:25:50" localhost/index.php/imeij/issue/view/6 200 "Googlebot/2.1 (+http://www.google.com/bot.html)"
185.191.171.40 bot - "2022-03-04 03:48:40" localhost/index.php/imeij/issue/view/9 200 "Mozilla/5.0 (compatible; SemrushBot/7~bl; +http://www.semrush.com/bot.html)"
114.119.130.33 bot - "2022-03-04 06:31:18" localhost/index.php/ifi/index 200 "Mozilla/5.0 (Linux; Android 7.0;) AppleWebKit/537.36 (KHTML, like Gecko) Mobile Safari/537.36 (compatible; PetalBot;+https://webmaster.petalsearch.com/site/petalbot)"
114.119.130.3 bot - "2022-03-04 06:36:57" localhost/index.php/idijes/index 200 "Mozilla/5.0 (Linux; Android 7.0;) AppleWebKit/537.36 (KHTML, like Gecko) Mobile Safari/537.36 (compatible; PetalBot;+https://webmaster.petalsearch.com/site/petalbot)"
157.55.39.170 bot - "2022-03-04 06:37:49" localhost/index.php/imeij/article/view/20 200 "Mozilla/5.0 (compatible; bingbot/2.0; +http://www.bing.com/bingbot.htm)"
114.119.130.27 bot - "2022-03-04 07:03:49" localhost/index.php/imeij/article/view/20 200 "Mozilla/5.0 (Linux; Android 7.0;) AppleWebKit/537.36 (KHTML, like Gecko) Mobile Safari/537.36 (compatible; PetalBot;+https://webmaster.petalsearch.com/site/petalbot)"
157.55.39.170 bot - "2022-03-04 07:06:53" localhost/index.php/ifi/article/view/14 200 "Mozilla/5.0 (compatible; bingbot/2.0; +http://www.bing.com/bingbot.htm)"
185.191.171.34 bot - "2022-03-04 07:09:41" localhost/index.php/ifi/index 200 "Mozilla/5.0 (compatible; SemrushBot/7~bl; +http://www.semrush.com/bot.html)"
114.119.150.68 bot - "2022-03-04 07:16:05" localhost/index.php/imeij/article/download/24/14/105 200 "Mozilla/5.0 (Linux; Android 7.0;) AppleWebKit/537.36 (KHTML, like Gecko) Mobile Safari/537.36 (compatible; PetalBot;+https://webmaster.petalsearch.com/site/petalbot)"
207.46.13.145 bot - "2022-03-04 07:29:59" localhost/index.php/imeij/article/view/22 200 "Mozilla/5.0 (compatible; bingbot/2.0; +http://www.bing.com/bingbot.htm)"
185.191.171.39 bot - "2022-03-04 08:22:00" localhost/index.php/ifi/article/download/8/1/34 200 "Mozilla/5.0 (compatible; SemrushBot/7~bl; +http://www.semrush.com/bot.html)"
157.55.39.79 bot - "2022-03-04 09:29:14" localhost/index.php/imeij/index 200 "Mozilla/5.0 (compatible; bingbot/2.0; +http://www.bing.com/bingbot.htm)"
207.46.13.145 bot - "2022-03-04 11:15:49" localhost/index.php/ifi/article/view/10 200 "Mozilla/5.0 (compatible; bingbot/2.0; +http://www.bing.com/bingbot.htm)"
66.249.79.28 bot - "2022-03-04 11:37:30" localhost/index.php/ifi/article/download/8/1/34 200 "Mozilla/5.0 (Linux; Android 6.0.1; Nexus 5X Build/MMB29P) AppleWebKit/537.36 (KHTML, like Gecko) Chrome/98.0.4758.102 Mobile Safari/537.36 (compatible; Googlebot/2.1; +http://www.google.com/bot.html)"
173.230.136.46 - - "2022-03-04 12:14:30" localhost/index.php/ifi/article/download/8/1/34 200 "Mozilla/5.0 (Windows NT 6.2) AppleWebKit/537.36 (KHTML, like Gecko) Chrome/28.0.1464.0 Safari/537.36"
173.255.214.159 - - "2022-03-04 12:14:35" localhost/index.php/ifi/article/download/15/5/70 200 "Mozilla/5.0 (X11; Linux x86_64) AppleWebKit/537.36 (KHTML, like Gecko) Chrome/34.0.1847.137 Safari/4E423F"
173.255.232.145 - - "2022-03-04 12:14:41" localhost/index.php/ifi/article/download/14/3/64 200 "Mozilla/5.0 (Macintosh; Intel Mac OS X 10.8; rv:24.0) Gecko/20100101 Firefox/24.0"
173.255.214.159 - - "2022-03-04 12:14:46" localhost/index.php/ifi/article/download/13/4/69 200 "Mozilla/5.0 (Windows NT 6.1; Win64; x64; rv:22.0) Gecko/20130328 Firefox/22.0"
173.230.136.46 - - "2022-03-04 12:14:51" localhost/index.php/ifi/article/download/10/2/61 200 "Mozilla/5.0 (Windows NT 5.1) AppleWebKit/537.36 (KHTML, like Gecko) Chrome/35.0.2117.157 Safari/537.36"
114.119.130.30 bot - "2022-03-04 13:48:11" localhost/index.php/imeij/issue/view/8 200 "Mozilla/5.0 (Linux; Android 7.0;) AppleWebKit/537.36 (KHTML, like Gecko) Mobile Safari/537.36 (compatible; PetalBot;+https://webmaster.petalsearch.com/site/petalbot)"
66.249.79.1 bot - "2022-03-04 14:50:17" localhost/index.php/imeij/article/view/23 200 "Googlebot/2.1 (+http://www.google.com/bot.html)"
66.249.79.30 bot - "2022-03-04 14:53:06" localhost/index.php/imeij/index 200 "Googlebot/2.1 (+http://www.google.com/bot.html)"
66.249.79.28 bot - "2022-03-04 14:56:34" localhost/index.php/imeij/article/download/24/14/105 200 "Googlebot/2.1 (+http://www.google.com/bot.html)"
114.119.130.33 bot - "2022-03-04 15:00:36" localhost/index.php/idiea/index 200 "Mozilla/5.0 (Linux; Android 7.0;) AppleWebKit/537.36 (KHTML, like Gecko) Mobile Safari/537.36 (compatible; PetalBot;+https://webmaster.petalsearch.com/site/petalbot)"
66.249.79.30 bot - "2022-03-04 15:01:28" localhost/index.php/ifi/issue/view/4 200 "Googlebot/2.1 (+http://www.google.com/bot.html)"
66.249.79.30 bot - "2022-03-04 15:15:58" localhost/index.php/imeij/issue/view/9 200 "Googlebot/2.1 (+http://www.google.com/bot.html)"
114.119.130.31 bot - "2022-03-04 15:18:19" localhost/index.php/imeij/index 200 "Mozilla/5.0 (Linux; Android 7.0;) AppleWebKit/537.36 (KHTML, like Gecko) Mobile Safari/537.36 (compatible; PetalBot;+https://webmaster.petalsearch.com/site/petalbot)"
114.119.130.30 bot - "2022-03-04 15:29:41" localhost/index.php/imeij/issue/view/9 200 "Mozilla/5.0 (Linux; Android 7.0;) AppleWebKit/537.36 (KHTML, like Gecko) Mobile Safari/537.36 (compatible; PetalBot;+https://webmaster.petalsearch.com/site/petalbot)"
66.249.79.30 bot - "2022-03-04 16:10:31" localhost/index.php/ifi/article/download/8/1/34 200 "Mozilla/5.0 AppleWebKit/537.36 (KHTML, like Gecko; compatible; Googlebot/2.1; +http://www.google.com/bot.html) Chrome/98.0.4758.102 Safari/537.36"
125.164.187.122 - - "2022-03-04 16:19:37" localhost/index.php/ifi/article/view/8 200 "Mozilla/5.0 (Linux; Android 11; V2043) AppleWebKit/537.36 (KHTML, like Gecko) Chrome/99.0.4844.48 Mobile Safari/537.36"
125.164.187.122 - - "2022-03-04 16:19:58" localhost/index.php/ifi/article/view/8 200 "Mozilla/5.0 (Linux; Android 11; V2043) AppleWebKit/537.36 (KHTML, like Gecko) Chrome/99.0.4844.48 Mobile Safari/537.36"
125.164.187.122 - - "2022-03-04 16:20:13" localhost/index.php/ifi/article/download/8/1/34 200 "Mozilla/5.0 (Linux; Android 11; V2043) AppleWebKit/537.36 (KHTML, like Gecko) Chrome/99.0.4844.48 Mobile Safari/537.36"
125.164.187.122 - - "2022-03-04 16:20:26" localhost/index.php/ifi/article/download/8/1/34 200 "Mozilla/5.0 (Linux; Android 11; V2043) AppleWebKit/537.36 (KHTML, like Gecko) Chrome/99.0.4844.48 Mobile Safari/537.36"
125.164.187.122 - - "2022-03-04 16:21:45" localhost/index.php/ifi/article/view/8 200 "Mozilla/5.0 (Linux; Android 11; V2043) AppleWebKit/537.36 (KHTML, like Gecko) Chrome/99.0.4844.48 Mobile Safari/537.36"
125.164.187.122 - - "2022-03-04 16:21:48" localhost/index.php/ifi/article/view/8 200 "Mozilla/5.0 (Linux; Android 11; V2043) AppleWebKit/537.36 (KHTML, like Gecko) Chrome/99.0.4844.48 Mobile Safari/537.36"
114.119.130.3 bot - "2022-03-04 16:22:01" localhost/index.php/ifi/index 200 "Mozilla/5.0 (Linux; Android 7.0;) AppleWebKit/537.36 (KHTML, like Gecko) Mobile Safari/537.36 (compatible; PetalBot;+https://webmaster.petalsearch.com/site/petalbot)"
103.131.71.231 bot - "2022-03-04 16:30:29" localhost/index.php/imeij/article/view/16 200 "Mozilla/5.0 (compatible; coccocbot-web/1.0; +http://help.coccoc.com/searchengine)"
185.191.171.37 bot - "2022-03-04 18:30:46" localhost/index.php/ifi/index 200 "Mozilla/5.0 (compatible; SemrushBot/7~bl; +http://www.semrush.com/bot.html)"
198.20.67.197 bot - "2022-03-04 20:17:06" localhost/index.php/imeij/index 200 "SiteLockSpider [en] (WinNT; I ;Nav)"
114.119.130.31 bot - "2022-03-04 21:12:53" localhost/index.php/imeij/article/view/23 200 "Mozilla/5.0 (Linux; Android 7.0;) AppleWebKit/537.36 (KHTML, like Gecko) Mobile Safari/537.36 (compatible; PetalBot;+https://webmaster.petalsearch.com/site/petalbot)"
54.36.149.40 bot - "2022-03-04 22:16:02" localhost/index.php/imeij/index 200 "Mozilla/5.0 (compatible; AhrefsBot/7.0; +http://ahrefs.com/robot/)"
