101.128.119.252 - - "2021-05-19 00:40:39" localhost/index.php/ifi/issue/view/4 200 "Mozilla/5.0 (Linux; Android 11; SAMSUNG SM-A507FN) AppleWebKit/537.36 (KHTML, like Gecko) SamsungBrowser/14.0 Chrome/87.0.4280.141 Mobile Safari/537.36"
101.128.119.252 - - "2021-05-19 00:40:58" localhost/index.php/ifi/issue/view/4 200 "Mozilla/5.0 (Linux; Android 11; SAMSUNG SM-A507FN) AppleWebKit/537.36 (KHTML, like Gecko) SamsungBrowser/14.0 Chrome/87.0.4280.141 Mobile Safari/537.36"
101.128.119.252 - - "2021-05-19 00:41:11" localhost/index.php/ifi/article/download/8/1/34 200 "Mozilla/5.0 (Linux; Android 11; SAMSUNG SM-A507FN) AppleWebKit/537.36 (KHTML, like Gecko) SamsungBrowser/14.0 Chrome/87.0.4280.141 Mobile Safari/537.36"
101.128.119.252 - - "2021-05-19 00:41:15" localhost/index.php/ifi/issue/view/4 200 "Mozilla/5.0 (Linux; Android 11; SAMSUNG SM-A507FN) AppleWebKit/537.36 (KHTML, like Gecko) SamsungBrowser/14.0 Chrome/87.0.4280.141 Mobile Safari/537.36"
101.128.119.252 - - "2021-05-19 00:41:52" localhost/index.php/ifi/issue/view/4 200 "Mozilla/5.0 (Linux; Android 11; SAMSUNG SM-A507FN) AppleWebKit/537.36 (KHTML, like Gecko) SamsungBrowser/14.0 Chrome/87.0.4280.141 Mobile Safari/537.36"
101.128.119.252 - - "2021-05-19 00:42:52" localhost/index.php/ifi/issue/view/4 200 "Mozilla/5.0 (Linux; Android 11; SAMSUNG SM-A507FN) AppleWebKit/537.36 (KHTML, like Gecko) SamsungBrowser/14.0 Chrome/87.0.4280.141 Mobile Safari/537.36"
66.249.79.8 bot - "2021-05-19 02:24:34" localhost/index.php/ifi/issue/view/4 200 "Googlebot/2.1 (+http://www.google.com/bot.html)"
103.10.66.20 - - "2021-05-19 12:30:01" localhost/index.php/ifi/issue/view/4 200 "Mozilla/5.0 (Linux; Android 9; vivo 1920 Build/PKQ1.190626.001; wv) AppleWebKit/537.36 (KHTML, like Gecko) Chrome/62.0.3202.84 Mobile Safari/537.36 VivoBrowser/7.4.3.0"
103.10.66.20 - - "2021-05-19 12:30:23" localhost/index.php/ifi/article/view/8 200 "Mozilla/5.0 (Linux; Android 9; vivo 1920 Build/PKQ1.190626.001; wv) AppleWebKit/537.36 (KHTML, like Gecko) Chrome/62.0.3202.84 Mobile Safari/537.36 VivoBrowser/7.4.3.0"
103.10.66.20 - - "2021-05-19 12:30:39" localhost/index.php/ifi/issue/view/4 200 "Mozilla/5.0 (Linux; Android 9; vivo 1920 Build/PKQ1.190626.001; wv) AppleWebKit/537.36 (KHTML, like Gecko) Chrome/62.0.3202.84 Mobile Safari/537.36 VivoBrowser/7.4.3.0"
103.10.66.20 - - "2021-05-19 12:30:51" localhost/index.php/ifi/index 200 "Mozilla/5.0 (Linux; Android 9; vivo 1920 Build/PKQ1.190626.001; wv) AppleWebKit/537.36 (KHTML, like Gecko) Chrome/62.0.3202.84 Mobile Safari/537.36 VivoBrowser/7.4.3.0"
66.249.79.12 bot - "2021-05-19 13:43:14" localhost/index.php/ifi/article/view/8 200 "Googlebot/2.1 (+http://www.google.com/bot.html)"
66.249.79.8 bot - "2021-05-19 13:45:52" localhost/index.php/ifi/issue/view/4 200 "Googlebot/2.1 (+http://www.google.com/bot.html)"
66.249.79.8 bot - "2021-05-19 14:37:52" localhost/index.php/ifi/issue/view/4 200 "Googlebot/2.1 (+http://www.google.com/bot.html)"
184.154.139.23 - - "2021-05-19 20:39:27" localhost/index.php/idijes/index 200 "Mozilla/5.0 (compatible; MSIE 9.0; Windows NT 6.1; WOW64; Trident/6.0)"
184.154.139.23 bot - "2021-05-19 20:39:38" localhost/index.php/imeij/index 200 "SiteLockSpider [en] (WinNT; I ;Nav)"
184.154.139.23 - - "2021-05-19 20:39:41" localhost/index.php/ifi/issue/view/4 200 "Mozilla/5.0 (compatible; MSIE 9.0; Windows NT 6.1; WOW64; Trident/6.0)"
101.128.119.252 - - "2021-05-19 21:20:10" localhost/index.php/ifi/issue/view/4 200 "Mozilla/5.0 (Windows NT 10.0; Win64; x64) AppleWebKit/537.36 (KHTML, like Gecko) Chrome/90.0.4430.93 Safari/537.36"
