40.77.167.25 bot - "2021-10-05 01:16:14" localhost/index.php/ifi/issue/view/4 200 "Mozilla/5.0 (compatible; bingbot/2.0; +http://www.bing.com/bingbot.htm)"
185.191.171.8 bot - "2021-10-05 01:25:06" localhost/index.php/ifi/index 200 "Mozilla/5.0 (compatible; SemrushBot/7~bl; +http://www.semrush.com/bot.html)"
66.249.79.220 bot - "2021-10-05 01:57:05" localhost/index.php/ifi/article/view/8 200 "Googlebot/2.1 (+http://www.google.com/bot.html)"
185.191.171.19 bot - "2021-10-05 01:57:12" localhost/index.php/imeij/article/download/16/6/74 200 "Mozilla/5.0 (compatible; SemrushBot/7~bl; +http://www.semrush.com/bot.html)"
66.249.79.192 bot - "2021-10-05 02:25:08" localhost/index.php/ifi/issue/view/4 200 "Googlebot/2.1 (+http://www.google.com/bot.html)"
66.249.79.220 bot - "2021-10-05 02:53:13" localhost/index.php/imeij/issue/view/5 200 "Googlebot/2.1 (+http://www.google.com/bot.html)"
66.249.79.192 bot - "2021-10-05 04:06:24" localhost/index.php/idijes/index 200 "Googlebot/2.1 (+http://www.google.com/bot.html)"
114.119.133.146 bot - "2021-10-05 04:52:35" localhost/index.php/idiea/index 200 "Mozilla/5.0 (Linux; Android 7.0;) AppleWebKit/537.36 (KHTML, like Gecko) Mobile Safari/537.36 (compatible; PetalBot;+https://webmaster.petalsearch.com/site/petalbot)"
207.46.13.103 bot - "2021-10-05 05:04:06" localhost/index.php/idijes/index 200 "Mozilla/5.0 (compatible; bingbot/2.0; +http://www.bing.com/bingbot.htm)"
72.14.199.221 bot - "2021-10-05 06:11:01" localhost/index.php/ifi/index 200 "Mozilla/5.0 (compatible; Google-Site-Verification/1.0)"
66.249.79.220 bot - "2021-10-05 06:20:47" localhost/index.php/ifi/article/download/13/4/69 200 "Mozilla/5.0 AppleWebKit/537.36 (KHTML, like Gecko; compatible; Googlebot/2.1; +http://www.google.com/bot.html) Chrome/94.0.4606.61 Safari/537.36"
66.249.79.220 bot - "2021-10-05 06:21:05" localhost/index.php/ifi/article/download/14/3/64 200 "Mozilla/5.0 AppleWebKit/537.36 (KHTML, like Gecko; compatible; Googlebot/2.1; +http://www.google.com/bot.html) Chrome/94.0.4606.61 Safari/537.36"
66.249.79.220 bot - "2021-10-05 06:21:16" localhost/index.php/ifi/article/download/13/4/69 200 "Mozilla/5.0 AppleWebKit/537.36 (KHTML, like Gecko; compatible; Googlebot/2.1; +http://www.google.com/bot.html) Chrome/94.0.4606.61 Safari/537.36"
66.249.79.222 bot - "2021-10-05 06:24:59" localhost/index.php/ifi/article/download/10/2/61 200 "Mozilla/5.0 AppleWebKit/537.36 (KHTML, like Gecko; compatible; Googlebot/2.1; +http://www.google.com/bot.html) Chrome/94.0.4606.61 Safari/537.36"
66.249.79.192 bot - "2021-10-05 06:27:20" localhost/index.php/ifi/article/download/15/5/70 200 "Mozilla/5.0 AppleWebKit/537.36 (KHTML, like Gecko; compatible; Googlebot/2.1; +http://www.google.com/bot.html) Chrome/94.0.4606.61 Safari/537.36"
182.0.137.183 - - "2021-10-05 07:13:51" localhost/index.php/imeij/index 200 "Mozilla/5.0 (Windows NT 6.1) AppleWebKit/537.36 (KHTML, like Gecko) Chrome/94.0.4606.61 Safari/537.36"
40.77.167.25 bot - "2021-10-05 08:27:34" localhost/index.php/ifi/issue/view/4 200 "Mozilla/5.0 (compatible; bingbot/2.0; +http://www.bing.com/bingbot.htm)"
114.119.133.126 bot - "2021-10-05 09:58:50" localhost/index.php/ifi/article/download/13/4/69 200 "Mozilla/5.0 (Linux; Android 7.0;) AppleWebKit/537.36 (KHTML, like Gecko) Mobile Safari/537.36 (compatible; PetalBot;+https://webmaster.petalsearch.com/site/petalbot)"
185.191.171.10 bot - "2021-10-05 10:18:55" localhost/index.php/imeij/issue/download/5/3 200 "Mozilla/5.0 (compatible; SemrushBot/7~bl; +http://www.semrush.com/bot.html)"
182.0.170.55 - - "2021-10-05 11:10:50" localhost/index.php/ifi/index 200 "Mozilla/5.0 (Windows NT 6.1) AppleWebKit/537.36 (KHTML, like Gecko) Chrome/94.0.4606.61 Safari/537.36"
182.0.170.55 administrative 7 "2021-10-05 11:13:21" localhost/index.php/ifi/index 200 "Mozilla/5.0 (Windows NT 6.1) AppleWebKit/537.36 (KHTML, like Gecko) Chrome/94.0.4606.61 Safari/537.36"
182.0.170.55 administrative 7 "2021-10-05 11:13:34" localhost/index.php/ifi/index 200 "Mozilla/5.0 (Windows NT 6.1) AppleWebKit/537.36 (KHTML, like Gecko) Chrome/94.0.4606.61 Safari/537.36"
182.0.170.55 - - "2021-10-05 11:14:35" localhost/index.php/ifi/index 200 "Mozilla/5.0 (Windows NT 6.1) AppleWebKit/537.36 (KHTML, like Gecko) Chrome/94.0.4606.61 Safari/537.36"
182.0.170.55 - - "2021-10-05 11:14:41" localhost/index.php/ifi/index 200 "Mozilla/5.0 (Windows NT 6.1) AppleWebKit/537.36 (KHTML, like Gecko) Chrome/94.0.4606.61 Safari/537.36"
114.119.133.14 bot - "2021-10-05 11:16:41" localhost/index.php/idiea/index 200 "Mozilla/5.0 (Linux; Android 7.0;) AppleWebKit/537.36 (KHTML, like Gecko) Mobile Safari/537.36 (compatible; PetalBot;+https://webmaster.petalsearch.com/site/petalbot)"
182.0.170.55 - - "2021-10-05 11:16:53" localhost/index.php/ifi/index 200 "Mozilla/5.0 (Windows NT 6.1) AppleWebKit/537.36 (KHTML, like Gecko) Chrome/94.0.4606.61 Safari/537.36"
182.0.170.55 - - "2021-10-05 11:17:02" localhost/index.php/ifi/issue/view/4 200 "Mozilla/5.0 (Windows NT 6.1) AppleWebKit/537.36 (KHTML, like Gecko) Chrome/94.0.4606.61 Safari/537.36"
114.119.133.134 bot - "2021-10-05 11:29:40" localhost/index.php/idiea/index 200 "Mozilla/5.0 (Linux; Android 7.0;) AppleWebKit/537.36 (KHTML, like Gecko) Mobile Safari/537.36 (compatible; PetalBot;+https://webmaster.petalsearch.com/site/petalbot)"
207.46.13.103 bot - "2021-10-05 12:11:27" localhost/index.php/idijes/index 200 "Mozilla/5.0 (compatible; bingbot/2.0; +http://www.bing.com/bingbot.htm)"
66.249.79.222 bot - "2021-10-05 14:15:48" localhost/index.php/imeij/issue/view/5 200 "Googlebot/2.1 (+http://www.google.com/bot.html)"
216.244.66.203 bot - "2021-10-05 14:20:08" localhost/index.php/ifi/issue/view/4 200 "Mozilla/5.0 (compatible; DotBot/1.2; +https://opensiteexplorer.org/dotbot; help@moz.com)"
182.2.138.186 - - "2021-10-05 14:29:10" localhost/index.php/imeij/index 200 "Mozilla/5.0 (Windows NT 6.1) AppleWebKit/537.36 (KHTML, like Gecko) Chrome/94.0.4606.61 Safari/537.36"
66.249.79.220 bot - "2021-10-05 14:55:10" localhost/index.php/ifi/issue/view/4 200 "Googlebot/2.1 (+http://www.google.com/bot.html)"
40.77.167.25 bot - "2021-10-05 15:39:08" localhost/index.php/ifi/issue/view/4 200 "Mozilla/5.0 (compatible; bingbot/2.0; +http://www.bing.com/bingbot.htm)"
216.244.66.203 bot - "2021-10-05 15:54:03" localhost/index.php/ifi/article/view/8 200 "Mozilla/5.0 (compatible; DotBot/1.2; +https://opensiteexplorer.org/dotbot; help@moz.com)"
114.119.133.138 bot - "2021-10-05 17:45:47" localhost/index.php/imeij/issue/view/5 200 "Mozilla/5.0 (Linux; Android 7.0;) AppleWebKit/537.36 (KHTML, like Gecko) Mobile Safari/537.36 (compatible; PetalBot;+https://webmaster.petalsearch.com/site/petalbot)"
114.119.133.130 bot - "2021-10-05 17:58:06" localhost/index.php/ifi/issue/view/4 200 "Mozilla/5.0 (Linux; Android 7.0;) AppleWebKit/537.36 (KHTML, like Gecko) Mobile Safari/537.36 (compatible; PetalBot;+https://webmaster.petalsearch.com/site/petalbot)"
114.119.133.138 bot - "2021-10-05 18:10:26" localhost/index.php/ifi/index 200 "Mozilla/5.0 (Linux; Android 7.0;) AppleWebKit/537.36 (KHTML, like Gecko) Mobile Safari/537.36 (compatible; PetalBot;+https://webmaster.petalsearch.com/site/petalbot)"
184.154.139.23 - - "2021-10-05 19:25:03" localhost/index.php/imeij/index 200 "Mozilla/5.0 (compatible; MSIE 9.0; Windows NT 6.1; WOW64; Trident/6.0)"
180.245.32.74 - - "2021-10-05 20:24:23" localhost/index.php/idiea/index 200 "Mozilla/5.0 (Windows NT 10.0; Win64; x64) AppleWebKit/537.36 (KHTML, like Gecko) Chrome/94.0.4606.71 Safari/537.36"
180.245.32.74 - - "2021-10-05 20:24:27" localhost/index.php/idijes/index 200 "Mozilla/5.0 (Windows NT 10.0; Win64; x64) AppleWebKit/537.36 (KHTML, like Gecko) Chrome/94.0.4606.71 Safari/537.36"
180.245.32.74 - - "2021-10-05 20:26:22" localhost/index.php/ifi/index 200 "Mozilla/5.0 (Windows NT 10.0; Win64; x64) AppleWebKit/537.36 (KHTML, like Gecko) Chrome/94.0.4606.71 Safari/537.36"
114.119.133.142 bot - "2021-10-05 20:26:26" localhost/index.php/ifi/issue/view/4 200 "Mozilla/5.0 (Linux; Android 7.0;) AppleWebKit/537.36 (KHTML, like Gecko) Mobile Safari/537.36 (compatible; PetalBot;+https://webmaster.petalsearch.com/site/petalbot)"
185.253.162.11 - - "2021-10-05 20:48:11" localhost/index.php/imeij/index 200 "Mozilla/5.0 (Macintosh; Intel Mac OS X 10.11; rv:61.0) Gecko/20100101 Firefox/61.0"
114.119.133.14 bot - "2021-10-05 20:50:48" localhost/index.php/imeij/article/download/16/6/74 200 "Mozilla/5.0 (Linux; Android 7.0;) AppleWebKit/537.36 (KHTML, like Gecko) Mobile Safari/537.36 (compatible; PetalBot;+https://webmaster.petalsearch.com/site/petalbot)"
185.169.255.163 - - "2021-10-05 21:21:06" localhost/index.php/imeij/issue/view/5 200 "Mozilla/5.0 (Windows NT 10.0; Win64; x64) AppleWebKit/537.36 (KHTML, like Gecko) Chrome/94.0.4606.61 Safari/537.36"
185.169.255.163 - - "2021-10-05 21:21:36" localhost/index.php/imeij/article/view/16 200 "Mozilla/5.0 (Windows NT 10.0; Win64; x64) AppleWebKit/537.36 (KHTML, like Gecko) Chrome/94.0.4606.61 Safari/537.36"
216.244.66.203 bot - "2021-10-05 21:23:05" localhost/index.php/imeij/issue/view/5 200 "Mozilla/5.0 (compatible; DotBot/1.2; +https://opensiteexplorer.org/dotbot; help@moz.com)"
185.169.255.163 - - "2021-10-05 21:24:20" localhost/index.php/imeij/article/download/16/6/74 200 "Mozilla/5.0 (Windows NT 10.0; Win64; x64) AppleWebKit/537.36 (KHTML, like Gecko) Chrome/94.0.4606.61 Safari/537.36"
180.245.32.74 - - "2021-10-05 21:26:28" localhost/index.php/idiea/index 200 "Mozilla/5.0 (Windows NT 10.0; Win64; x64) AppleWebKit/537.36 (KHTML, like Gecko) Chrome/94.0.4606.71 Safari/537.36"
185.169.255.163 - - "2021-10-05 21:26:31" localhost/index.php/imeij/article/view/16 200 "Mozilla/5.0 (Windows NT 10.0; Win64; x64) AppleWebKit/537.36 (KHTML, like Gecko) Chrome/94.0.4606.61 Safari/537.36"
185.169.255.163 - - "2021-10-05 21:26:35" localhost/index.php/imeij/article/download/16/6/74 200 "Mozilla/5.0 (Windows NT 10.0; Win64; x64) AppleWebKit/537.36 (KHTML, like Gecko) Chrome/94.0.4606.61 Safari/537.36"
180.245.32.74 - - "2021-10-05 21:26:35" localhost/index.php/idijes/index 200 "Mozilla/5.0 (Windows NT 10.0; Win64; x64) AppleWebKit/537.36 (KHTML, like Gecko) Chrome/94.0.4606.71 Safari/537.36"
185.169.255.163 - - "2021-10-05 21:26:53" localhost/index.php/imeij/article/view/16 200 "Mozilla/5.0 (Windows NT 10.0; Win64; x64) AppleWebKit/537.36 (KHTML, like Gecko) Chrome/94.0.4606.61 Safari/537.36"
185.169.255.163 - - "2021-10-05 21:26:55" localhost/index.php/imeij/article/download/16/6/74 200 "Mozilla/5.0 (Windows NT 10.0; Win64; x64) AppleWebKit/537.36 (KHTML, like Gecko) Chrome/94.0.4606.61 Safari/537.36"
185.169.255.163 - - "2021-10-05 21:26:56" localhost/index.php/imeij/article/view/16 200 "Mozilla/5.0 (Windows NT 10.0; Win64; x64) AppleWebKit/537.36 (KHTML, like Gecko) Chrome/94.0.4606.61 Safari/537.36"
185.169.255.163 - - "2021-10-05 21:26:57" localhost/index.php/imeij/issue/view/5 200 "Mozilla/5.0 (Windows NT 10.0; Win64; x64) AppleWebKit/537.36 (KHTML, like Gecko) Chrome/94.0.4606.61 Safari/537.36"
185.169.255.163 - - "2021-10-05 21:27:02" localhost/index.php/imeij/issue/view/5 200 "Mozilla/5.0 (Windows NT 10.0; Win64; x64) AppleWebKit/537.36 (KHTML, like Gecko) Chrome/94.0.4606.61 Safari/537.36"
185.169.255.163 - - "2021-10-05 21:27:09" localhost/index.php/ifi/issue/view/4 200 "Mozilla/5.0 (Windows NT 10.0; Win64; x64) AppleWebKit/537.36 (KHTML, like Gecko) Chrome/94.0.4606.61 Safari/537.36"
185.169.255.163 - - "2021-10-05 21:27:14" localhost/index.php/ifi/article/view/15 200 "Mozilla/5.0 (Windows NT 10.0; Win64; x64) AppleWebKit/537.36 (KHTML, like Gecko) Chrome/94.0.4606.61 Safari/537.36"
185.169.255.163 - - "2021-10-05 21:27:24" localhost/index.php/ifi/article/download/15/5/70 200 "Mozilla/5.0 (Windows NT 10.0; Win64; x64) AppleWebKit/537.36 (KHTML, like Gecko) Chrome/94.0.4606.61 Safari/537.36"
185.169.255.163 - - "2021-10-05 21:27:31" localhost/index.php/ifi/article/view/15 200 "Mozilla/5.0 (Windows NT 10.0; Win64; x64) AppleWebKit/537.36 (KHTML, like Gecko) Chrome/94.0.4606.61 Safari/537.36"
185.169.255.163 - - "2021-10-05 21:28:16" localhost/index.php/ifi/index 200 "Mozilla/5.0 (Windows NT 10.0; Win64; x64) AppleWebKit/537.36 (KHTML, like Gecko) Chrome/94.0.4606.61 Safari/537.36"
180.245.32.74 - - "2021-10-05 21:28:20" localhost/index.php/idijes/index 200 "Mozilla/5.0 (Windows NT 10.0; Win64; x64) AppleWebKit/537.36 (KHTML, like Gecko) Chrome/94.0.4606.71 Safari/537.36"
180.245.32.74 - - "2021-10-05 21:29:01" localhost/index.php/ifi/index 200 "Mozilla/5.0 (Windows NT 10.0; Win64; x64) AppleWebKit/537.36 (KHTML, like Gecko) Chrome/94.0.4606.71 Safari/537.36"
180.245.32.74 - - "2021-10-05 21:29:18" localhost/index.php/ifi/index 200 "Mozilla/5.0 (Windows NT 10.0; Win64; x64) AppleWebKit/537.36 (KHTML, like Gecko) Chrome/94.0.4606.71 Safari/537.36"
180.245.32.74 - - "2021-10-05 21:29:21" localhost/index.php/ifi/index 200 "Mozilla/5.0 (Windows NT 10.0; Win64; x64) AppleWebKit/537.36 (KHTML, like Gecko) Chrome/94.0.4606.71 Safari/537.36"
180.245.32.74 - - "2021-10-05 21:33:35" localhost/index.php/idijes/index 200 "Mozilla/5.0 (Windows NT 10.0; Win64; x64) AppleWebKit/537.36 (KHTML, like Gecko) Chrome/94.0.4606.71 Safari/537.36"
180.245.32.74 - - "2021-10-05 21:34:41" localhost/index.php/idijes/index 200 "Mozilla/5.0 (Windows NT 10.0; Win64; x64) AppleWebKit/537.36 (KHTML, like Gecko) Chrome/94.0.4606.71 Safari/537.36"
180.245.32.74 - - "2021-10-05 21:42:17" localhost/index.php/ifi/index 200 "Mozilla/5.0 (Windows NT 10.0; Win64; x64) AppleWebKit/537.36 (KHTML, like Gecko) Chrome/94.0.4606.71 Safari/537.36"
180.245.32.74 - - "2021-10-05 21:42:52" localhost/index.php/ifi/index 200 "Mozilla/5.0 (Windows NT 10.0; Win64; x64) AppleWebKit/537.36 (KHTML, like Gecko) Chrome/94.0.4606.71 Safari/537.36"
180.245.32.74 - - "2021-10-05 21:43:16" localhost/index.php/idijes/index 200 "Mozilla/5.0 (Windows NT 10.0; Win64; x64) AppleWebKit/537.36 (KHTML, like Gecko) Chrome/94.0.4606.71 Safari/537.36"
180.245.32.74 - - "2021-10-05 21:48:15" localhost/index.php/idijes/index 200 "Mozilla/5.0 (Windows NT 10.0; Win64; x64) AppleWebKit/537.36 (KHTML, like Gecko) Chrome/94.0.4606.71 Safari/537.36"
180.245.32.74 - - "2021-10-05 21:51:26" localhost/index.php/idijes/index 200 "Mozilla/5.0 (Windows NT 10.0; Win64; x64) AppleWebKit/537.36 (KHTML, like Gecko) Chrome/94.0.4606.71 Safari/537.36"
180.245.32.74 - - "2021-10-05 21:51:41" localhost/index.php/idijes/index 200 "WhatsApp/2.2134.10 N"
180.245.32.74 - - "2021-10-05 21:51:59" localhost/index.php/idijes/index 200 "Mozilla/5.0 (Windows NT 10.0; Win64; x64) AppleWebKit/537.36 (KHTML, like Gecko) Chrome/94.0.4606.71 Safari/537.36"
180.245.32.74 - - "2021-10-05 21:52:58" localhost/index.php/idijes/index 200 "Mozilla/5.0 (Windows NT 10.0; Win64; x64) AppleWebKit/537.36 (KHTML, like Gecko) Chrome/94.0.4606.71 Safari/537.36"
182.2.138.66 - - "2021-10-05 21:53:43" localhost/index.php/idijes/index 200 "Mozilla/5.0 (Windows NT 6.1) AppleWebKit/537.36 (KHTML, like Gecko) Chrome/94.0.4606.71 Safari/537.36"
180.245.32.74 - - "2021-10-05 21:53:49" localhost/index.php/idijes/index 200 "Mozilla/5.0 (Windows NT 10.0; Win64; x64) AppleWebKit/537.36 (KHTML, like Gecko) Chrome/94.0.4606.71 Safari/537.36"
180.245.32.74 - - "2021-10-05 21:54:29" localhost/index.php/idijes/index 200 "Mozilla/5.0 (Windows NT 10.0; Win64; x64) AppleWebKit/537.36 (KHTML, like Gecko) Chrome/94.0.4606.71 Safari/537.36"
182.2.138.66 - - "2021-10-05 21:54:53" localhost/index.php/ifi/index 200 "Mozilla/5.0 (Windows NT 6.1) AppleWebKit/537.36 (KHTML, like Gecko) Chrome/94.0.4606.71 Safari/537.36"
180.245.32.74 - - "2021-10-05 21:55:11" localhost/index.php/ifi/index 200 "Mozilla/5.0 (Windows NT 10.0; Win64; x64) AppleWebKit/537.36 (KHTML, like Gecko) Chrome/94.0.4606.71 Safari/537.36"
180.245.32.74 - - "2021-10-05 21:56:09" localhost/index.php/idijes/index 200 "Mozilla/5.0 (Windows NT 10.0; Win64; x64) AppleWebKit/537.36 (KHTML, like Gecko) Chrome/94.0.4606.71 Safari/537.36"
180.245.32.74 - - "2021-10-05 21:56:38" localhost/index.php/idijes/index 200 "Mozilla/5.0 (Windows NT 10.0; Win64; x64) AppleWebKit/537.36 (KHTML, like Gecko) Chrome/94.0.4606.71 Safari/537.36"
180.245.32.74 - - "2021-10-05 21:57:09" localhost/index.php/idijes/index 200 "Mozilla/5.0 (Windows NT 10.0; Win64; x64) AppleWebKit/537.36 (KHTML, like Gecko) Chrome/94.0.4606.71 Safari/537.36"
180.245.32.74 - - "2021-10-05 21:57:28" localhost/index.php/idijes/index 200 "Mozilla/5.0 (Windows NT 10.0; Win64; x64) AppleWebKit/537.36 (KHTML, like Gecko) Chrome/94.0.4606.71 Safari/537.36"
180.245.32.74 - - "2021-10-05 21:58:18" localhost/index.php/idijes/index 200 "Mozilla/5.0 (Windows NT 10.0; Win64; x64) AppleWebKit/537.36 (KHTML, like Gecko) Chrome/94.0.4606.71 Safari/537.36"
180.245.32.74 - - "2021-10-05 21:59:48" localhost/index.php/ifi/index 200 "Mozilla/5.0 (Windows NT 10.0; Win64; x64) AppleWebKit/537.36 (KHTML, like Gecko) Chrome/94.0.4606.71 Safari/537.36"
180.245.32.74 - - "2021-10-05 22:00:18" localhost/index.php/idijes/index 200 "Mozilla/5.0 (Windows NT 10.0; Win64; x64) AppleWebKit/537.36 (KHTML, like Gecko) Chrome/94.0.4606.71 Safari/537.36"
180.245.32.74 administrative 1 "2021-10-05 22:00:41" localhost/index.php/idijes/index 200 "Mozilla/5.0 (Windows NT 10.0; Win64; x64) AppleWebKit/537.36 (KHTML, like Gecko) Chrome/94.0.4606.71 Safari/537.36"
182.2.138.66 - - "2021-10-05 22:00:50" localhost/index.php/ifi/index 200 "Mozilla/5.0 (Windows NT 6.1) AppleWebKit/537.36 (KHTML, like Gecko) Chrome/94.0.4606.71 Safari/537.36"
182.2.138.66 - - "2021-10-05 22:01:15" localhost/index.php/ifi/issue/view/4 200 "Mozilla/5.0 (Windows NT 6.1) AppleWebKit/537.36 (KHTML, like Gecko) Chrome/94.0.4606.71 Safari/537.36"
180.245.32.74 administrative 1 "2021-10-05 22:01:19" localhost/index.php/idijes/index 200 "Mozilla/5.0 (Windows NT 10.0; Win64; x64) AppleWebKit/537.36 (KHTML, like Gecko) Chrome/94.0.4606.71 Safari/537.36"
182.2.138.66 - - "2021-10-05 22:01:42" localhost/index.php/ifi/article/download/14/3/64 200 "Mozilla/5.0 (Windows NT 6.1) AppleWebKit/537.36 (KHTML, like Gecko) Chrome/94.0.4606.71 Safari/537.36"
182.2.138.66 - - "2021-10-05 22:07:28" localhost/index.php/ifi/index 200 "Mozilla/5.0 (Windows NT 6.1) AppleWebKit/537.36 (KHTML, like Gecko) Chrome/94.0.4606.71 Safari/537.36"
180.245.32.74 - - "2021-10-05 22:09:30" localhost/index.php/ifi/index 200 "Mozilla/5.0 (Windows NT 10.0; Win64; x64) AppleWebKit/537.36 (KHTML, like Gecko) Chrome/94.0.4606.71 Safari/537.36"
180.245.32.74 - - "2021-10-05 22:09:49" localhost/index.php/ifi/index 200 "Mozilla/5.0 (Windows NT 10.0; Win64; x64) AppleWebKit/537.36 (KHTML, like Gecko) Chrome/94.0.4606.71 Safari/537.36"
216.244.66.203 bot - "2021-10-05 22:10:08" localhost/index.php/ifi/article/download/14/3/64 200 "Mozilla/5.0 (compatible; DotBot/1.2; +https://opensiteexplorer.org/dotbot; help@moz.com)"
182.2.138.66 administrative 7 "2021-10-05 22:12:00" localhost/index.php/ifi/index 200 "Mozilla/5.0 (Windows NT 6.1) AppleWebKit/537.36 (KHTML, like Gecko) Chrome/94.0.4606.71 Safari/537.36"
182.2.138.66 administrative 7 "2021-10-05 22:18:57" localhost/index.php/ifi/index 200 "Mozilla/5.0 (Windows NT 6.1) AppleWebKit/537.36 (KHTML, like Gecko) Chrome/94.0.4606.71 Safari/537.36"
182.2.138.66 administrative 7 "2021-10-05 22:19:03" localhost/index.php/ifi/article/view/8 200 "Mozilla/5.0 (Windows NT 6.1) AppleWebKit/537.36 (KHTML, like Gecko) Chrome/94.0.4606.71 Safari/537.36"
182.2.138.66 administrative 7 "2021-10-05 22:19:10" localhost/index.php/ifi/article/download/8/1/34 200 "Mozilla/5.0 (Windows NT 6.1) AppleWebKit/537.36 (KHTML, like Gecko) Chrome/94.0.4606.71 Safari/537.36"
182.2.138.66 - - "2021-10-05 22:20:51" localhost/index.php/ifi/issue/view/4 200 "Mozilla/5.0 (Windows NT 6.1) AppleWebKit/537.36 (KHTML, like Gecko) Chrome/94.0.4606.71 Safari/537.36"
182.2.138.66 - - "2021-10-05 22:20:55" localhost/index.php/ifi/article/download/8/1/34 200 "Mozilla/5.0 (Windows NT 6.1) AppleWebKit/537.36 (KHTML, like Gecko) Chrome/94.0.4606.71 Safari/537.36"
180.245.32.74 - - "2021-10-05 22:21:12" localhost/index.php/ifi/index 200 "Mozilla/5.0 (Windows NT 10.0; Win64; x64) AppleWebKit/537.36 (KHTML, like Gecko) Chrome/94.0.4606.71 Safari/537.36"
180.245.32.74 - - "2021-10-05 22:22:38" localhost/index.php/ifi/index 200 "Mozilla/5.0 (Windows NT 10.0; Win64; x64) AppleWebKit/537.36 (KHTML, like Gecko) Chrome/94.0.4606.71 Safari/537.36"
180.245.32.74 - - "2021-10-05 22:25:05" localhost/index.php/ifi/index 200 "Mozilla/5.0 (Windows NT 10.0; Win64; x64) AppleWebKit/537.36 (KHTML, like Gecko) Chrome/94.0.4606.71 Safari/537.36"
180.245.32.74 administrative 1 "2021-10-05 22:25:45" localhost/index.php/ifi/article/view/10 200 "Mozilla/5.0 (Windows NT 10.0; Win64; x64) AppleWebKit/537.36 (KHTML, like Gecko) Chrome/94.0.4606.71 Safari/537.36"
180.245.32.74 administrative 1 "2021-10-05 22:26:25" localhost/index.php/ifi/issue/view/4 200 "Mozilla/5.0 (Windows NT 10.0; Win64; x64) AppleWebKit/537.36 (KHTML, like Gecko) Chrome/94.0.4606.71 Safari/537.36"
182.2.138.66 - - "2021-10-05 22:28:08" localhost/index.php/imeij/index 200 "Mozilla/5.0 (Windows NT 6.1) AppleWebKit/537.36 (KHTML, like Gecko) Chrome/94.0.4606.71 Safari/537.36"
180.245.32.74 - - "2021-10-05 22:35:50" localhost/index.php/idijes/index 200 "Mozilla/5.0 (Linux; Android 10; Redmi Note 8) AppleWebKit/537.36 (KHTML, like Gecko) Chrome/94.0.4606.71 Mobile Safari/537.36"
207.46.13.103 bot - "2021-10-05 22:41:19" localhost/index.php/idijes/index 200 "Mozilla/5.0 (compatible; bingbot/2.0; +http://www.bing.com/bingbot.htm)"
40.77.167.34 bot - "2021-10-05 22:43:27" localhost/index.php/idijes/index 200 "Mozilla/5.0 (compatible; bingbot/2.0; +http://www.bing.com/bingbot.htm)"
157.55.39.108 bot - "2021-10-05 22:43:27" localhost/index.php/idijes/index 200 "Mozilla/5.0 (compatible; bingbot/2.0; +http://www.bing.com/bingbot.htm)"
216.244.66.203 bot - "2021-10-05 22:56:32" localhost/index.php/idiea/index 200 "Mozilla/5.0 (compatible; DotBot/1.2; +https://opensiteexplorer.org/dotbot; help@moz.com)"
182.2.138.66 - - "2021-10-05 22:58:23" localhost/index.php/imeij/issue/view/5 200 "Mozilla/5.0 (Windows NT 6.1) AppleWebKit/537.36 (KHTML, like Gecko) Chrome/94.0.4606.71 Safari/537.36"
182.2.138.66 - - "2021-10-05 22:58:27" localhost/index.php/imeij/index 200 "Mozilla/5.0 (Windows NT 6.1) AppleWebKit/537.36 (KHTML, like Gecko) Chrome/94.0.4606.71 Safari/537.36"
182.2.138.66 - - "2021-10-05 23:25:17" localhost/index.php/ifi/index 200 "Mozilla/5.0 (Windows NT 6.1) AppleWebKit/537.36 (KHTML, like Gecko) Chrome/94.0.4606.71 Safari/537.36"
182.2.138.66 - - "2021-10-05 23:26:16" localhost/index.php/ifi/article/download/8/1/34 200 "Mozilla/5.0 (Windows NT 6.1) AppleWebKit/537.36 (KHTML, like Gecko) Chrome/94.0.4606.71 Safari/537.36"
216.244.66.203 bot - "2021-10-05 23:43:31" localhost/index.php/idijes/index 200 "Mozilla/5.0 (compatible; DotBot/1.2; +https://opensiteexplorer.org/dotbot; help@moz.com)"
