66.249.66.1 bot - "2022-06-11 00:39:59" localhost/index.php/imeij/article/download/31/19/174 200 "Googlebot/2.1 (+http://www.google.com/bot.html)"
114.119.130.33 bot - "2022-06-11 01:08:31" localhost/index.php/imeij/article/view/36 200 "Mozilla/5.0 (Linux; Android 7.0;) AppleWebKit/537.36 (KHTML, like Gecko) Mobile Safari/537.36 (compatible; PetalBot;+https://webmaster.petalsearch.com/site/petalbot)"
66.249.66.86 bot - "2022-06-11 01:08:59" localhost/index.php/imeij/issue/view/11 200 "Googlebot/2.1 (+http://www.google.com/bot.html)"
103.131.71.170 bot - "2022-06-11 01:13:33" localhost/index.php/ifi/index 200 "Mozilla/5.0 (compatible; coccocbot-web/1.0; +http://help.coccoc.com/searchengine)"
66.249.66.138 bot - "2022-06-11 01:15:17" localhost/index.php/imeij/issue/view/6 200 "Googlebot/2.1 (+http://www.google.com/bot.html)"
66.249.66.138 bot - "2022-06-11 01:16:41" localhost/index.php/imeij/index 200 "Googlebot/2.1 (+http://www.google.com/bot.html)"
54.36.149.44 bot - "2022-06-11 01:18:27" localhost/index.php/imeij/article/view/25 200 "Mozilla/5.0 (compatible; AhrefsBot/7.0; +http://ahrefs.com/robot/)"
66.249.66.46 bot - "2022-06-11 01:19:21" localhost/index.php/imeij/article/view/20 200 "Googlebot/2.1 (+http://www.google.com/bot.html)"
66.249.66.202 bot - "2022-06-11 01:36:10" localhost/index.php/imeij/article/download/35/20/190 200 "Googlebot/2.1 (+http://www.google.com/bot.html)"
66.249.66.202 bot - "2022-06-11 02:18:05" localhost/index.php/imeij/article/view/16 200 "Googlebot/2.1 (+http://www.google.com/bot.html)"
54.36.148.111 bot - "2022-06-11 02:41:32" localhost/index.php/imeij/issue/view/11 200 "Mozilla/5.0 (compatible; AhrefsBot/7.0; +http://ahrefs.com/robot/)"
185.191.171.36 bot - "2022-06-11 02:54:28" localhost/index.php/imeij/article/view/12 200 "Mozilla/5.0 (compatible; SemrushBot/7~bl; +http://www.semrush.com/bot.html)"
114.119.130.31 bot - "2022-06-11 03:56:19" localhost/index.php/imeij/article/view/12 200 "Mozilla/5.0 (Linux; Android 7.0;) AppleWebKit/537.36 (KHTML, like Gecko) Mobile Safari/537.36 (compatible; PetalBot;+https://webmaster.petalsearch.com/site/petalbot)"
185.191.171.15 bot - "2022-06-11 07:46:55" localhost/index.php/imeij/article/download/12/9/86 200 "Mozilla/5.0 (compatible; SemrushBot/7~bl; +http://www.semrush.com/bot.html)"
185.191.171.2 bot - "2022-06-11 08:27:40" localhost/index.php/idijes/index 200 "Mozilla/5.0 (compatible; SemrushBot/7~bl; +http://www.semrush.com/bot.html)"
54.36.148.27 bot - "2022-06-11 08:52:48" localhost/index.php/imeij/index 200 "Mozilla/5.0 (compatible; AhrefsBot/7.0; +http://ahrefs.com/robot/)"
114.119.130.31 bot - "2022-06-11 09:26:43" localhost/index.php/idijes/index 200 "Mozilla/5.0 (Linux; Android 7.0;) AppleWebKit/537.36 (KHTML, like Gecko) Mobile Safari/537.36 (compatible; PetalBot;+https://webmaster.petalsearch.com/site/petalbot)"
182.0.231.61 - - "2022-06-11 09:57:22" localhost/index.php/ifi/index 200 "Mozilla/5.0 (Windows NT 6.1) AppleWebKit/537.36 (KHTML, like Gecko) Chrome/102.0.5005.63 Safari/537.36"
114.119.130.33 bot - "2022-06-11 10:13:48" localhost/index.php/imeij/article/download/24/14/105 200 "Mozilla/5.0 (Linux; Android 7.0;) AppleWebKit/537.36 (KHTML, like Gecko) Mobile Safari/537.36 (compatible; PetalBot;+https://webmaster.petalsearch.com/site/petalbot)"
194.104.8.108 - - "2022-06-11 10:30:46" localhost/index.php/ifi/article/view/10 200 "Mozilla/5.0 (Windows NT 6.3; Win64; x64) AppleWebKit/537.36 (KHTML, like Gecko) Chrome/90.0.4430.85 Safari/537.36 Edg/90.0.818.49"
54.36.149.91 bot - "2022-06-11 11:13:11" localhost/index.php/imeij/index 200 "Mozilla/5.0 (compatible; AhrefsBot/7.0; +http://ahrefs.com/robot/)"
114.119.130.31 bot - "2022-06-11 11:58:00" localhost/index.php/imeij/article/view/19 200 "Mozilla/5.0 (Linux; Android 7.0;) AppleWebKit/537.36 (KHTML, like Gecko) Mobile Safari/537.36 (compatible; PetalBot;+https://webmaster.petalsearch.com/site/petalbot)"
34.224.27.8 - - "2022-06-11 12:01:35" localhost/index.php/imeij/article/download/22/11/99 200 "Mozilla/5.0 (Macintosh; Intel Mac OS X 10_10_1) AppleWebKit/537.36 (KHTML, like Gecko) Chrome/44.0.2403.125 Safari/537.36"
66.249.66.88 bot - "2022-06-11 12:25:24" localhost/index.php/ifi/article/download/10/2/61 200 "Googlebot/2.1 (+http://www.google.com/bot.html)"
66.249.66.87 bot - "2022-06-11 13:07:10" localhost/index.php/idijes/index 200 "Googlebot/2.1 (+http://www.google.com/bot.html)"
66.249.66.88 bot - "2022-06-11 13:29:26" localhost/index.php/imeij/issue/view/11 200 "Googlebot/2.1 (+http://www.google.com/bot.html)"
66.249.66.88 bot - "2022-06-11 13:32:51" localhost/index.php/imeij/index 200 "Mozilla/5.0 (Linux; Android 6.0.1; Nexus 5X Build/MMB29P) AppleWebKit/537.36 (KHTML, like Gecko) Chrome/102.0.5005.61 Mobile Safari/537.36 (compatible; Googlebot/2.1; +http://www.google.com/bot.html)"
66.249.66.86 bot - "2022-06-11 13:37:34" localhost/index.php/imeij/issue/view/8 200 "Googlebot/2.1 (+http://www.google.com/bot.html)"
66.249.66.88 bot - "2022-06-11 14:27:02" localhost/index.php/idiea/index 200 "Googlebot/2.1 (+http://www.google.com/bot.html)"
66.249.66.87 bot - "2022-06-11 15:51:13" localhost/index.php/imeij/index 200 "Mozilla/5.0 (compatible; Googlebot/2.1; +http://www.google.com/bot.html)"
54.36.148.236 bot - "2022-06-11 16:15:16" localhost/index.php/imeij/issue/view/9 200 "Mozilla/5.0 (compatible; AhrefsBot/7.0; +http://ahrefs.com/robot/)"
207.46.13.96 bot - "2022-06-11 16:44:20" localhost/index.php/imeij/issue/view/9 200 "Mozilla/5.0 (compatible; bingbot/2.0; +http://www.bing.com/bingbot.htm)"
114.119.130.31 bot - "2022-06-11 18:06:24" localhost/index.php/imeij/article/view/24 200 "Mozilla/5.0 (Linux; Android 7.0;) AppleWebKit/537.36 (KHTML, like Gecko) Mobile Safari/537.36 (compatible; PetalBot;+https://webmaster.petalsearch.com/site/petalbot)"
207.241.225.159 - - "2022-06-11 18:44:13" localhost/index.php/imeij/article/view/35 200 "Mozilla/5.0 (Windows NT 10.0; Win64; x64) AppleWebKit/605.1.15 (KHTML, like Gecko) Chrome/89.0.4389.82 Safari/605.1.15"
207.241.227.105 - - "2022-06-11 18:44:17" localhost/index.php/imeij/article/view/35 200 "Mozilla/5.0 (Windows NT 10.0; Win64; x64) AppleWebKit/605.1.15 (KHTML, like Gecko) Chrome/89.0.4389.82 Safari/605.1.15"
207.241.232.35 - - "2022-06-11 18:44:23" localhost/index.php/imeij/article/download/35/20/190 200 "Mozilla/5.0 (Windows NT 10.0; Win64; x64) AppleWebKit/605.1.15 (KHTML, like Gecko) Chrome/89.0.4389.82 Safari/605.1.15"
207.241.231.144 bot - "2022-06-11 18:44:36" localhost/index.php/imeij/article/view/35 200 "Mozilla/5.0 (compatible; archive.org_bot +http://archive.org/details/archive.org_bot)"
207.241.233.139 bot - "2022-06-11 18:44:48" localhost/index.php/imeij/article/view/35 200 "Mozilla/5.0 (compatible; archive.org_bot +http://archive.org/details/archive.org_bot)"
207.241.225.236 - - "2022-06-11 18:53:42" localhost/index.php/imeij/article/view/36 200 "Mozilla/5.0 (Windows NT 10.0; Win64; x64) AppleWebKit/605.1.15 (KHTML, like Gecko) Chrome/89.0.4389.82 Safari/605.1.15"
207.241.232.35 - - "2022-06-11 18:53:45" localhost/index.php/imeij/article/view/36 200 "Mozilla/5.0 (Windows NT 10.0; Win64; x64) AppleWebKit/605.1.15 (KHTML, like Gecko) Chrome/89.0.4389.82 Safari/605.1.15"
207.241.232.35 - - "2022-06-11 18:53:50" localhost/index.php/imeij/article/download/36/21/189 200 "Mozilla/5.0 (Windows NT 10.0; Win64; x64) AppleWebKit/605.1.15 (KHTML, like Gecko) Chrome/89.0.4389.82 Safari/605.1.15"
207.241.234.182 bot - "2022-06-11 18:53:56" localhost/index.php/imeij/article/view/12 200 "Mozilla/5.0 (compatible; archive.org_bot +http://archive.org/details/archive.org_bot)"
207.241.234.182 bot - "2022-06-11 18:53:57" localhost/index.php/imeij/article/view/36 200 "Mozilla/5.0 (compatible; archive.org_bot +http://archive.org/details/archive.org_bot)"
207.241.234.182 bot - "2022-06-11 18:54:03" localhost/index.php/imeij/issue/view/9 200 "Mozilla/5.0 (compatible; archive.org_bot +http://archive.org/details/archive.org_bot)"
207.241.234.182 bot - "2022-06-11 18:54:04" localhost/index.php/imeij/article/view/16 200 "Mozilla/5.0 (compatible; archive.org_bot +http://archive.org/details/archive.org_bot)"
207.241.234.182 bot - "2022-06-11 18:54:13" localhost/index.php/imeij/issue/view/6 200 "Mozilla/5.0 (compatible; archive.org_bot +http://archive.org/details/archive.org_bot)"
207.241.232.38 bot - "2022-06-11 18:54:13" localhost/index.php/imeij/article/view/36 200 "Mozilla/5.0 (compatible; archive.org_bot +http://archive.org/details/archive.org_bot)"
207.46.13.194 bot - "2022-06-11 21:33:51" localhost/index.php/ifi/index 200 "Mozilla/5.0 (compatible; bingbot/2.0; +http://www.bing.com/bingbot.htm)"
114.119.130.31 bot - "2022-06-11 21:56:52" localhost/index.php/imeij/issue/view/6 200 "Mozilla/5.0 (Linux; Android 7.0;) AppleWebKit/537.36 (KHTML, like Gecko) Mobile Safari/537.36 (compatible; PetalBot;+https://webmaster.petalsearch.com/site/petalbot)"
207.241.225.157 - - "2022-06-11 22:09:41" localhost/index.php/imeij/article/view/20 200 "Mozilla/5.0 (Windows NT 10.0; Win64; x64) AppleWebKit/605.1.15 (KHTML, like Gecko) Chrome/89.0.4389.82 Safari/605.1.15"
207.241.225.241 - - "2022-06-11 22:09:45" localhost/index.php/imeij/article/view/20 200 "Mozilla/5.0 (Windows NT 10.0; Win64; x64) AppleWebKit/605.1.15 (KHTML, like Gecko) Chrome/89.0.4389.82 Safari/605.1.15"
207.241.235.134 - - "2022-06-11 22:09:54" localhost/index.php/imeij/article/download/20/13/128 200 "Mozilla/5.0 (Windows NT 10.0; Win64; x64) AppleWebKit/605.1.15 (KHTML, like Gecko) Chrome/89.0.4389.82 Safari/605.1.15"
207.241.232.38 bot - "2022-06-11 22:10:03" localhost/index.php/imeij/article/view/20 200 "Mozilla/5.0 (compatible; archive.org_bot +http://archive.org/details/archive.org_bot)"
207.241.231.144 bot - "2022-06-11 22:10:12" localhost/index.php/imeij/article/view/20 200 "Mozilla/5.0 (compatible; archive.org_bot +http://archive.org/details/archive.org_bot)"
40.77.167.63 bot - "2022-06-11 23:01:14" localhost/index.php/imeij/issue/view/8 200 "Mozilla/5.0 (compatible; bingbot/2.0; +http://www.bing.com/bingbot.htm)"
