114.119.130.3 bot - "2022-03-09 00:46:52" localhost/index.php/idijes/index 200 "Mozilla/5.0 (Linux; Android 7.0;) AppleWebKit/537.36 (KHTML, like Gecko) Mobile Safari/537.36 (compatible; PetalBot;+https://webmaster.petalsearch.com/site/petalbot)"
66.249.79.30 bot - "2022-03-09 01:17:57" localhost/index.php/imeij/article/download/16/6/74 200 "Googlebot/2.1 (+http://www.google.com/bot.html)"
66.249.79.30 bot - "2022-03-09 01:21:17" localhost/index.php/imeij/article/view/12 200 "Googlebot/2.1 (+http://www.google.com/bot.html)"
66.249.79.30 bot - "2022-03-09 02:51:10" localhost/index.php/imeij/article/view/21 200 "Googlebot/2.1 (+http://www.google.com/bot.html)"
66.249.79.1 bot - "2022-03-09 03:09:13" localhost/index.php/ifi/issue/view/4 200 "Googlebot/2.1 (+http://www.google.com/bot.html)"
66.249.79.30 bot - "2022-03-09 03:36:25" localhost/index.php/imeij/index 200 "Mozilla/5.0 (Linux; Android 6.0.1; Nexus 5X Build/MMB29P) AppleWebKit/537.36 (KHTML, like Gecko) Chrome/98.0.4758.102 Mobile Safari/537.36 (compatible; Googlebot/2.1; +http://www.google.com/bot.html)"
66.249.79.28 bot - "2022-03-09 03:45:58" localhost/index.php/imeij/article/download/21/10/98 200 "Googlebot/2.1 (+http://www.google.com/bot.html)"
66.249.79.28 bot - "2022-03-09 04:01:58" localhost/index.php/imeij/issue/view/9 200 "Googlebot/2.1 (+http://www.google.com/bot.html)"
66.249.79.28 bot - "2022-03-09 05:02:31" localhost/index.php/imeij/index 200 "Mozilla/5.0 (compatible; Googlebot/2.1; +http://www.google.com/bot.html)"
103.131.71.184 bot - "2022-03-09 08:21:04" localhost/index.php/ifi/article/download/8/1/34 200 "Mozilla/5.0 (compatible; coccocbot-web/1.0; +http://help.coccoc.com/searchengine)"
207.46.13.145 bot - "2022-03-09 08:26:09" localhost/index.php/ifi/article/view/10 200 "Mozilla/5.0 (compatible; bingbot/2.0; +http://www.bing.com/bingbot.htm)"
213.180.203.72 bot - "2022-03-09 08:26:20" localhost/index.php/imeij/article/view/19 200 "Mozilla/5.0 (compatible; YandexBot/3.0; +http://yandex.com/bots)"
114.119.150.68 bot - "2022-03-09 08:57:40" localhost/index.php/imeij/index 200 "Mozilla/5.0 (Linux; Android 7.0;) AppleWebKit/537.36 (KHTML, like Gecko) Mobile Safari/537.36 (compatible; PetalBot;+https://webmaster.petalsearch.com/site/petalbot)"
114.119.130.3 bot - "2022-03-09 10:33:20" localhost/index.php/idijes/index 200 "Mozilla/5.0 (Linux; Android 7.0;) AppleWebKit/537.36 (KHTML, like Gecko) Mobile Safari/537.36 (compatible; PetalBot;+https://webmaster.petalsearch.com/site/petalbot)"
114.119.130.3 bot - "2022-03-09 10:59:49" localhost/index.php/ifi/article/download/15/5/70 200 "Mozilla/5.0 (Linux; Android 7.0;) AppleWebKit/537.36 (KHTML, like Gecko) Mobile Safari/537.36 (compatible; PetalBot;+https://webmaster.petalsearch.com/site/petalbot)"
54.36.148.254 bot - "2022-03-09 11:02:02" localhost/index.php/imeij/article/view/16 200 "Mozilla/5.0 (compatible; AhrefsBot/7.0; +http://ahrefs.com/robot/)"
185.191.171.12 bot - "2022-03-09 11:12:28" localhost/index.php/ifi/index 200 "Mozilla/5.0 (compatible; SemrushBot/7~bl; +http://www.semrush.com/bot.html)"
114.119.130.30 bot - "2022-03-09 12:45:10" localhost/index.php/ifi/article/download/14/3/64 200 "Mozilla/5.0 (Linux; Android 7.0;) AppleWebKit/537.36 (KHTML, like Gecko) Mobile Safari/537.36 (compatible; PetalBot;+https://webmaster.petalsearch.com/site/petalbot)"
66.249.79.28 bot - "2022-03-09 14:59:21" localhost/index.php/imeij/issue/view/9 200 "Googlebot/2.1 (+http://www.google.com/bot.html)"
66.249.79.30 bot - "2022-03-09 15:26:58" localhost/index.php/ifi/issue/view/4 200 "Googlebot/2.1 (+http://www.google.com/bot.html)"
66.249.79.28 bot - "2022-03-09 16:06:29" localhost/index.php/ifi/article/download/8/1/34 200 "Mozilla/5.0 (Linux; Android 6.0.1; Nexus 5X Build/MMB29P) AppleWebKit/537.36 (KHTML, like Gecko) Chrome/98.0.4758.102 Mobile Safari/537.36 (compatible; Googlebot/2.1; +http://www.google.com/bot.html)"
114.119.150.68 bot - "2022-03-09 16:34:37" localhost/index.php/ifi/article/download/13/4/69 200 "Mozilla/5.0 (Linux; Android 7.0;) AppleWebKit/537.36 (KHTML, like Gecko) Mobile Safari/537.36 (compatible; PetalBot;+https://webmaster.petalsearch.com/site/petalbot)"
114.119.130.31 bot - "2022-03-09 16:40:08" localhost/index.php/idijes/index 200 "Mozilla/5.0 (Linux; Android 7.0;) AppleWebKit/537.36 (KHTML, like Gecko) Mobile Safari/537.36 (compatible; PetalBot;+https://webmaster.petalsearch.com/site/petalbot)"
114.119.130.33 bot - "2022-03-09 17:15:09" localhost/index.php/imeij/article/view/22 200 "Mozilla/5.0 (Linux; Android 7.0;) AppleWebKit/537.36 (KHTML, like Gecko) Mobile Safari/537.36 (compatible; PetalBot;+https://webmaster.petalsearch.com/site/petalbot)"
114.119.130.3 bot - "2022-03-09 17:37:42" localhost/index.php/imeij/issue/view/9 200 "Mozilla/5.0 (Linux; Android 7.0;) AppleWebKit/537.36 (KHTML, like Gecko) Mobile Safari/537.36 (compatible; PetalBot;+https://webmaster.petalsearch.com/site/petalbot)"
114.119.150.68 bot - "2022-03-09 17:43:18" localhost/index.php/ifi/article/view/14 200 "Mozilla/5.0 (Linux; Android 7.0;) AppleWebKit/537.36 (KHTML, like Gecko) Mobile Safari/537.36 (compatible; PetalBot;+https://webmaster.petalsearch.com/site/petalbot)"
66.249.79.30 bot - "2022-03-09 18:04:08" localhost/index.php/imeij/article/view/24 200 "Mozilla/5.0 (Linux; Android 6.0.1; Nexus 5X Build/MMB29P) AppleWebKit/537.36 (KHTML, like Gecko) Chrome/98.0.4758.102 Mobile Safari/537.36 (compatible; Googlebot/2.1; +http://www.google.com/bot.html)"
185.191.171.5 bot - "2022-03-09 19:19:27" localhost/index.php/ifi/article/view/10 200 "Mozilla/5.0 (compatible; SemrushBot/7~bl; +http://www.semrush.com/bot.html)"
184.154.139.23 - - "2022-03-09 20:21:51" localhost/index.php/imeij/issue/view/9 200 "Mozilla/5.0 (compatible; MSIE 9.0; Windows NT 6.1; WOW64; Trident/6.0)"
184.154.139.23 bot - "2022-03-09 20:21:55" localhost/index.php/idijes/index 200 "SiteLockSpider [en] (WinNT; I ;Nav)"
184.154.139.23 - - "2022-03-09 20:22:00" localhost/index.php/ifi/issue/view/4 200 "Mozilla/5.0 (compatible; MSIE 9.0; Windows NT 6.1; WOW64; Trident/6.0)"
114.119.130.33 bot - "2022-03-09 20:33:33" localhost/index.php/ifi/issue/view/4 200 "Mozilla/5.0 (Linux; Android 7.0;) AppleWebKit/537.36 (KHTML, like Gecko) Mobile Safari/537.36 (compatible; PetalBot;+https://webmaster.petalsearch.com/site/petalbot)"
54.36.149.29 bot - "2022-03-09 21:19:25" localhost/index.php/imeij/article/view/23 200 "Mozilla/5.0 (compatible; AhrefsBot/7.0; +http://ahrefs.com/robot/)"
157.55.39.170 bot - "2022-03-09 22:41:54" localhost/index.php/imeij/article/view/20 200 "Mozilla/5.0 (compatible; bingbot/2.0; +http://www.bing.com/bingbot.htm)"
