114.5.247.34 - - "2021-02-20 06:14:49" localhost/index.php/ifi/index 200 "Mozilla/5.0 (iPhone; CPU iPhone OS 10_2_1 like Mac OS X) AppleWebKit/602.4.6 (KHTML, like Gecko) Version/10.0 Mobile/14D27 Safari/602.1"
223.255.230.12 - - "2021-02-20 13:32:12" localhost/index.php/ifi/index 200 "Mozilla/5.0 (Linux; Android 8.1.0; SM-G610F) AppleWebKit/537.36 (KHTML, like Gecko) Chrome/84.0.4147.105 Mobile Safari/537.36"
125.161.131.99 - - "2021-02-20 19:29:26" localhost/index.php/idiea/index 200 "Mozilla/5.0 (Windows NT 10.0; Win64; x64) AppleWebKit/537.36 (KHTML, like Gecko) Chrome/88.0.4324.182 Safari/537.36"
125.161.131.99 - - "2021-02-20 19:30:47" localhost/index.php/ifi/index 200 "Mozilla/5.0 (Windows NT 10.0; Win64; x64) AppleWebKit/537.36 (KHTML, like Gecko) Chrome/88.0.4324.182 Safari/537.36"
125.161.131.99 administrative 12 "2021-02-20 19:32:55" localhost/index.php/ifi/index 200 "Mozilla/5.0 (Windows NT 10.0; Win64; x64) AppleWebKit/537.36 (KHTML, like Gecko) Chrome/88.0.4324.182 Safari/537.36"
125.161.131.99 administrative 12 "2021-02-20 19:38:55" localhost/index.php/ifi/index 200 "Mozilla/5.0 (Windows NT 10.0; Win64; x64) AppleWebKit/537.36 (KHTML, like Gecko) Chrome/88.0.4324.182 Safari/537.36"
125.161.131.99 administrative 12 "2021-02-20 19:40:07" localhost/index.php/ifi/index 200 "Mozilla/5.0 (Windows NT 10.0; Win64; x64) AppleWebKit/537.36 (KHTML, like Gecko) Chrome/88.0.4324.182 Safari/537.36"
